%!PS-Adobe-3.0 EPSF-3.0
%%Creator: ViennaRNA-2.3.3
%%CreationDate: Fri Feb 18 16:40:12 2022
%%Title: RNA Secondary Structure Plot
%%BoundingBox: 0 0 700 700
%%DocumentFonts: Helvetica
%%Pages: 1
%%EndComments

%Options: 
% to switch off outline pairs of sequence comment or
% delete the appropriate line near the end of the file

%%BeginProlog
/RNAplot 100 dict def
RNAplot begin
/fsize  14 def
/outlinecolor {0.2 setgray} bind def
/paircolor    {0.2 setgray} bind def
/seqcolor     {0   setgray} bind def
/cshow  { dup stringwidth pop -2 div fsize -3 div rmoveto show} bind def
/min { 2 copy gt { exch } if pop } bind def
/max { 2 copy lt { exch } if pop } bind def
/arccoords { % i j arccoords
  % puts optimal x1 y1 x2 y2 coordinates used in bezier curves from i to j
  % onto the stack
  dup 3 -1 roll dup 4 -1 roll lt dup dup 5 2 roll {exch} if
  dup 3 -1 roll dup 3 -1 roll exch sub 1 sub dup
  4 -2 roll 5 -1 roll {exch} if 4 2 roll
  sequence length dup 2 div exch 3 1 roll lt 
  {exch 5 -1 roll pop 4 -2 roll exch 4 2 roll}
  { 4 2 roll 5 -1 roll dup 6 1 roll {exch} if
    4 -2 roll exch pop dup 3 -1 roll dup 4 1 roll
    exch add 4 -1 roll dup 5 1 roll sub 1 sub
    5 -1 roll not {4 -2 roll exch 4 2 roll} if
  }ifelse
   % compute the scalingfactor and prepare (1-sf) and sf*r
  2 mul exch cpr 3 1 roll div dup
  3 -1 roll mul exch 1 exch sub exch
   % compute the coordinates
  3 -1 roll 1 sub coor exch get aload pop % get coord for i
  4 -1 roll dup 5 1 roll mul 3 -1 roll dup 4 1 roll add exch % calculate y1
  4 -1 roll dup 5 1 roll mul 3 -1 roll dup 4 1 roll add exch % calculate x1
  5 -1 roll 1 sub coor exch get aload pop % get coord for j
  % duplicate j coord
  dup 3 -1 roll dup 4 1 roll exch 8 2 roll
  6 -1 roll dup 7 1 roll mul 5 -1 roll dup 6 1 roll add exch % calculate y2
  6 -1 roll mul 5 -1 roll add exch % calculate x2
  6 -2 roll % reorder
} bind def
/drawoutline {
  gsave outlinecolor newpath
  coor 0 get aload pop 0.8 0 360 arc % draw 5' circle of 1st sequence
  currentdict /cutpoint known        % check if cutpoint is defined
  {coor 0 cutpoint getinterval
   {aload pop lineto} forall         % draw outline of 1st sequence
   coor cutpoint 1 add get aload pop
   2 copy moveto 0.8 0 360 arc       % draw 5' circle of 2nd sequence
   coor cutpoint 1 add coor length cutpoint 1 add sub getinterval
   {aload pop lineto} forall}        % draw outline of 2nd sequence
  {coor {aload pop lineto} forall}   % draw outline as a whole
  ifelse
  stroke grestore
} bind def
/drawpairs {
  paircolor
  0.7 setlinewidth
  [9 3.01] 9 setdash
  newpath
  pairs {aload pop
      currentdict (cpr) known
      { exch dup
        coor  exch 1 sub get aload pop moveto
        exch arccoords curveto
      }
      { coor exch 1 sub get aload pop moveto
        coor exch 1 sub get aload pop lineto
      }ifelse
  } forall
  stroke
} bind def
% draw bases
/drawbases {
  [] 0 setdash
  seqcolor
  0
  coor {
    aload pop moveto
    dup sequence exch 1 getinterval cshow
    1 add
  } forall
  pop
} bind def

/init {
  /Helvetica findfont fsize scalefont setfont
  1 setlinejoin
  1 setlinecap
  0.8 setlinewidth
  % find the coordinate range
  /xmax -1000 def /xmin 10000 def
  /ymax -1000 def /ymin 10000 def
  coor {
      aload pop
      dup ymin lt {dup /ymin exch def} if
      dup ymax gt {/ymax exch def} {pop} ifelse
      dup xmin lt {dup /xmin exch def} if
      dup xmax gt {/xmax exch def} {pop} ifelse
  } forall
  /size {xmax xmin sub ymax ymin sub max} bind def
  /width {xmax xmin sub} bind def
  /height {ymax ymin sub} bind def
  10 10 translate
  680 size 10 add div dup scale
  size width sub width xmin sub xmax sub add 2 div 5 add
  size height sub height ymin sub ymax sub add 2 div 5 add
  translate
} bind def
end
RNAplot begin
% extra definitions for standard anotations
/min { 2 copy gt { exch } if pop } bind def
/BLACK { 0 0 0 } def
/RED   { 1 0 0 } def
/GREEN { 0 1 0 } def
/BLUE  { 0 0 1 } def
/WHITE { 1 1 1 } def
/LabelFont { % font size LabelFont
  exch findfont exch fsize mul scalefont setfont
} bind def
/Label { % i dx dy (text) Label
  % write text at base i plus offset dx, dy
  4 3 roll 1 sub coor exch get aload pop moveto
  3 1 roll fsize mul exch fsize mul exch rmoveto
  show
} bind def
/cmark { % i cmark   draw circle around base i
  newpath 1 sub coor exch get aload pop
  fsize 2 div 0 360 arc stroke
} bind def
/gmark { % i j c gmark
  % draw basepair i,j with c counter examples in gray
  gsave
  3 min [0 0.33 0.66 0.9] exch get setgray
  1 sub dup coor exch get aload pop moveto
  sequence exch 1 getinterval cshow
  1 sub dup coor exch get aload pop moveto
  sequence exch 1 getinterval cshow
  grestore
} bind def
/segmark { % f i j lw r g b segmark
  % mark segment [i,j] with outline width lw and color rgb
  % use omark and Fomark instead
  gsave
  setrgbcolor setlinewidth
  newpath
  1 sub exch 1 sub dup
  coor exch get aload pop moveto
  currentdict (cpr) known
  {
    3 -1 roll dup 4 1 roll dup
    {
      3 1 roll dup 3 -1 roll dup
      4 1 roll exch 5 2 roll exch
    }
    {
      3 1 roll exch
    } ifelse
    1 exch { coor exch get aload pop lineto } for
    {
      dup 3 1 roll 1 add exch 1 add arccoords pop pop
      4 2 roll 5 -1 roll coor exch get aload pop curveto
    } if
  }
  {
    exch 1 exch {
      coor exch get aload pop lineto
    } for
  } ifelse
  { closepath fill } if  stroke
  grestore
} bind def
/omark { % i j lw r g b omark
  % stroke segment [i..j] with linewidth lw, color rgb
  false 7 1 roll segmark
} bind def
/Fomark { % i j r g b Fomark
  % fill segment [i..j] with color rgb
  % should precede drawbases
  1 4 1 roll true 7 1 roll segmark
} bind def
/BFmark{ % i j k l r g b BFmark
  % fill block between pairs (i,j) and (k,l) with color rgb
  % should precede drawbases
  gsave
  setrgbcolor
  newpath
  currentdict (cpr) known
  {
    dup 1 sub coor exch get aload pop moveto % move to l
    dup 1 sub 4 -1 roll dup 5 1 roll 1 sub 1 exch
    { coor exch get aload pop lineto } for % lines from l to j
    3 -1 roll 4 -1 roll dup 5 1 roll arccoords curveto % curve from j to i
    exch dup 4 -1 roll 1 sub exch 1 sub 1 exch
    { coor exch get aload pop lineto } for % lines from i to k
    exch arccoords curveto% curve from k to l
  }
  {  exch 4 3 roll exch 1 sub exch 1 sub dup
     coor exch get aload pop moveto
     exch 1 exch { coor exch get aload pop lineto } for
     exch 1 sub exch 1 sub dup
     coor exch get aload pop lineto
     exch 1 exch { coor exch get aload pop lineto } for
  } ifelse
    closepath fill stroke
   grestore
} bind def
/hsb {
  dup 0.3 mul 1 exch sub sethsbcolor
} bind def
/colorpair { % i j hue sat colorpair
  % draw basepair i,j in color
  % 1 index 0.00 ne {
  gsave
  newpath
  hsb
  fsize setlinewidth
  currentdict (cpr) known
  {
    exch dup
    coor  exch 1 sub get aload pop moveto
    exch arccoords curveto
  }
  { 1 sub coor exch get aload pop moveto
    1 sub coor exch get aload pop lineto
  } ifelse
   stroke
   grestore
   % } if
} bind def
end

%%EndProlog
RNAplot begin
% data start here
/sequence (\
__________________U__________________________________________________________\
) def
/coor [
[92.50000000 92.50000000]
[77.54148865 91.27700806]
[62.73243713 88.83882141]
[48.17139435 85.20166016]
[33.95527267 80.38973236]
[20.17867279 74.43506622]
[6.93327761 67.37728119]
[-5.69276428 59.26334763]
[-17.61542892 50.14727020]
[-28.75536919 40.08971024]
[-39.03845215 29.15760231]
[-48.39624405 17.42369652]
[-56.76646805 4.96608305]
[-64.09342194 -8.13233471]
[-70.32834625 -21.78438568]
[-75.42974854 -35.89921951]
[-79.36367798 -50.38290024]
[-82.10395050 -65.13903809]
[-83.63233185 -80.06944275]
[-83.93865967 -95.07473755]
[-83.02088165 -110.05507660]
[-80.88511658 -124.91075897]
[-77.54557037 -139.54292297]
[-73.02447510 -153.85418701]
[-67.35190582 -167.74932861]
[-60.56562805 -181.13586426]
[-52.71079254 -193.92469788]
[-43.83967972 -206.03073120]
[-34.01132202 -217.37341309]
[-23.29113007 -227.87722778]
[-11.75044250 -237.47229004]
[0.53393614 -246.09475708]
[13.48025513 -253.68722534]
[27.00235558 -260.19918823]
[41.01025391 -265.58728027]
[55.41072083 -269.81567383]
[70.10792542 -272.85623169]
[85.00406647 -274.68869019]
[100.00000000 -275.30084229]
[114.99593353 -274.68869019]
[129.89207458 -272.85623169]
[144.58927917 -269.81567383]
[158.98974609 -265.58728027]
[172.99765015 -260.19918823]
[186.51974487 -253.68722534]
[199.46606445 -246.09475708]
[211.75044250 -237.47229004]
[223.29112244 -227.87722778]
[234.01132202 -217.37341309]
[243.83967590 -206.03073120]
[252.71080017 -193.92469788]
[260.56561279 -181.13586426]
[267.35189819 -167.74932861]
[273.02447510 -153.85418701]
[277.54556274 -139.54292297]
[280.88510132 -124.91075897]
[283.02087402 -110.05507660]
[283.93865967 -95.07473755]
[283.63232422 -80.06944275]
[282.10394287 -65.13903809]
[279.36367798 -50.38290024]
[275.42974854 -35.89921951]
[270.32833862 -21.78438568]
[264.09341431 -8.13233471]
[256.76647949 4.96608305]
[248.39624023 17.42369652]
[239.03845215 29.15760231]
[228.75537109 40.08971024]
[217.61543274 50.14727020]
[205.69276428 59.26334763]
[193.06672668 67.37728119]
[179.82133484 74.43506622]
[166.04472351 80.38973236]
[151.82859802 85.20166016]
[137.26756287 88.83882141]
[122.45851135 91.27700806]
[107.50000000 92.50000000]
] def
/pairs [
] def

init

% switch off outline pairs or bases by removing these lines
drawoutline
drawpairs
drawbases
% Start Annotations

% End Annotations
% show it
showpage
end
%%EOF
