%!PS-Adobe-3.0 EPSF-3.0
%%Creator: ViennaRNA-2.3.3
%%CreationDate: Fri Feb 18 13:45:31 2022
%%Title: RNA Secondary Structure Plot
%%BoundingBox: 0 0 700 700
%%DocumentFonts: Helvetica
%%Pages: 1
%%EndComments

%Options: 
% to switch off outline pairs of sequence comment or
% delete the appropriate line near the end of the file

%%BeginProlog
/RNAplot 100 dict def
RNAplot begin
/fsize  14 def
/outlinecolor {0.2 setgray} bind def
/paircolor    {0.2 setgray} bind def
/seqcolor     {0   setgray} bind def
/cshow  { dup stringwidth pop -2 div fsize -3 div rmoveto show} bind def
/min { 2 copy gt { exch } if pop } bind def
/max { 2 copy lt { exch } if pop } bind def
/arccoords { % i j arccoords
  % puts optimal x1 y1 x2 y2 coordinates used in bezier curves from i to j
  % onto the stack
  dup 3 -1 roll dup 4 -1 roll lt dup dup 5 2 roll {exch} if
  dup 3 -1 roll dup 3 -1 roll exch sub 1 sub dup
  4 -2 roll 5 -1 roll {exch} if 4 2 roll
  sequence length dup 2 div exch 3 1 roll lt 
  {exch 5 -1 roll pop 4 -2 roll exch 4 2 roll}
  { 4 2 roll 5 -1 roll dup 6 1 roll {exch} if
    4 -2 roll exch pop dup 3 -1 roll dup 4 1 roll
    exch add 4 -1 roll dup 5 1 roll sub 1 sub
    5 -1 roll not {4 -2 roll exch 4 2 roll} if
  }ifelse
   % compute the scalingfactor and prepare (1-sf) and sf*r
  2 mul exch cpr 3 1 roll div dup
  3 -1 roll mul exch 1 exch sub exch
   % compute the coordinates
  3 -1 roll 1 sub coor exch get aload pop % get coord for i
  4 -1 roll dup 5 1 roll mul 3 -1 roll dup 4 1 roll add exch % calculate y1
  4 -1 roll dup 5 1 roll mul 3 -1 roll dup 4 1 roll add exch % calculate x1
  5 -1 roll 1 sub coor exch get aload pop % get coord for j
  % duplicate j coord
  dup 3 -1 roll dup 4 1 roll exch 8 2 roll
  6 -1 roll dup 7 1 roll mul 5 -1 roll dup 6 1 roll add exch % calculate y2
  6 -1 roll mul 5 -1 roll add exch % calculate x2
  6 -2 roll % reorder
} bind def
/drawoutline {
  gsave outlinecolor newpath
  coor 0 get aload pop 0.8 0 360 arc % draw 5' circle of 1st sequence
  currentdict /cutpoint known        % check if cutpoint is defined
  {coor 0 cutpoint getinterval
   {aload pop lineto} forall         % draw outline of 1st sequence
   coor cutpoint 1 add get aload pop
   2 copy moveto 0.8 0 360 arc       % draw 5' circle of 2nd sequence
   coor cutpoint 1 add coor length cutpoint 1 add sub getinterval
   {aload pop lineto} forall}        % draw outline of 2nd sequence
  {coor {aload pop lineto} forall}   % draw outline as a whole
  ifelse
  stroke grestore
} bind def
/drawpairs {
  paircolor
  0.7 setlinewidth
  [9 3.01] 9 setdash
  newpath
  pairs {aload pop
      currentdict (cpr) known
      { exch dup
        coor  exch 1 sub get aload pop moveto
        exch arccoords curveto
      }
      { coor exch 1 sub get aload pop moveto
        coor exch 1 sub get aload pop lineto
      }ifelse
  } forall
  stroke
} bind def
% draw bases
/drawbases {
  [] 0 setdash
  seqcolor
  0
  coor {
    aload pop moveto
    dup sequence exch 1 getinterval cshow
    1 add
  } forall
  pop
} bind def

/init {
  /Helvetica findfont fsize scalefont setfont
  1 setlinejoin
  1 setlinecap
  0.8 setlinewidth
  % find the coordinate range
  /xmax -1000 def /xmin 10000 def
  /ymax -1000 def /ymin 10000 def
  coor {
      aload pop
      dup ymin lt {dup /ymin exch def} if
      dup ymax gt {/ymax exch def} {pop} ifelse
      dup xmin lt {dup /xmin exch def} if
      dup xmax gt {/xmax exch def} {pop} ifelse
  } forall
  /size {xmax xmin sub ymax ymin sub max} bind def
  /width {xmax xmin sub} bind def
  /height {ymax ymin sub} bind def
  10 10 translate
  680 size 10 add div dup scale
  size width sub width xmin sub xmax sub add 2 div 5 add
  size height sub height ymin sub ymax sub add 2 div 5 add
  translate
} bind def
end
RNAplot begin
% extra definitions for standard anotations
/min { 2 copy gt { exch } if pop } bind def
/BLACK { 0 0 0 } def
/RED   { 1 0 0 } def
/GREEN { 0 1 0 } def
/BLUE  { 0 0 1 } def
/WHITE { 1 1 1 } def
/LabelFont { % font size LabelFont
  exch findfont exch fsize mul scalefont setfont
} bind def
/Label { % i dx dy (text) Label
  % write text at base i plus offset dx, dy
  4 3 roll 1 sub coor exch get aload pop moveto
  3 1 roll fsize mul exch fsize mul exch rmoveto
  show
} bind def
/cmark { % i cmark   draw circle around base i
  newpath 1 sub coor exch get aload pop
  fsize 2 div 0 360 arc stroke
} bind def
/gmark { % i j c gmark
  % draw basepair i,j with c counter examples in gray
  gsave
  3 min [0 0.33 0.66 0.9] exch get setgray
  1 sub dup coor exch get aload pop moveto
  sequence exch 1 getinterval cshow
  1 sub dup coor exch get aload pop moveto
  sequence exch 1 getinterval cshow
  grestore
} bind def
/segmark { % f i j lw r g b segmark
  % mark segment [i,j] with outline width lw and color rgb
  % use omark and Fomark instead
  gsave
  setrgbcolor setlinewidth
  newpath
  1 sub exch 1 sub dup
  coor exch get aload pop moveto
  currentdict (cpr) known
  {
    3 -1 roll dup 4 1 roll dup
    {
      3 1 roll dup 3 -1 roll dup
      4 1 roll exch 5 2 roll exch
    }
    {
      3 1 roll exch
    } ifelse
    1 exch { coor exch get aload pop lineto } for
    {
      dup 3 1 roll 1 add exch 1 add arccoords pop pop
      4 2 roll 5 -1 roll coor exch get aload pop curveto
    } if
  }
  {
    exch 1 exch {
      coor exch get aload pop lineto
    } for
  } ifelse
  { closepath fill } if  stroke
  grestore
} bind def
/omark { % i j lw r g b omark
  % stroke segment [i..j] with linewidth lw, color rgb
  false 7 1 roll segmark
} bind def
/Fomark { % i j r g b Fomark
  % fill segment [i..j] with color rgb
  % should precede drawbases
  1 4 1 roll true 7 1 roll segmark
} bind def
/BFmark{ % i j k l r g b BFmark
  % fill block between pairs (i,j) and (k,l) with color rgb
  % should precede drawbases
  gsave
  setrgbcolor
  newpath
  currentdict (cpr) known
  {
    dup 1 sub coor exch get aload pop moveto % move to l
    dup 1 sub 4 -1 roll dup 5 1 roll 1 sub 1 exch
    { coor exch get aload pop lineto } for % lines from l to j
    3 -1 roll 4 -1 roll dup 5 1 roll arccoords curveto % curve from j to i
    exch dup 4 -1 roll 1 sub exch 1 sub 1 exch
    { coor exch get aload pop lineto } for % lines from i to k
    exch arccoords curveto% curve from k to l
  }
  {  exch 4 3 roll exch 1 sub exch 1 sub dup
     coor exch get aload pop moveto
     exch 1 exch { coor exch get aload pop lineto } for
     exch 1 sub exch 1 sub dup
     coor exch get aload pop lineto
     exch 1 exch { coor exch get aload pop lineto } for
  } ifelse
    closepath fill stroke
   grestore
} bind def
/hsb {
  dup 0.3 mul 1 exch sub sethsbcolor
} bind def
/colorpair { % i j hue sat colorpair
  % draw basepair i,j in color
  % 1 index 0.00 ne {
  gsave
  newpath
  hsb
  fsize setlinewidth
  currentdict (cpr) known
  {
    exch dup
    coor  exch 1 sub get aload pop moveto
    exch arccoords curveto
  }
  { 1 sub coor exch get aload pop moveto
    1 sub coor exch get aload pop lineto
  } ifelse
   stroke
   grestore
   % } if
} bind def
end

%%EndProlog
RNAplot begin
% data start here
/sequence (\
________CCCUUUU___UUUU_________________________________AAGAGGGGGUUUUUUU_UUUGUA_\
) def
/coor [
[104.18633270 297.07986450]
[96.92475128 283.86169434]
[93.17932129 269.25271606]
[93.18550110 254.17123413]
[96.94289398 239.56532288]
[104.21530151 226.35308838]
[114.54557800 215.36509705]
[127.28436279 207.29203796]
[122.64910889 193.02618408]
[118.01384735 178.76034546]
[113.37859344 164.49449158]
[108.74333954 150.22863770]
[104.10808563 135.96279907]
[99.47283173 121.69694519]
[94.83757782 107.43109894]
[91.39295197 105.09719849]
[89.10321808 101.15625763]
[88.70418549 96.21596527]
[90.60427094 91.20821381]
[87.67791748 76.49643707]
[72.64257812 76.82772827]
[57.77816391 74.54294586]
[43.53638077 69.71150970]
[30.35002136 62.48025513]
[18.61980820 53.06892395]
[8.70220470 41.76351166]
[0.89859873 28.90758514]
[-4.55386829 14.89181900]
[-7.48950195 0.14213510]
[-7.81909132 -14.89323997]
[-5.53262091 -29.75739670]
[-0.69957364 -43.99863052]
[6.53317928 -57.18416977]
[15.94584274 -68.91331482]
[27.25237656 -78.82963562]
[40.10918808 -86.63178253]
[54.12557220 -92.08266449]
[68.87558746 -95.01662445]
[83.91100311 -95.34450531]
[98.77490234 -93.05635071]
[113.01558685 -88.22168732]
[126.20030212 -80.98744202]
[137.92839050 -71.57344818]
[147.84342957 -60.26578903]
[155.64411926 -47.40809250]
[161.09339905 -33.39109039]
[164.02568054 -18.64073944]
[164.35186768 -3.60529041]
[162.06202698 11.25834751]
[157.22575378 25.49848557]
[149.99000549 38.68238449]
[140.57467651 50.40939331]
[129.26589966 60.32315063]
[116.40731812 68.12238312]
[102.38969421 73.57008362]
[105.31604767 88.28186035]
[109.10342407 102.79584503]
[113.73867798 117.06169128]
[118.37393188 131.32754517]
[123.00918579 145.59338379]
[127.64444733 159.85923767]
[132.27969360 174.12509155]
[136.91494751 188.39093018]
[141.55020142 202.65678406]
[156.60131836 201.70034790]
[171.41728210 204.51785278]
[185.06672668 210.93214417]
[196.69166565 220.54003906]
[205.56132507 232.73757935]
[211.11816406 246.75801086]
[213.01287842 261.72000122]
[211.12634277 276.68301392]
[205.57716370 290.70645142]
[196.71415710 302.90884399]
[185.09446716 312.52307129]
[171.44851685 318.94482422]
[156.63410950 321.77041626]
[141.58247375 320.82220459]
[127.23977661 316.15982056]
] def
/pairs [
[8 64]
[9 63]
[10 62]
[11 61]
[12 60]
[13 59]
[14 58]
[15 57]
[19 56]
[20 55]
] def

init

% switch off outline pairs or bases by removing these lines
drawoutline
drawpairs
drawbases
% Start Annotations
8 64 421 gmark
8 cmark
64 cmark
9 63 153 gmark
9 cmark
63 cmark
10 62 44 gmark
10 cmark
62 cmark
11 61 19 gmark
11 cmark
61 cmark
12 60 7 gmark
12 cmark
60 cmark
13 cmark
59 cmark
14 58 5 gmark
14 cmark
58 cmark
15 57 24 gmark
15 cmark
57 cmark
19 56 136 gmark
19 cmark
56 cmark
20 55 375 gmark
20 cmark
55 cmark

% End Annotations
% show it
showpage
end
%%EOF
