%!PS-Adobe-3.0 EPSF-3.0
%%Creator: ViennaRNA-2.5.0
%%CreationDate: Mon Feb 21 19:08:25 2022
%%Title: RNA Secondary Structure Plot
%%BoundingBox: 0 0 700 700
%%DocumentFonts: Helvetica
%%Pages: 1
%%EndComments

% Program options: 

% To switch off outline pairs of sequence comment or
% delete the appropriate line near the end of the file

/RNAplot 100 dict def

RNAplot begin

%%BeginProlog

/fsize  14 def
/outlinecolor {0.2 setgray} bind def
/paircolor    {0.2 setgray} bind def
/seqcolor     {0   setgray} bind def
/cshow  { dup stringwidth pop -2 div fsize -3 div rmoveto show} bind def
/min { 2 copy gt { exch } if pop } bind def
/max { 2 copy lt { exch } if pop } bind def
/arccoords { % i j arccoords
  % puts optimal x1 y1 x2 y2 coordinates used in bezier curves from i to j
  % onto the stack
  dup 3 -1 roll dup 4 -1 roll lt dup dup 5 2 roll {exch} if
  dup 3 -1 roll dup 3 -1 roll exch sub 1 sub dup
  4 -2 roll 5 -1 roll {exch} if 4 2 roll
  sequence length dup 2 div exch 3 1 roll lt 
  {exch 5 -1 roll pop 4 -2 roll exch 4 2 roll}
  { 4 2 roll 5 -1 roll dup 6 1 roll {exch} if
    4 -2 roll exch pop dup 3 -1 roll dup 4 1 roll
    exch add 4 -1 roll dup 5 1 roll sub 1 sub
    5 -1 roll not {4 -2 roll exch 4 2 roll} if
  }ifelse
   % compute the scalingfactor and prepare (1-sf) and sf*r
  2 mul exch cpr 3 1 roll div dup
  3 -1 roll mul exch 1 exch sub exch
   % compute the coordinates
  3 -1 roll 1 sub coor exch get aload pop % get coord for i
  4 -1 roll dup 5 1 roll mul 3 -1 roll dup 4 1 roll add exch % calculate y1
  4 -1 roll dup 5 1 roll mul 3 -1 roll dup 4 1 roll add exch % calculate x1
  5 -1 roll 1 sub coor exch get aload pop % get coord for j
  % duplicate j coord
  dup 3 -1 roll dup 4 1 roll exch 8 2 roll
  6 -1 roll dup 7 1 roll mul 5 -1 roll dup 6 1 roll add exch % calculate y2
  6 -1 roll mul 5 -1 roll add exch % calculate x2
  6 -2 roll % reorder
} bind def
/drawoutline {
  gsave outlinecolor newpath
  coor 0 get aload pop 0.8 0 360 arc % draw 5' circle of 1st sequence
  currentdict /cutpoint known        % check if cutpoint is defined
  {coor 0 cutpoint getinterval
   {aload pop lineto} forall         % draw outline of 1st sequence
   coor cutpoint 1 add get aload pop
   2 copy moveto 0.8 0 360 arc       % draw 5' circle of 2nd sequence
   coor cutpoint 1 add coor length cutpoint 1 add sub getinterval
   {aload pop lineto} forall        % draw outline of 2nd sequence
     } {
        /i 0 def
        coor {
            /p coor i get def
            /a arcs i get def
            /l a length def
            l 0 eq {
                %% standard point... draw simple line
                p 0 2 getinterval aload pop lineto
            } {
                %% point in loop... draw arc around loop center
                /clockwise a 5 get def
                clockwise 0.0000000 gt {
                    a 0 5 getinterval aload pop arcn
                } {
                    a 0 5 getinterval aload pop arc
                } ifelse
            } ifelse
            /i i 1 add def
        } forall
    }
  ifelse
  stroke grestore
} bind def
/drawpairs {
  paircolor
  0.7 setlinewidth
  [9 3.01] 9 setdash
  newpath
  pairs {aload pop
      currentdict (cpr) known
      { exch dup
        coor  exch 1 sub get aload pop moveto
        exch arccoords curveto
      }
      { coor exch 1 sub get aload pop moveto
        coor exch 1 sub get aload pop lineto
      }ifelse
  } forall
  stroke
} bind def
% draw bases
/drawbases {
  [] 0 setdash
  seqcolor
  0
  coor {
    aload pop moveto
    dup sequence exch 1 getinterval cshow
    1 add
  } forall
  pop
} bind def
/init {
  /Helvetica findfont fsize scalefont setfont
  1 setlinejoin
  1 setlinecap
  0.8 setlinewidth
  % find the coordinate range
  /xmax -1000 def /xmin 10000 def
  /ymax -1000 def /ymin 10000 def
  coor {
      aload pop
      dup ymin lt {dup /ymin exch def} if
      dup ymax gt {/ymax exch def} {pop} ifelse
      dup xmin lt {dup /xmin exch def} if
      dup xmax gt {/xmax exch def} {pop} ifelse
  } forall
  /size {xmax xmin sub ymax ymin sub max} bind def
  /width {xmax xmin sub} bind def
  /height {ymax ymin sub} bind def
  10 10 translate
  680 size 10 add div dup scale
  size width sub width xmin sub xmax sub add 2 div 5 add
  size height sub height ymin sub ymax sub add 2 div 5 add
  translate
} bind def
% extra definitions for standard anotations
/min { 2 copy gt { exch } if pop } bind def
/BLACK { 0 0 0 } def
/RED   { 1 0 0 } def
/GREEN { 0 1 0 } def
/BLUE  { 0 0 1 } def
/WHITE { 1 1 1 } def
/LabelFont { % font size LabelFont
  exch findfont exch fsize mul scalefont setfont
} bind def
/Label { % i dx dy (text) Label
  % write text at base i plus offset dx, dy
  4 3 roll 1 sub coor exch get aload pop moveto
  3 1 roll fsize mul exch fsize mul exch rmoveto
  show
} bind def
/cmark { % i cmark   draw circle around base i
  newpath 1 sub coor exch get aload pop
  fsize 2 div 0 360 arc stroke
} bind def
/gmark { % i j c gmark
  % draw basepair i,j with c counter examples in gray
  gsave
  3 min [0 0.33 0.66 0.9] exch get setgray
  1 sub dup coor exch get aload pop moveto
  sequence exch 1 getinterval cshow
  1 sub dup coor exch get aload pop moveto
  sequence exch 1 getinterval cshow
  grestore
} bind def
/segmark { % f i j lw r g b segmark
  % mark segment [i,j] with outline width lw and color rgb
  % use omark and Fomark instead
  gsave
  setrgbcolor setlinewidth
  newpath
  1 sub exch 1 sub dup
  coor exch get aload pop moveto
  currentdict (cpr) known
  {
    3 -1 roll dup 4 1 roll dup
    {
      3 1 roll dup 3 -1 roll dup
      4 1 roll exch 5 2 roll exch
    }
    {
      3 1 roll exch
    } ifelse
    1 exch { coor exch get aload pop lineto } for
    {
      dup 3 1 roll 1 add exch 1 add arccoords pop pop
      4 2 roll 5 -1 roll coor exch get aload pop curveto
    } if
  }
  {
    exch 1 exch {
      coor exch get aload pop lineto
    } for
  } ifelse
  { closepath fill } if  stroke
  grestore
} bind def
/omark { % i j lw r g b omark
  % stroke segment [i..j] with linewidth lw, color rgb
  false 7 1 roll segmark
} bind def
/Fomark { % i j r g b Fomark
  % fill segment [i..j] with color rgb
  % should precede drawbases
  1 4 1 roll true 7 1 roll segmark
} bind def
/BFmark{ % i j k l r g b BFmark
  % fill block between pairs (i,j) and (k,l) with color rgb
  % should precede drawbases
  gsave
  setrgbcolor
  newpath
  currentdict (cpr) known
  {
    dup 1 sub coor exch get aload pop moveto % move to l
    dup 1 sub 4 -1 roll dup 5 1 roll 1 sub 1 exch
    { coor exch get aload pop lineto } for % lines from l to j
    3 -1 roll 4 -1 roll dup 5 1 roll arccoords curveto % curve from j to i
    exch dup 4 -1 roll 1 sub exch 1 sub 1 exch
    { coor exch get aload pop lineto } for % lines from i to k
    exch arccoords curveto% curve from k to l
  }
  {  exch 4 3 roll exch 1 sub exch 1 sub dup
     coor exch get aload pop moveto
     exch 1 exch { coor exch get aload pop lineto } for
     exch 1 sub exch 1 sub dup
     coor exch get aload pop lineto
     exch 1 exch { coor exch get aload pop lineto } for
  } ifelse
    closepath fill stroke
   grestore
} bind def
/hsb {
  dup 0.3 mul 1 exch sub sethsbcolor
} bind def
/colorpair { % i j hue sat colorpair
  % draw basepair i,j in color
  % 1 index 0.00 ne {
  gsave
  newpath
  hsb
  fsize setlinewidth
  currentdict (cpr) known
  {
    exch dup
    coor  exch 1 sub get aload pop moveto
    exch arccoords curveto
  }
  { 1 sub coor exch get aload pop moveto
    1 sub coor exch get aload pop lineto
  } ifelse
   stroke
   grestore
   % } if
} bind def

%%EndProlog

% data start here
/sequence { (\
----------------c---c-c----g---------cVSY-B----------YYYBH-----Y---Y------NNHHRas-ggucucgaK-agaaG-cgaaRRDVRRRVVSNNNWUUWWDWWDNBNNNHN\
) } def
/len { sequence length } bind def

/coor [
[86.82118225 380.13265991]
[72.99018097 385.97280884]
[58.63198853 390.35986328]
[43.89880753 393.24731445]
[28.94682121 394.60458374]
[13.93452930 394.41723633]
[-0.97893167 392.68728638]
[-15.63546944 389.43307495]
[-29.87971687 384.68908691]
[-43.56067657 378.50561523]
[-56.53332138 370.94818115]
[-68.66014099 362.09695435]
[-79.81256866 352.04571533]
[-89.87239838 340.90106201]
[-98.73298645 328.78106689]
[-106.30039978 315.81423950]
[-112.49443054 302.13806152]
[-117.24940491 287.89749146]
[-120.51492310 273.24346924]
[-122.25637054 258.33132935]
[-122.45529175 243.31918335]
[-121.10956573 228.36616516]
[-118.23346710 213.63075256]
[-113.85748291 199.26918030]
[-108.02799988 185.43368530]
[-100.80680847 172.27091980]
[-92.27046967 159.92041016]
[-82.50946045 148.51310730]
[-71.62725830 138.16990662]
[-59.73922729 129.00045776]
[-46.97137833 121.10197449]
[-33.45906067 114.55817413]
[-19.34551239 109.43843079]
[-4.78034449 105.79701233]
[10.08204365 103.67252350]
[25.08410263 103.08748627]
[40.06679916 104.04809570]
[54.87131500 106.54416656]
[69.34070587 110.54924774]
[83.32159424 116.02088928]
[90.19499207 102.68835449]
[90.81060791 94.56614685]
[97.39390564 89.12322235]
[83.44190979 94.63156128]
[68.58267212 92.58143616]
[56.64351273 83.50088501]
[50.69961548 69.72880554]
[52.28196716 54.81250000]
[60.98299789 42.59398651]
[74.56156158 36.22040558]
[89.52021790 37.33341599]
[102.00601959 45.64633560]
[108.80299377 59.01799393]
[108.16067505 74.00341034]
[118.25057983 62.90414047]
[128.34048462 51.80487061]
[138.43038940 40.70560074]
[128.66926575 29.28966331]
[120.41593933 16.74032402]
[113.80059052 3.25550103]
[108.92755890 -10.95212841]
[105.87368011 -25.65849113]
[104.68713379 -40.63164520]
[105.38662720 -55.63544083]
[107.96112823 -70.43325043]
[112.37003326 -84.79169464]
[118.54380798 -98.48430634]
[126.38508606 -111.29514313]
[135.77018738 -123.02216339]
[146.55111694 -133.48040771]
[158.55783081 -142.50494385]
[171.60096741 -149.95343018]
[185.47480774 -155.70838928]
[199.96055603 -159.67907715]
[214.82974243 -161.80285645]
[229.84786987 -162.04623413]
[244.77806091 -160.40536499]
[259.38485718 -156.90614319]
[273.43789673 -151.60374451]
[286.71554565 -144.58180237]
[299.00836182 -135.95106506]
[310.12249756 -125.84764862]
[319.88265991 -114.43088531]
[328.13494873 -101.88085175]
[334.74914551 -88.39547729]
[339.62100220 -74.18743134]
[342.67361450 -59.48081589]
[343.85891724 -44.50756073]
[343.15817261 -29.50382423]
[340.58242798 -14.70623016]
[336.17230225 -0.34816176]
[329.99737549 13.34393406]
[322.15502930 26.15411377]
[312.76892090 37.88034058]
[301.98712158 48.33768082]
[289.97964478 57.36119843]
[276.93588257 64.80858612]
[263.06155396 70.56238556]
[248.57546997 74.53184509]
[233.70610046 76.65437317]
[218.68795776 76.89648438]
[203.75790405 75.25437164]
[189.15139771 71.75391388]
[175.09880066 66.45034027]
[161.82176208 59.42728043]
[149.52966309 50.79550552]
[139.43975830 61.89477539]
[129.34985352 72.99404907]
[119.25994110 84.09331512]
[110.55908966 96.31195831]
[103.52752686 109.56175232]
[96.65412903 122.89428711]
[109.22090149 131.10891724]
[120.87641907 140.57215881]
[131.49711609 151.18370056]
[140.97042847 162.83103943]
[149.19590759 175.39071655]
[156.08638000 188.72958374]
[161.56880188 202.70623779]
[165.58503723 217.17254639]
[168.09252930 231.97512817]
[169.06469727 246.95707703]
[168.49122620 261.95959473]
[166.37820435 276.82360840]
[162.74801636 291.39157104]
[157.63916016 305.50906372]
[151.10578918 319.02642822]
[143.21714783 331.80038452]
[134.05688477 343.69546509]
[123.72207642 354.58563232]
[112.32229614 364.35543823]
] def
/arcs [
[]
[]
[]
[]
[]
[]
[]
[]
[]
[]
[]
[]
[]
[]
[]
[]
[]
[]
[]
[]
[]
[]
[]
[]
[]
[]
[]
[]
[]
[]
[]
[]
[]
[]
[]
[]
[]
[]
[]
[]
[]
[]
[]
[]
[]
[]
[]
[]
[]
[]
[]
[]
[]
[]
[]
[]
[]
[]
[]
[]
[]
[]
[]
[]
[]
[]
[]
[]
[]
[]
[]
[]
[]
[]
[]
[]
[]
[]
[]
[]
[]
[]
[]
[]
[]
[]
[]
[]
[]
[]
[]
[]
[]
[]
[]
[]
[]
[]
[]
[]
[]
[]
[]
[]
[]
[]
[]
[]
[]
[]
[]
[]
[]
[]
[]
[]
[]
[]
[]
[]
[]
[]
[]
[]
[]
[]
[]
[]
[]
[]
[]
] def
/pairs [
[40 112]
[41 111]
[43 110]
[54 109]
[55 108]
[56 107]
[57 106]
] def

init

% Start Annotations

% End Annotations
% switch off outline pairs or bases by removing these lines
drawoutline
drawpairs
drawbases
% Start Annotations
40 112 316 gmark
40 cmark
112 cmark
41 111 193 gmark
41 cmark
111 cmark
43 110 143 gmark
43 cmark
110 cmark
54 109 144 gmark
54 cmark
109 cmark
55 108 273 gmark
55 cmark
108 cmark
56 107 314 gmark
56 cmark
107 cmark
57 106 293 gmark
57 cmark
106 cmark

% End Annotations
showpage
end
%%EOF
