%!PS-Adobe-3.0 EPSF-3.0
%%Creator: ViennaRNA-2.5.0
%%CreationDate: Mon Feb 21 11:57:00 2022
%%Title: RNA Secondary Structure Plot
%%BoundingBox: 0 0 700 700
%%DocumentFonts: Helvetica
%%Pages: 1
%%EndComments

% Program options: 

% To switch off outline pairs of sequence comment or
% delete the appropriate line near the end of the file

/RNAplot 100 dict def

RNAplot begin

%%BeginProlog

/fsize  14 def
/outlinecolor {0.2 setgray} bind def
/paircolor    {0.2 setgray} bind def
/seqcolor     {0   setgray} bind def
/cshow  { dup stringwidth pop -2 div fsize -3 div rmoveto show} bind def
/min { 2 copy gt { exch } if pop } bind def
/max { 2 copy lt { exch } if pop } bind def
/arccoords { % i j arccoords
  % puts optimal x1 y1 x2 y2 coordinates used in bezier curves from i to j
  % onto the stack
  dup 3 -1 roll dup 4 -1 roll lt dup dup 5 2 roll {exch} if
  dup 3 -1 roll dup 3 -1 roll exch sub 1 sub dup
  4 -2 roll 5 -1 roll {exch} if 4 2 roll
  sequence length dup 2 div exch 3 1 roll lt 
  {exch 5 -1 roll pop 4 -2 roll exch 4 2 roll}
  { 4 2 roll 5 -1 roll dup 6 1 roll {exch} if
    4 -2 roll exch pop dup 3 -1 roll dup 4 1 roll
    exch add 4 -1 roll dup 5 1 roll sub 1 sub
    5 -1 roll not {4 -2 roll exch 4 2 roll} if
  }ifelse
   % compute the scalingfactor and prepare (1-sf) and sf*r
  2 mul exch cpr 3 1 roll div dup
  3 -1 roll mul exch 1 exch sub exch
   % compute the coordinates
  3 -1 roll 1 sub coor exch get aload pop % get coord for i
  4 -1 roll dup 5 1 roll mul 3 -1 roll dup 4 1 roll add exch % calculate y1
  4 -1 roll dup 5 1 roll mul 3 -1 roll dup 4 1 roll add exch % calculate x1
  5 -1 roll 1 sub coor exch get aload pop % get coord for j
  % duplicate j coord
  dup 3 -1 roll dup 4 1 roll exch 8 2 roll
  6 -1 roll dup 7 1 roll mul 5 -1 roll dup 6 1 roll add exch % calculate y2
  6 -1 roll mul 5 -1 roll add exch % calculate x2
  6 -2 roll % reorder
} bind def
/drawoutline {
  gsave outlinecolor newpath
  coor 0 get aload pop 0.8 0 360 arc % draw 5' circle of 1st sequence
  currentdict /cutpoint known        % check if cutpoint is defined
  {coor 0 cutpoint getinterval
   {aload pop lineto} forall         % draw outline of 1st sequence
   coor cutpoint 1 add get aload pop
   2 copy moveto 0.8 0 360 arc       % draw 5' circle of 2nd sequence
   coor cutpoint 1 add coor length cutpoint 1 add sub getinterval
   {aload pop lineto} forall        % draw outline of 2nd sequence
     } {
        /i 0 def
        coor {
            /p coor i get def
            /a arcs i get def
            /l a length def
            l 0 eq {
                %% standard point... draw simple line
                p 0 2 getinterval aload pop lineto
            } {
                %% point in loop... draw arc around loop center
                /clockwise a 5 get def
                clockwise 0.0000000 gt {
                    a 0 5 getinterval aload pop arcn
                } {
                    a 0 5 getinterval aload pop arc
                } ifelse
            } ifelse
            /i i 1 add def
        } forall
    }
  ifelse
  stroke grestore
} bind def
/drawpairs {
  paircolor
  0.7 setlinewidth
  [9 3.01] 9 setdash
  newpath
  pairs {aload pop
      currentdict (cpr) known
      { exch dup
        coor  exch 1 sub get aload pop moveto
        exch arccoords curveto
      }
      { coor exch 1 sub get aload pop moveto
        coor exch 1 sub get aload pop lineto
      }ifelse
  } forall
  stroke
} bind def
% draw bases
/drawbases {
  [] 0 setdash
  seqcolor
  0
  coor {
    aload pop moveto
    dup sequence exch 1 getinterval cshow
    1 add
  } forall
  pop
} bind def
/init {
  /Helvetica findfont fsize scalefont setfont
  1 setlinejoin
  1 setlinecap
  0.8 setlinewidth
  % find the coordinate range
  /xmax -1000 def /xmin 10000 def
  /ymax -1000 def /ymin 10000 def
  coor {
      aload pop
      dup ymin lt {dup /ymin exch def} if
      dup ymax gt {/ymax exch def} {pop} ifelse
      dup xmin lt {dup /xmin exch def} if
      dup xmax gt {/xmax exch def} {pop} ifelse
  } forall
  /size {xmax xmin sub ymax ymin sub max} bind def
  /width {xmax xmin sub} bind def
  /height {ymax ymin sub} bind def
  10 10 translate
  680 size 10 add div dup scale
  size width sub width xmin sub xmax sub add 2 div 5 add
  size height sub height ymin sub ymax sub add 2 div 5 add
  translate
} bind def
% extra definitions for standard anotations
/min { 2 copy gt { exch } if pop } bind def
/BLACK { 0 0 0 } def
/RED   { 1 0 0 } def
/GREEN { 0 1 0 } def
/BLUE  { 0 0 1 } def
/WHITE { 1 1 1 } def
/LabelFont { % font size LabelFont
  exch findfont exch fsize mul scalefont setfont
} bind def
/Label { % i dx dy (text) Label
  % write text at base i plus offset dx, dy
  4 3 roll 1 sub coor exch get aload pop moveto
  3 1 roll fsize mul exch fsize mul exch rmoveto
  show
} bind def
/cmark { % i cmark   draw circle around base i
  newpath 1 sub coor exch get aload pop
  fsize 2 div 0 360 arc stroke
} bind def
/gmark { % i j c gmark
  % draw basepair i,j with c counter examples in gray
  gsave
  3 min [0 0.33 0.66 0.9] exch get setgray
  1 sub dup coor exch get aload pop moveto
  sequence exch 1 getinterval cshow
  1 sub dup coor exch get aload pop moveto
  sequence exch 1 getinterval cshow
  grestore
} bind def
/segmark { % f i j lw r g b segmark
  % mark segment [i,j] with outline width lw and color rgb
  % use omark and Fomark instead
  gsave
  setrgbcolor setlinewidth
  newpath
  1 sub exch 1 sub dup
  coor exch get aload pop moveto
  currentdict (cpr) known
  {
    3 -1 roll dup 4 1 roll dup
    {
      3 1 roll dup 3 -1 roll dup
      4 1 roll exch 5 2 roll exch
    }
    {
      3 1 roll exch
    } ifelse
    1 exch { coor exch get aload pop lineto } for
    {
      dup 3 1 roll 1 add exch 1 add arccoords pop pop
      4 2 roll 5 -1 roll coor exch get aload pop curveto
    } if
  }
  {
    exch 1 exch {
      coor exch get aload pop lineto
    } for
  } ifelse
  { closepath fill } if  stroke
  grestore
} bind def
/omark { % i j lw r g b omark
  % stroke segment [i..j] with linewidth lw, color rgb
  false 7 1 roll segmark
} bind def
/Fomark { % i j r g b Fomark
  % fill segment [i..j] with color rgb
  % should precede drawbases
  1 4 1 roll true 7 1 roll segmark
} bind def
/BFmark{ % i j k l r g b BFmark
  % fill block between pairs (i,j) and (k,l) with color rgb
  % should precede drawbases
  gsave
  setrgbcolor
  newpath
  currentdict (cpr) known
  {
    dup 1 sub coor exch get aload pop moveto % move to l
    dup 1 sub 4 -1 roll dup 5 1 roll 1 sub 1 exch
    { coor exch get aload pop lineto } for % lines from l to j
    3 -1 roll 4 -1 roll dup 5 1 roll arccoords curveto % curve from j to i
    exch dup 4 -1 roll 1 sub exch 1 sub 1 exch
    { coor exch get aload pop lineto } for % lines from i to k
    exch arccoords curveto% curve from k to l
  }
  {  exch 4 3 roll exch 1 sub exch 1 sub dup
     coor exch get aload pop moveto
     exch 1 exch { coor exch get aload pop lineto } for
     exch 1 sub exch 1 sub dup
     coor exch get aload pop lineto
     exch 1 exch { coor exch get aload pop lineto } for
  } ifelse
    closepath fill stroke
   grestore
} bind def
/hsb {
  dup 0.3 mul 1 exch sub sethsbcolor
} bind def
/colorpair { % i j hue sat colorpair
  % draw basepair i,j in color
  % 1 index 0.00 ne {
  gsave
  newpath
  hsb
  fsize setlinewidth
  currentdict (cpr) known
  {
    exch dup
    coor  exch 1 sub get aload pop moveto
    exch arccoords curveto
  }
  { 1 sub coor exch get aload pop moveto
    1 sub coor exch get aload pop lineto
  } ifelse
   stroke
   grestore
   % } if
} bind def

%%EndProlog

% data start here
/sequence { (\
AG-AURAGDRRRRGhRNHRgDSUckyHHYUuw-ackcu--ag--gaugsMMMAWARMVSY-Y---------YYYYY-----YYW\
) } def
/len { sequence length } bind def

/coor [
[92.50000000 92.50000000]
[77.53487396 91.37877655]
[62.69537735 89.14234161]
[48.06451035 85.80319214]
[33.72409058 81.38000488]
[19.75431442 75.89752197]
[6.23331165 69.38640594]
[-6.76330423 61.88306046]
[-19.16284943 53.42945099]
[-30.89598083 44.07285690]
[-41.89707947 33.86560440]
[-52.10462570 22.86477470]
[-61.46152878 11.13189125]
[-69.91546631 -1.26743042]
[-77.41915131 -14.26384830]
[-83.93063354 -27.78467941]
[-89.41348267 -41.75430679]
[-93.83704376 -56.09461212]
[-97.17658234 -70.72539520]
[-99.41341400 -85.56482697]
[-100.53502655 -100.52992249]
[-100.53516388 -115.53699493]
[-99.41381073 -130.50212097]
[-97.17723846 -145.34158325]
[-93.83795929 -159.97242737]
[-89.41464996 -174.31280518]
[-83.93204498 -188.28253174]
[-77.42080688 -201.80348206]
[-69.91735077 -214.80003357]
[-61.46363068 -227.19950867]
[-52.10693359 -238.93255615]
[-41.89958191 -249.93356323]
[-30.89866257 -260.14102173]
[-19.16569710 -269.49780273]
[-6.76630020 -277.95162964]
[6.23018360 -285.45520020]
[19.75107193 -291.96655273]
[33.72074890 -297.44931030]
[48.06109238 -301.87274170]
[62.69190216 -305.21212769]
[77.53135681 -307.44885254]
[92.49646759 -308.57031250]
[107.50353241 -308.57031250]
[122.46864319 -307.44885254]
[137.30810547 -305.21212769]
[151.93890381 -301.87274170]
[166.27925110 -297.44931030]
[180.24893188 -291.96655273]
[193.76982117 -285.45520020]
[206.76629639 -277.95162964]
[219.16569519 -269.49780273]
[230.89866638 -260.14102173]
[241.89958191 -249.93356323]
[252.10693359 -238.93255615]
[261.46362305 -227.19950867]
[269.91735840 -214.80003357]
[277.42080688 -201.80348206]
[283.93203735 -188.28253174]
[289.41464233 -174.31280518]
[293.83795166 -159.97242737]
[297.17724609 -145.34158325]
[299.41381836 -130.50212097]
[300.53515625 -115.53699493]
[300.53503418 -100.52992249]
[299.41342163 -85.56482697]
[297.17657471 -70.72539520]
[293.83703613 -56.09461212]
[289.41348267 -41.75430679]
[283.93063354 -27.78467941]
[277.41915894 -14.26384830]
[269.91546631 -1.26743042]
[261.46151733 11.13189125]
[252.10462952 22.86477470]
[241.89707947 33.86560440]
[230.89598083 44.07285690]
[219.16285706 53.42945099]
[206.76330566 61.88306046]
[193.76669312 69.38640594]
[180.24568176 75.89752197]
[166.27590942 81.38000488]
[151.93548584 85.80319214]
[137.30462646 89.14234161]
[122.46512604 91.37877655]
[107.50000000 92.50000000]
] def
/arcs [
[]
[]
[]
[]
[]
[]
[]
[]
[]
[]
[]
[]
[]
[]
[]
[]
[]
[]
[]
[]
[]
[]
[]
[]
[]
[]
[]
[]
[]
[]
[]
[]
[]
[]
[]
[]
[]
[]
[]
[]
[]
[]
[]
[]
[]
[]
[]
[]
[]
[]
[]
[]
[]
[]
[]
[]
[]
[]
[]
[]
[]
[]
[]
[]
[]
[]
[]
[]
[]
[]
[]
[]
[]
[]
[]
[]
[]
[]
[]
[]
[]
[]
[]
[]
] def
/pairs [
] def

init

% Start Annotations

% End Annotations
% switch off outline pairs or bases by removing these lines
drawoutline
drawpairs
drawbases
% Start Annotations

% End Annotations
showpage
end
%%EOF
