%!PS-Adobe-3.0 EPSF-3.0
%%Creator: ViennaRNA-2.3.3
%%CreationDate: Fri Feb 18 11:49:09 2022
%%Title: RNA Secondary Structure Plot
%%BoundingBox: 0 0 700 700
%%DocumentFonts: Helvetica
%%Pages: 1
%%EndComments

%Options: 
% to switch off outline pairs of sequence comment or
% delete the appropriate line near the end of the file

%%BeginProlog
/RNAplot 100 dict def
RNAplot begin
/fsize  14 def
/outlinecolor {0.2 setgray} bind def
/paircolor    {0.2 setgray} bind def
/seqcolor     {0   setgray} bind def
/cshow  { dup stringwidth pop -2 div fsize -3 div rmoveto show} bind def
/min { 2 copy gt { exch } if pop } bind def
/max { 2 copy lt { exch } if pop } bind def
/arccoords { % i j arccoords
  % puts optimal x1 y1 x2 y2 coordinates used in bezier curves from i to j
  % onto the stack
  dup 3 -1 roll dup 4 -1 roll lt dup dup 5 2 roll {exch} if
  dup 3 -1 roll dup 3 -1 roll exch sub 1 sub dup
  4 -2 roll 5 -1 roll {exch} if 4 2 roll
  sequence length dup 2 div exch 3 1 roll lt 
  {exch 5 -1 roll pop 4 -2 roll exch 4 2 roll}
  { 4 2 roll 5 -1 roll dup 6 1 roll {exch} if
    4 -2 roll exch pop dup 3 -1 roll dup 4 1 roll
    exch add 4 -1 roll dup 5 1 roll sub 1 sub
    5 -1 roll not {4 -2 roll exch 4 2 roll} if
  }ifelse
   % compute the scalingfactor and prepare (1-sf) and sf*r
  2 mul exch cpr 3 1 roll div dup
  3 -1 roll mul exch 1 exch sub exch
   % compute the coordinates
  3 -1 roll 1 sub coor exch get aload pop % get coord for i
  4 -1 roll dup 5 1 roll mul 3 -1 roll dup 4 1 roll add exch % calculate y1
  4 -1 roll dup 5 1 roll mul 3 -1 roll dup 4 1 roll add exch % calculate x1
  5 -1 roll 1 sub coor exch get aload pop % get coord for j
  % duplicate j coord
  dup 3 -1 roll dup 4 1 roll exch 8 2 roll
  6 -1 roll dup 7 1 roll mul 5 -1 roll dup 6 1 roll add exch % calculate y2
  6 -1 roll mul 5 -1 roll add exch % calculate x2
  6 -2 roll % reorder
} bind def
/drawoutline {
  gsave outlinecolor newpath
  coor 0 get aload pop 0.8 0 360 arc % draw 5' circle of 1st sequence
  currentdict /cutpoint known        % check if cutpoint is defined
  {coor 0 cutpoint getinterval
   {aload pop lineto} forall         % draw outline of 1st sequence
   coor cutpoint 1 add get aload pop
   2 copy moveto 0.8 0 360 arc       % draw 5' circle of 2nd sequence
   coor cutpoint 1 add coor length cutpoint 1 add sub getinterval
   {aload pop lineto} forall}        % draw outline of 2nd sequence
  {coor {aload pop lineto} forall}   % draw outline as a whole
  ifelse
  stroke grestore
} bind def
/drawpairs {
  paircolor
  0.7 setlinewidth
  [9 3.01] 9 setdash
  newpath
  pairs {aload pop
      currentdict (cpr) known
      { exch dup
        coor  exch 1 sub get aload pop moveto
        exch arccoords curveto
      }
      { coor exch 1 sub get aload pop moveto
        coor exch 1 sub get aload pop lineto
      }ifelse
  } forall
  stroke
} bind def
% draw bases
/drawbases {
  [] 0 setdash
  seqcolor
  0
  coor {
    aload pop moveto
    dup sequence exch 1 getinterval cshow
    1 add
  } forall
  pop
} bind def

/init {
  /Helvetica findfont fsize scalefont setfont
  1 setlinejoin
  1 setlinecap
  0.8 setlinewidth
  % find the coordinate range
  /xmax -1000 def /xmin 10000 def
  /ymax -1000 def /ymin 10000 def
  coor {
      aload pop
      dup ymin lt {dup /ymin exch def} if
      dup ymax gt {/ymax exch def} {pop} ifelse
      dup xmin lt {dup /xmin exch def} if
      dup xmax gt {/xmax exch def} {pop} ifelse
  } forall
  /size {xmax xmin sub ymax ymin sub max} bind def
  /width {xmax xmin sub} bind def
  /height {ymax ymin sub} bind def
  10 10 translate
  680 size 10 add div dup scale
  size width sub width xmin sub xmax sub add 2 div 5 add
  size height sub height ymin sub ymax sub add 2 div 5 add
  translate
} bind def
end
RNAplot begin
% extra definitions for standard anotations
/min { 2 copy gt { exch } if pop } bind def
/BLACK { 0 0 0 } def
/RED   { 1 0 0 } def
/GREEN { 0 1 0 } def
/BLUE  { 0 0 1 } def
/WHITE { 1 1 1 } def
/LabelFont { % font size LabelFont
  exch findfont exch fsize mul scalefont setfont
} bind def
/Label { % i dx dy (text) Label
  % write text at base i plus offset dx, dy
  4 3 roll 1 sub coor exch get aload pop moveto
  3 1 roll fsize mul exch fsize mul exch rmoveto
  show
} bind def
/cmark { % i cmark   draw circle around base i
  newpath 1 sub coor exch get aload pop
  fsize 2 div 0 360 arc stroke
} bind def
/gmark { % i j c gmark
  % draw basepair i,j with c counter examples in gray
  gsave
  3 min [0 0.33 0.66 0.9] exch get setgray
  1 sub dup coor exch get aload pop moveto
  sequence exch 1 getinterval cshow
  1 sub dup coor exch get aload pop moveto
  sequence exch 1 getinterval cshow
  grestore
} bind def
/segmark { % f i j lw r g b segmark
  % mark segment [i,j] with outline width lw and color rgb
  % use omark and Fomark instead
  gsave
  setrgbcolor setlinewidth
  newpath
  1 sub exch 1 sub dup
  coor exch get aload pop moveto
  currentdict (cpr) known
  {
    3 -1 roll dup 4 1 roll dup
    {
      3 1 roll dup 3 -1 roll dup
      4 1 roll exch 5 2 roll exch
    }
    {
      3 1 roll exch
    } ifelse
    1 exch { coor exch get aload pop lineto } for
    {
      dup 3 1 roll 1 add exch 1 add arccoords pop pop
      4 2 roll 5 -1 roll coor exch get aload pop curveto
    } if
  }
  {
    exch 1 exch {
      coor exch get aload pop lineto
    } for
  } ifelse
  { closepath fill } if  stroke
  grestore
} bind def
/omark { % i j lw r g b omark
  % stroke segment [i..j] with linewidth lw, color rgb
  false 7 1 roll segmark
} bind def
/Fomark { % i j r g b Fomark
  % fill segment [i..j] with color rgb
  % should precede drawbases
  1 4 1 roll true 7 1 roll segmark
} bind def
/BFmark{ % i j k l r g b BFmark
  % fill block between pairs (i,j) and (k,l) with color rgb
  % should precede drawbases
  gsave
  setrgbcolor
  newpath
  currentdict (cpr) known
  {
    dup 1 sub coor exch get aload pop moveto % move to l
    dup 1 sub 4 -1 roll dup 5 1 roll 1 sub 1 exch
    { coor exch get aload pop lineto } for % lines from l to j
    3 -1 roll 4 -1 roll dup 5 1 roll arccoords curveto % curve from j to i
    exch dup 4 -1 roll 1 sub exch 1 sub 1 exch
    { coor exch get aload pop lineto } for % lines from i to k
    exch arccoords curveto% curve from k to l
  }
  {  exch 4 3 roll exch 1 sub exch 1 sub dup
     coor exch get aload pop moveto
     exch 1 exch { coor exch get aload pop lineto } for
     exch 1 sub exch 1 sub dup
     coor exch get aload pop lineto
     exch 1 exch { coor exch get aload pop lineto } for
  } ifelse
    closepath fill stroke
   grestore
} bind def
/hsb {
  dup 0.3 mul 1 exch sub sethsbcolor
} bind def
/colorpair { % i j hue sat colorpair
  % draw basepair i,j in color
  % 1 index 0.00 ne {
  gsave
  newpath
  hsb
  fsize setlinewidth
  currentdict (cpr) known
  {
    exch dup
    coor  exch 1 sub get aload pop moveto
    exch arccoords curveto
  }
  { 1 sub coor exch get aload pop moveto
    1 sub coor exch get aload pop lineto
  } ifelse
   stroke
   grestore
   % } if
} bind def
end

%%EndProlog
RNAplot begin
% data start here
/sequence (\
_________CCC______UUU___UUUU___________________________G______AAG_GGGGUUUUUUUUUUUUU____U\
) def
/coor [
[89.63404846 265.96813965]
[82.21251678 252.86338806]
[77.78206635 238.46945190]
[76.54991913 223.45959473]
[78.57370758 208.53584290]
[83.75876617 194.39620972]
[91.86258698 181.70202637]
[102.50614166 171.04704285]
[115.19160461 162.92958069]
[110.00605774 148.85443115]
[104.82051086 134.77926636]
[99.63496399 120.70410919]
[92.20876312 119.18566895]
[85.82651520 115.09654236]
[81.34336853 108.98462677]
[79.36003113 101.66885376]
[80.14225006 94.12947845]
[83.58521271 87.37669373]
[89.22759247 82.31529999]
[86.59390259 67.54832458]
[83.96022034 52.78134537]
[81.32653046 38.01436234]
[64.31855011 27.73209572]
[60.06642914 8.62076283]
[70.78163147 -7.41077662]
[66.60185242 -21.81665802]
[62.42206573 -36.22253799]
[47.38299942 -35.34263992]
[32.52528381 -37.83182526]
[18.59417915 -43.56523514]
[6.28845787 -52.25528717]
[-3.77462673 -63.46608734]
[-11.09031487 -76.63531494]
[-15.29165459 -91.10239410]
[-16.16790771 -106.14167023]
[-13.67512417 -120.99878693]
[-7.93833828 -134.92849731]
[0.75469351 -147.23211670]
[11.96793270 -157.29248047]
[25.13892937 -164.60498047]
[39.60702896 -168.80281067]
[54.64651871 -169.67543030]
[69.50302887 -167.17904663]
[83.43135834 -161.43888855]
[95.73286438 -152.74287415]
[105.79051208 -141.52719116]
[113.09981537 -128.35443115]
[117.29414368 -113.88530731]
[118.16310883 -98.84560394]
[115.66313171 -83.98970032]
[109.91959381 -70.06276703]
[101.22060394 -57.76336670]
[90.00248718 -47.70843506]
[76.82794952 -40.40232086]
[81.00772858 -25.99643898]
[85.18751526 -11.59055805]
[95.54630280 -9.12999439]
[103.93882751 -2.44587970]
[108.72750854 7.24672174]
[108.94025421 18.13765526]
[104.46692657 28.15964127]
[96.09351349 35.38067627]
[98.72719574 50.14765549]
[101.36088562 64.91463470]
[103.99456787 79.68161774]
[119.98588562 94.58173370]
[113.71012878 115.51856232]
[118.89567566 129.59371948]
[124.08121490 143.66888428]
[129.26676941 157.74403381]
[144.18655396 155.69122314]
[159.19877625 156.89414978]
[173.60130310 161.29658508]
[186.72048950 168.69259644]
[197.94273376 178.73626709]
[206.74313354 190.95783997]
[212.71011353 204.78569031]
[215.56454468 219.57305908]
[215.17295837 234.62831116]
[211.55364990 249.24729919]
[204.87590027 262.74624634]
[195.45204163 274.49380493]
[183.72285461 283.94049072]
[170.23692322 290.64450073]
[155.62500000 294.29226685]
[140.57054138 294.71313477]
[125.77764893 291.88748169]
[111.93821716 285.94744873]
] def
/pairs [
[9 70]
[10 69]
[11 68]
[12 67]
[19 65]
[20 64]
[21 63]
[22 62]
[25 56]
[26 55]
[27 54]
] def

init

% switch off outline pairs or bases by removing these lines
drawoutline
drawpairs
drawbases
% Start Annotations
9 70 264 gmark
9 cmark
70 cmark
10 69 70 gmark
10 cmark
69 cmark
11 68 9 gmark
11 cmark
68 cmark
12 67 9 gmark
12 cmark
67 cmark
19 65 5 gmark
19 cmark
65 cmark
20 64 4 gmark
20 cmark
64 cmark
21 63 28 gmark
21 cmark
63 cmark
22 62 360 gmark
22 cmark
62 cmark
25 56 224 gmark
25 cmark
56 cmark
26 55 214 gmark
26 cmark
55 cmark
27 54 293 gmark
27 cmark
54 cmark

% End Annotations
% show it
showpage
end
%%EOF
