%!PS-Adobe-3.0 EPSF-3.0
%%Creator: ViennaRNA-2.5.1
%%CreationDate: Sat Oct 15 13:30:08 2022
%%Title: RNA Secondary Structure Plot
%%BoundingBox: 0 0 700 700
%%DocumentFonts: Helvetica
%%Pages: 1
%%EndComments

% Program options: 

% To switch off outline pairs of sequence comment or
% delete the appropriate line near the end of the file

/RNAplot 100 dict def

RNAplot begin

%%BeginProlog

/fsize  14 def
/outlinecolor {0.2 setgray} bind def
/paircolor    {0.2 setgray} bind def
/seqcolor     {0   setgray} bind def
/cshow  { dup stringwidth pop -2 div fsize -3 div rmoveto show} bind def
/min { 2 copy gt { exch } if pop } bind def
/max { 2 copy lt { exch } if pop } bind def
/arccoords { % i j arccoords
  % puts optimal x1 y1 x2 y2 coordinates used in bezier curves from i to j
  % onto the stack
  dup 3 -1 roll dup 4 -1 roll lt dup dup 5 2 roll {exch} if
  dup 3 -1 roll dup 3 -1 roll exch sub 1 sub dup
  4 -2 roll 5 -1 roll {exch} if 4 2 roll
  sequence length dup 2 div exch 3 1 roll lt 
  {exch 5 -1 roll pop 4 -2 roll exch 4 2 roll}
  { 4 2 roll 5 -1 roll dup 6 1 roll {exch} if
    4 -2 roll exch pop dup 3 -1 roll dup 4 1 roll
    exch add 4 -1 roll dup 5 1 roll sub 1 sub
    5 -1 roll not {4 -2 roll exch 4 2 roll} if
  }ifelse
   % compute the scalingfactor and prepare (1-sf) and sf*r
  2 mul exch cpr 3 1 roll div dup
  3 -1 roll mul exch 1 exch sub exch
   % compute the coordinates
  3 -1 roll 1 sub coor exch get aload pop % get coord for i
  4 -1 roll dup 5 1 roll mul 3 -1 roll dup 4 1 roll add exch % calculate y1
  4 -1 roll dup 5 1 roll mul 3 -1 roll dup 4 1 roll add exch % calculate x1
  5 -1 roll 1 sub coor exch get aload pop % get coord for j
  % duplicate j coord
  dup 3 -1 roll dup 4 1 roll exch 8 2 roll
  6 -1 roll dup 7 1 roll mul 5 -1 roll dup 6 1 roll add exch % calculate y2
  6 -1 roll mul 5 -1 roll add exch % calculate x2
  6 -2 roll % reorder
} bind def
/drawoutline {
  gsave outlinecolor newpath
  coor 0 get aload pop 0.8 0 360 arc % draw 5' circle of 1st sequence
  currentdict /cutpoint known        % check if cutpoint is defined
  {coor 0 cutpoint getinterval
   {aload pop lineto} forall         % draw outline of 1st sequence
   coor cutpoint 1 add get aload pop
   2 copy moveto 0.8 0 360 arc       % draw 5' circle of 2nd sequence
   coor cutpoint 1 add coor length cutpoint 1 add sub getinterval
   {aload pop lineto} forall        % draw outline of 2nd sequence
     } {
        /i 0 def
        coor {
            /p coor i get def
            /a arcs i get def
            /l a length def
            l 0 eq {
                %% standard point... draw simple line
                p 0 2 getinterval aload pop lineto
            } {
                %% point in loop... draw arc around loop center
                /clockwise a 5 get def
                clockwise 0.0000000 gt {
                    a 0 5 getinterval aload pop arcn
                } {
                    a 0 5 getinterval aload pop arc
                } ifelse
            } ifelse
            /i i 1 add def
        } forall
    }
  ifelse
  stroke grestore
} bind def
/drawpairs {
  paircolor
  0.7 setlinewidth
  [9 3.01] 9 setdash
  newpath
  pairs {aload pop
      currentdict (cpr) known
      { exch dup
        coor  exch 1 sub get aload pop moveto
        exch arccoords curveto
      }
      { coor exch 1 sub get aload pop moveto
        coor exch 1 sub get aload pop lineto
      }ifelse
  } forall
  stroke
} bind def
% draw bases
/drawbases {
  [] 0 setdash
  seqcolor
  0
  coor {
    aload pop moveto
    dup sequence exch 1 getinterval cshow
    1 add
  } forall
  pop
} bind def
/init {
  /Helvetica findfont fsize scalefont setfont
  1 setlinejoin
  1 setlinecap
  0.8 setlinewidth
  % find the coordinate range
  /xmax -1000 def /xmin 10000 def
  /ymax -1000 def /ymin 10000 def
  coor {
      aload pop
      dup ymin lt {dup /ymin exch def} if
      dup ymax gt {/ymax exch def} {pop} ifelse
      dup xmin lt {dup /xmin exch def} if
      dup xmax gt {/xmax exch def} {pop} ifelse
  } forall
  /size {xmax xmin sub ymax ymin sub max} bind def
  /width {xmax xmin sub} bind def
  /height {ymax ymin sub} bind def
  10 10 translate
  680 size 10 add div dup scale
  size width sub width xmin sub xmax sub add 2 div 5 add
  size height sub height ymin sub ymax sub add 2 div 5 add
  translate
} bind def
% extra definitions for standard anotations
/min { 2 copy gt { exch } if pop } bind def
/BLACK { 0 0 0 } def
/RED   { 1 0 0 } def
/GREEN { 0 1 0 } def
/BLUE  { 0 0 1 } def
/WHITE { 1 1 1 } def
/LabelFont { % font size LabelFont
  exch findfont exch fsize mul scalefont setfont
} bind def
/Label { % i dx dy (text) Label
  % write text at base i plus offset dx, dy
  4 3 roll 1 sub coor exch get aload pop moveto
  3 1 roll fsize mul exch fsize mul exch rmoveto
  show
} bind def
/cmark { % i cmark   draw circle around base i
  newpath 1 sub coor exch get aload pop
  fsize 2 div 0 360 arc stroke
} bind def
/gmark { % i j c gmark
  % draw basepair i,j with c counter examples in gray
  gsave
  3 min [0 0.33 0.66 0.9] exch get setgray
  1 sub dup coor exch get aload pop moveto
  sequence exch 1 getinterval cshow
  1 sub dup coor exch get aload pop moveto
  sequence exch 1 getinterval cshow
  grestore
} bind def
/segmark { % f i j lw r g b segmark
  % mark segment [i,j] with outline width lw and color rgb
  % use omark and Fomark instead
  gsave
  setrgbcolor setlinewidth
  newpath
  1 sub exch 1 sub dup
  coor exch get aload pop moveto
  currentdict (cpr) known
  {
    3 -1 roll dup 4 1 roll dup
    {
      3 1 roll dup 3 -1 roll dup
      4 1 roll exch 5 2 roll exch
    }
    {
      3 1 roll exch
    } ifelse
    1 exch { coor exch get aload pop lineto } for
    {
      dup 3 1 roll 1 add exch 1 add arccoords pop pop
      4 2 roll 5 -1 roll coor exch get aload pop curveto
    } if
  }
  {
    exch 1 exch {
      coor exch get aload pop lineto
    } for
  } ifelse
  { closepath fill } if  stroke
  grestore
} bind def
/omark { % i j lw r g b omark
  % stroke segment [i..j] with linewidth lw, color rgb
  false 7 1 roll segmark
} bind def
/Fomark { % i j r g b Fomark
  % fill segment [i..j] with color rgb
  % should precede drawbases
  1 4 1 roll true 7 1 roll segmark
} bind def
/BFmark{ % i j k l r g b BFmark
  % fill block between pairs (i,j) and (k,l) with color rgb
  % should precede drawbases
  gsave
  setrgbcolor
  newpath
  currentdict (cpr) known
  {
    dup 1 sub coor exch get aload pop moveto % move to l
    dup 1 sub 4 -1 roll dup 5 1 roll 1 sub 1 exch
    { coor exch get aload pop lineto } for % lines from l to j
    3 -1 roll 4 -1 roll dup 5 1 roll arccoords curveto % curve from j to i
    exch dup 4 -1 roll 1 sub exch 1 sub 1 exch
    { coor exch get aload pop lineto } for % lines from i to k
    exch arccoords curveto% curve from k to l
  }
  {  exch 4 3 roll exch 1 sub exch 1 sub dup
     coor exch get aload pop moveto
     exch 1 exch { coor exch get aload pop lineto } for
     exch 1 sub exch 1 sub dup
     coor exch get aload pop lineto
     exch 1 exch { coor exch get aload pop lineto } for
  } ifelse
    closepath fill stroke
   grestore
} bind def
/hsb {
  dup 0.3 mul 1 exch sub sethsbcolor
} bind def
/colorpair { % i j hue sat colorpair
  % draw basepair i,j in color
  % 1 index 0.00 ne {
  gsave
  newpath
  hsb
  fsize setlinewidth
  currentdict (cpr) known
  {
    exch dup
    coor  exch 1 sub get aload pop moveto
    exch arccoords curveto
  }
  { 1 sub coor exch get aload pop moveto
    1 sub coor exch get aload pop lineto
  } ifelse
   stroke
   grestore
   % } if
} bind def

%%EndProlog

% data start here
/sequence { (\
cVSYYYYYYu--c-YHYHHYas--------------------rRRVRRRRVSSuUUUUUUWWWKNN-aHR\
) } def
/len { sequence length } bind def

/coor [
[51.41757584 80.04461670]
[59.00605392 67.16761017]
[48.75721741 56.21492386]
[38.50838089 45.26224136]
[28.25954247 34.30955505]
[18.01070595 23.35686684]
[7.76186848 12.40418148]
[-2.48696899 1.45149517]
[-12.73580647 -9.50119114]
[-25.29218292 -1.22801685]
[-39.06618881 4.80396175]
[-53.66151810 8.42119312]
[-68.65823364 9.51960087]
[-83.62485504 8.06758404]
[-98.13075256 4.10691786]
[-111.75857544 -2.24844050]
[-124.11621094 -10.81563473]
[-134.84811401 -21.34816933]
[-143.64549255 -33.54300308]
[-150.25526428 -47.04926682]
[-154.48721313 -61.47835541]
[-156.21958923 -76.41511536]
[-155.40255737 -91.42979431]
[-152.05961609 -106.09037781]
[-146.28695679 -119.97505951]
[-138.25065613 -132.68434143]
[-128.18196106 -143.85256958]
[-116.37053680 -153.15840149]
[-103.15624237 -160.33407593]
[-88.91927338 -165.17315674]
[-74.06925201 -167.53639221]
[-59.03344727 -167.35581970]
[-44.24446869 -164.63659668]
[-30.12782478 -159.45698547]
[-17.08967972 -151.96600342]
[-5.50516510 -142.37919617]
[4.29240799 -130.97236633]
[12.02114391 -118.07374573]
[17.45867157 -104.05442047]
[20.44854355 -89.31777954]
[20.90473366 -74.28781128]
[18.81411552 -59.39696503]
[14.23684406 -45.07367706]
[7.30461407 -31.73005676]
[-1.78312016 -19.75002861]
[8.46571732 -8.79734230]
[18.71455383 2.15534377]
[28.96339226 13.10803032]
[39.21223068 24.06071663]
[49.46106720 35.01340103]
[59.70990372 45.96608734]
[69.95874023 56.91877365]
[83.31068420 50.20104599]
[98.01425934 47.51642227]
[112.87865448 49.08232498]
[126.70003510 54.77193832]
[138.35903931 64.12447357]
[146.91142273 76.38248444]
[151.66456604 90.55322266]
[152.23350525 105.48904419]
[148.57217407 119.98030853]
[140.97709656 132.85342407]
[130.06335449 143.06581116]
[116.71486664 149.79039001]
[102.01267242 152.48255920]
[87.14747620 150.92427063]
[73.32318115 145.24176025]
[61.65937805 135.89520264]
[53.10069656 123.64158630]
[48.34028625 109.47328186]
] def
/arcs [
[]
[]
[]
[]
[]
[]
[]
[]
[]
[]
[]
[]
[]
[]
[]
[]
[]
[]
[]
[]
[]
[]
[]
[]
[]
[]
[]
[]
[]
[]
[]
[]
[]
[]
[]
[]
[]
[]
[]
[]
[]
[]
[]
[]
[]
[]
[]
[]
[]
[]
[]
[]
[]
[]
[]
[]
[]
[]
[]
[]
[]
[]
[]
[]
[]
[]
[]
[]
[]
[]
] def
/pairs [
[2 52]
[3 51]
[4 50]
[5 49]
[6 48]
[7 47]
[8 46]
[9 45]
] def

init

% Start Annotations

% End Annotations
% switch off outline pairs or bases by removing these lines
drawoutline
drawpairs
drawbases
% Start Annotations
2 52 136 gmark
2 cmark
52 cmark
3 51 29 gmark
3 cmark
51 cmark
4 50 16 gmark
4 cmark
50 cmark
5 49 21 gmark
5 cmark
49 cmark
6 48 4 gmark
6 cmark
48 cmark
7 47 335 gmark
7 cmark
47 cmark
8 46 333 gmark
8 cmark
46 cmark
9 45 116 gmark
9 cmark
45 cmark

% End Annotations
showpage
end
%%EOF
