%!PS-Adobe-3.0 EPSF-3.0
%%Creator: ViennaRNA-2.5.0
%%CreationDate: Mon Feb 21 23:41:48 2022
%%Title: RNA Secondary Structure Plot
%%BoundingBox: 0 0 700 700
%%DocumentFonts: Helvetica
%%Pages: 1
%%EndComments

% Program options: 

% To switch off outline pairs of sequence comment or
% delete the appropriate line near the end of the file

/RNAplot 100 dict def

RNAplot begin

%%BeginProlog

/fsize  14 def
/outlinecolor {0.2 setgray} bind def
/paircolor    {0.2 setgray} bind def
/seqcolor     {0   setgray} bind def
/cshow  { dup stringwidth pop -2 div fsize -3 div rmoveto show} bind def
/min { 2 copy gt { exch } if pop } bind def
/max { 2 copy lt { exch } if pop } bind def
/arccoords { % i j arccoords
  % puts optimal x1 y1 x2 y2 coordinates used in bezier curves from i to j
  % onto the stack
  dup 3 -1 roll dup 4 -1 roll lt dup dup 5 2 roll {exch} if
  dup 3 -1 roll dup 3 -1 roll exch sub 1 sub dup
  4 -2 roll 5 -1 roll {exch} if 4 2 roll
  sequence length dup 2 div exch 3 1 roll lt 
  {exch 5 -1 roll pop 4 -2 roll exch 4 2 roll}
  { 4 2 roll 5 -1 roll dup 6 1 roll {exch} if
    4 -2 roll exch pop dup 3 -1 roll dup 4 1 roll
    exch add 4 -1 roll dup 5 1 roll sub 1 sub
    5 -1 roll not {4 -2 roll exch 4 2 roll} if
  }ifelse
   % compute the scalingfactor and prepare (1-sf) and sf*r
  2 mul exch cpr 3 1 roll div dup
  3 -1 roll mul exch 1 exch sub exch
   % compute the coordinates
  3 -1 roll 1 sub coor exch get aload pop % get coord for i
  4 -1 roll dup 5 1 roll mul 3 -1 roll dup 4 1 roll add exch % calculate y1
  4 -1 roll dup 5 1 roll mul 3 -1 roll dup 4 1 roll add exch % calculate x1
  5 -1 roll 1 sub coor exch get aload pop % get coord for j
  % duplicate j coord
  dup 3 -1 roll dup 4 1 roll exch 8 2 roll
  6 -1 roll dup 7 1 roll mul 5 -1 roll dup 6 1 roll add exch % calculate y2
  6 -1 roll mul 5 -1 roll add exch % calculate x2
  6 -2 roll % reorder
} bind def
/drawoutline {
  gsave outlinecolor newpath
  coor 0 get aload pop 0.8 0 360 arc % draw 5' circle of 1st sequence
  currentdict /cutpoint known        % check if cutpoint is defined
  {coor 0 cutpoint getinterval
   {aload pop lineto} forall         % draw outline of 1st sequence
   coor cutpoint 1 add get aload pop
   2 copy moveto 0.8 0 360 arc       % draw 5' circle of 2nd sequence
   coor cutpoint 1 add coor length cutpoint 1 add sub getinterval
   {aload pop lineto} forall        % draw outline of 2nd sequence
     } {
        /i 0 def
        coor {
            /p coor i get def
            /a arcs i get def
            /l a length def
            l 0 eq {
                %% standard point... draw simple line
                p 0 2 getinterval aload pop lineto
            } {
                %% point in loop... draw arc around loop center
                /clockwise a 5 get def
                clockwise 0.0000000 gt {
                    a 0 5 getinterval aload pop arcn
                } {
                    a 0 5 getinterval aload pop arc
                } ifelse
            } ifelse
            /i i 1 add def
        } forall
    }
  ifelse
  stroke grestore
} bind def
/drawpairs {
  paircolor
  0.7 setlinewidth
  [9 3.01] 9 setdash
  newpath
  pairs {aload pop
      currentdict (cpr) known
      { exch dup
        coor  exch 1 sub get aload pop moveto
        exch arccoords curveto
      }
      { coor exch 1 sub get aload pop moveto
        coor exch 1 sub get aload pop lineto
      }ifelse
  } forall
  stroke
} bind def
% draw bases
/drawbases {
  [] 0 setdash
  seqcolor
  0
  coor {
    aload pop moveto
    dup sequence exch 1 getinterval cshow
    1 add
  } forall
  pop
} bind def
/init {
  /Helvetica findfont fsize scalefont setfont
  1 setlinejoin
  1 setlinecap
  0.8 setlinewidth
  % find the coordinate range
  /xmax -1000 def /xmin 10000 def
  /ymax -1000 def /ymin 10000 def
  coor {
      aload pop
      dup ymin lt {dup /ymin exch def} if
      dup ymax gt {/ymax exch def} {pop} ifelse
      dup xmin lt {dup /xmin exch def} if
      dup xmax gt {/xmax exch def} {pop} ifelse
  } forall
  /size {xmax xmin sub ymax ymin sub max} bind def
  /width {xmax xmin sub} bind def
  /height {ymax ymin sub} bind def
  10 10 translate
  680 size 10 add div dup scale
  size width sub width xmin sub xmax sub add 2 div 5 add
  size height sub height ymin sub ymax sub add 2 div 5 add
  translate
} bind def
% extra definitions for standard anotations
/min { 2 copy gt { exch } if pop } bind def
/BLACK { 0 0 0 } def
/RED   { 1 0 0 } def
/GREEN { 0 1 0 } def
/BLUE  { 0 0 1 } def
/WHITE { 1 1 1 } def
/LabelFont { % font size LabelFont
  exch findfont exch fsize mul scalefont setfont
} bind def
/Label { % i dx dy (text) Label
  % write text at base i plus offset dx, dy
  4 3 roll 1 sub coor exch get aload pop moveto
  3 1 roll fsize mul exch fsize mul exch rmoveto
  show
} bind def
/cmark { % i cmark   draw circle around base i
  newpath 1 sub coor exch get aload pop
  fsize 2 div 0 360 arc stroke
} bind def
/gmark { % i j c gmark
  % draw basepair i,j with c counter examples in gray
  gsave
  3 min [0 0.33 0.66 0.9] exch get setgray
  1 sub dup coor exch get aload pop moveto
  sequence exch 1 getinterval cshow
  1 sub dup coor exch get aload pop moveto
  sequence exch 1 getinterval cshow
  grestore
} bind def
/segmark { % f i j lw r g b segmark
  % mark segment [i,j] with outline width lw and color rgb
  % use omark and Fomark instead
  gsave
  setrgbcolor setlinewidth
  newpath
  1 sub exch 1 sub dup
  coor exch get aload pop moveto
  currentdict (cpr) known
  {
    3 -1 roll dup 4 1 roll dup
    {
      3 1 roll dup 3 -1 roll dup
      4 1 roll exch 5 2 roll exch
    }
    {
      3 1 roll exch
    } ifelse
    1 exch { coor exch get aload pop lineto } for
    {
      dup 3 1 roll 1 add exch 1 add arccoords pop pop
      4 2 roll 5 -1 roll coor exch get aload pop curveto
    } if
  }
  {
    exch 1 exch {
      coor exch get aload pop lineto
    } for
  } ifelse
  { closepath fill } if  stroke
  grestore
} bind def
/omark { % i j lw r g b omark
  % stroke segment [i..j] with linewidth lw, color rgb
  false 7 1 roll segmark
} bind def
/Fomark { % i j r g b Fomark
  % fill segment [i..j] with color rgb
  % should precede drawbases
  1 4 1 roll true 7 1 roll segmark
} bind def
/BFmark{ % i j k l r g b BFmark
  % fill block between pairs (i,j) and (k,l) with color rgb
  % should precede drawbases
  gsave
  setrgbcolor
  newpath
  currentdict (cpr) known
  {
    dup 1 sub coor exch get aload pop moveto % move to l
    dup 1 sub 4 -1 roll dup 5 1 roll 1 sub 1 exch
    { coor exch get aload pop lineto } for % lines from l to j
    3 -1 roll 4 -1 roll dup 5 1 roll arccoords curveto % curve from j to i
    exch dup 4 -1 roll 1 sub exch 1 sub 1 exch
    { coor exch get aload pop lineto } for % lines from i to k
    exch arccoords curveto% curve from k to l
  }
  {  exch 4 3 roll exch 1 sub exch 1 sub dup
     coor exch get aload pop moveto
     exch 1 exch { coor exch get aload pop lineto } for
     exch 1 sub exch 1 sub dup
     coor exch get aload pop lineto
     exch 1 exch { coor exch get aload pop lineto } for
  } ifelse
    closepath fill stroke
   grestore
} bind def
/hsb {
  dup 0.3 mul 1 exch sub sethsbcolor
} bind def
/colorpair { % i j hue sat colorpair
  % draw basepair i,j in color
  % 1 index 0.00 ne {
  gsave
  newpath
  hsb
  fsize setlinewidth
  currentdict (cpr) known
  {
    exch dup
    coor  exch 1 sub get aload pop moveto
    exch arccoords curveto
  }
  { 1 sub coor exch get aload pop moveto
    1 sub coor exch get aload pop lineto
  } ifelse
   stroke
   grestore
   % } if
} bind def

%%EndProlog

% data start here
/sequence { (\
---------------------ag-------c-agsSVSHYBHY--------CYY--VN----YNC---H-N------NHVa-a-W-rg-----a----Nasagg-raSSa-r--g--g--aaGRRVRRRVVSBYHUUUWDHDDDNNNNN\
) } def
/len { sequence length } bind def

/coor [
[92.50000000 92.50000000]
[77.51110077 91.86760712]
[62.56217957 90.60388947]
[47.67982483 88.71110535]
[32.89049530 86.19261169]
[18.22048187 83.05288696]
[3.69586968 79.29752350]
[-10.65751648 74.93318176]
[-24.81415558 69.96763611]
[-38.74888229 64.40971375]
[-52.43691635 58.26928329]
[-65.85391998 51.55727386]
[-78.97604370 44.28561783]
[-91.77995300 36.46723938]
[-104.24288940 28.11604500]
[-116.34268188 19.24687958]
[-128.05783081 9.87551212]
[-139.36749268 0.01860584]
[-150.25157166 -10.30631447]
[-160.69070435 -21.08089256]
[-170.66635132 -32.28596878]
[-180.16075134 -43.90162277]
[-189.15702820 -55.90720367]
[-197.63920593 -68.28136444]
[-205.59219360 -81.00210571]
[-213.00184631 -94.04680634]
[-219.85498047 -107.39227295]
[-226.13943481 -121.01478577]
[-231.84400940 -134.89012146]
[-236.95858765 -148.99359131]
[-241.47407532 -163.30015564]
[-245.38241577 -177.78434753]
[-248.67668152 -192.42044067]
[-251.35101318 -207.18238831]
[-253.40066528 -222.04394531]
[-254.82196045 -236.97869873]
[-255.61241150 -251.96009827]
[-255.77058411 -266.96151733]
[-255.29621887 -281.95623779]
[-254.19013977 -296.91766357]
[-252.45433044 -311.81912231]
[-250.09187317 -326.63418579]
[-247.10694885 -341.33648682]
[-243.50488281 -355.89987183]
[-239.29208374 -370.29846191]
[-234.47602844 -384.50665283]
[-229.06529236 -398.49917603]
[-223.06948853 -412.25119019]
[-216.49926758 -425.73818970]
[-209.36633301 -438.93621826]
[-201.68334961 -451.82183838]
[-193.46397400 -464.37210083]
[-184.72283936 -476.56469727]
[-175.47547913 -488.37799072]
[-165.73832703 -499.79092407]
[-155.52871704 -510.78320312]
[-144.86476135 -521.33532715]
[-133.76545715 -531.42852783]
[-122.25052643 -541.04486084]
[-110.34043884 -550.16717529]
[-98.05637360 -558.77929688]
[-85.42016602 -566.86590576]
[-72.45429230 -574.41265869]
[-59.18180084 -581.40612793]
[-45.62628937 -587.83380127]
[-31.81185532 -593.68432617]
[-17.76306725 -598.94726562]
[-3.50489950 -603.61328125]
[10.93729591 -607.67407227]
[25.53784370 -611.12243652]
[40.27077866 -613.95220947]
[55.10991669 -616.15838623]
[70.02886200 -617.73706055]
[85.00109863 -618.68536377]
[100.00000000 -619.00164795]
[114.99890137 -618.68536377]
[129.97113037 -617.73706055]
[144.89009094 -616.15838623]
[159.72921753 -613.95220947]
[174.46215820 -611.12243652]
[189.06269836 -607.67407227]
[203.50489807 -603.61328125]
[217.76306152 -598.94726562]
[231.81185913 -593.68432617]
[245.62628174 -587.83380127]
[259.18179321 -581.40612793]
[272.45428467 -574.41265869]
[285.42016602 -566.86590576]
[298.05636597 -558.77929688]
[310.34042358 -550.16717529]
[322.25051880 -541.04486084]
[333.76547241 -531.42852783]
[344.86477661 -521.33532715]
[355.52871704 -510.78320312]
[365.73834229 -499.79092407]
[375.47549438 -488.37799072]
[384.72283936 -476.56469727]
[393.46398926 -464.37210083]
[401.68334961 -451.82183838]
[409.36633301 -438.93621826]
[416.49926758 -425.73818970]
[423.06948853 -412.25119019]
[429.06527710 -398.49917603]
[434.47604370 -384.50665283]
[439.29208374 -370.29846191]
[443.50488281 -355.89987183]
[447.10693359 -341.33648682]
[450.09185791 -326.63418579]
[452.45434570 -311.81912231]
[454.19015503 -296.91766357]
[455.29623413 -281.95623779]
[455.77059937 -266.96151733]
[455.61242676 -251.96009827]
[454.82196045 -236.97869873]
[453.40066528 -222.04394531]
[451.35101318 -207.18238831]
[448.67669678 -192.42044067]
[445.38241577 -177.78434753]
[441.47406006 -163.30015564]
[436.95858765 -148.99359131]
[431.84402466 -134.89012146]
[426.13943481 -121.01478577]
[419.85498047 -107.39227295]
[413.00183105 -94.04680634]
[405.59219360 -81.00210571]
[397.63922119 -68.28136444]
[389.15704346 -55.90720367]
[380.16073608 -43.90162277]
[370.66635132 -32.28596878]
[360.69070435 -21.08089256]
[350.25155640 -10.30631447]
[339.36749268 0.01860584]
[328.05783081 9.87551212]
[316.34268188 19.24687958]
[304.24288940 28.11604500]
[291.77996826 36.46723938]
[278.97604370 44.28561783]
[265.85391235 51.55727386]
[252.43692017 58.26928329]
[238.74888611 64.40971375]
[224.81416321 69.96763611]
[210.65751648 74.93318176]
[196.30412292 79.29752350]
[181.77952576 83.05288696]
[167.10951233 86.19261169]
[152.32017517 88.71110535]
[137.43782043 90.60388947]
[122.48889923 91.86760712]
[107.50000000 92.50000000]
] def
/arcs [
[]
[]
[]
[]
[]
[]
[]
[]
[]
[]
[]
[]
[]
[]
[]
[]
[]
[]
[]
[]
[]
[]
[]
[]
[]
[]
[]
[]
[]
[]
[]
[]
[]
[]
[]
[]
[]
[]
[]
[]
[]
[]
[]
[]
[]
[]
[]
[]
[]
[]
[]
[]
[]
[]
[]
[]
[]
[]
[]
[]
[]
[]
[]
[]
[]
[]
[]
[]
[]
[]
[]
[]
[]
[]
[]
[]
[]
[]
[]
[]
[]
[]
[]
[]
[]
[]
[]
[]
[]
[]
[]
[]
[]
[]
[]
[]
[]
[]
[]
[]
[]
[]
[]
[]
[]
[]
[]
[]
[]
[]
[]
[]
[]
[]
[]
[]
[]
[]
[]
[]
[]
[]
[]
[]
[]
[]
[]
[]
[]
[]
[]
[]
[]
[]
[]
[]
[]
[]
[]
[]
[]
[]
[]
[]
[]
[]
[]
[]
[]
] def
/pairs [
] def

init

% Start Annotations

% End Annotations
% switch off outline pairs or bases by removing these lines
drawoutline
drawpairs
drawbases
% Start Annotations

% End Annotations
showpage
end
%%EOF
