%!PS-Adobe-3.0 EPSF-3.0
%%Creator: ViennaRNA-2.5.1
%%CreationDate: Fri Oct 14 13:34:46 2022
%%Title: ViennaRNA Package - Alignment
%%BoundingBox: 0 0 528 134
%%DocumentFonts: Helvetica
%%Pages: 1
%%EndComments

% Program options: 

/ALNdict 100 dict def

ALNdict begin

%%BeginProlog

% draws Vienna RNA like colored boxes
/box { % x1 y1 x2 y2 hue saturation
  gsave
  dup 0.3 mul 1 exch sub sethsbcolor
  exch 3 index sub exch 2 index sub rectfill
  grestore
} def
% draws a box in current color
/box2 { % x1 y1 x2 y2
  exch 3 index sub exch 2 index sub rectfill
} def
/string { % (Text) x y
 6 add
 moveto
  show
} def

%%EndProlog

0 134 translate
1 -1 scale
/Courier findfont
[10 0 0 -10 0 0] makefont setfont
0 setgray
(..................................................) 186.0 2.0 string
(NC_014378.1:1544680-1544836) 6.0 12.5 string
(UGGCAUUGAGAACGUA-----------------------UUGAUUAAGCA) 186.0 12.5 string
(27) 492.0 12.5 string
(NC_014378.1:2165504-2165710) 6.0 21.0 string
(GAGGUAGAUAGAU-------------------UCUUUAGACUAUUAA--A) 186.0 21.0 string
(29) 492.0 21.0 string
(NC_009922.1:597184-597495) 6.0 29.5 string
(GAGGAAGCCUAAU-------------------UUUUACGUUUAUUAAGUG) 186.0 29.5 string
(31) 492.0 29.5 string
(NC_009633.1:3432145-3432425) 6.0 38.0 string
(AGAGUAUUUUCAUCAAUACCAUUAAGGUAU--UUUGAA------AAA---) 186.0 38.0 string
(39) 492.0 38.0 string
(NC_009633.1:4004322-4004549) 6.0 46.5 string
(AUGG----AUAAUGAAACCCUUCUUGGGUUAUUUUUAUGCAGAUAAA---) 186.0 46.5 string
(43) 492.0 46.5 string
(NC_010163.1:1054985-1055146) 6.0 55.0 string
(A---CAUAAGAU----------------AAACUUAUCU-------AAUGG) 186.0 55.0 string
(24) 492.0 55.0 string
(NC_014378.1:2116527-2116739) 6.0 63.5 string
(GAAGCGGUUACAU---------------------------------AGCC) 186.0 63.5 string
(17) 492.0 63.5 string
(NC_016894.1:3267693-3267992) 6.0 72.0 string
(UUUAAUGGCAAAC---------------------------------AUUA) 186.0 72.0 string
(17) 492.0 72.0 string
(NC_009633.1:3807659-3807922) 6.0 80.5 string
(GAGUUUCUAUGAU--------------------------------AUUAA) 186.0 80.5 string
(18) 492.0 80.5 string
(NC_009922.1:2736682-2737050) 6.0 89.0 string
(-AGAUACGCGAAU--------------------------------AAUAC) 186.0 89.0 string
(17) 492.0 89.0 string
(.........10........20........30........40.........) 186.0 99.5 string
0.6 setgray
186.0 122.1 192.0 127.5 box2
192.0 120.3 198.0 127.5 box2
198.0 118.5 204.0 127.5 box2
204.0 120.3 210.0 127.5 box2
210.0 122.1 216.0 127.5 box2
216.0 120.3 222.0 127.5 box2
222.0 122.1 228.0 127.5 box2
228.0 123.9 234.0 127.5 box2
234.0 122.1 240.0 127.5 box2
240.0 122.1 246.0 127.5 box2
246.0 118.5 252.0 127.5 box2
252.0 113.1 258.0 127.5 box2
258.0 116.7 264.0 127.5 box2
264.0 126.5 270.0 127.5 box2
270.0 126.5 276.0 127.5 box2
276.0 126.5 282.0 127.5 box2
282.0 126.5 288.0 127.5 box2
288.0 126.5 294.0 127.5 box2
294.0 126.5 300.0 127.5 box2
300.0 126.5 306.0 127.5 box2
306.0 126.5 312.0 127.5 box2
312.0 126.5 318.0 127.5 box2
318.0 126.5 324.0 127.5 box2
324.0 126.5 330.0 127.5 box2
330.0 126.5 336.0 127.5 box2
336.0 126.5 342.0 127.5 box2
342.0 126.5 348.0 127.5 box2
348.0 126.5 354.0 127.5 box2
354.0 126.5 360.0 127.5 box2
360.0 126.5 366.0 127.5 box2
366.0 126.5 372.0 127.5 box2
372.0 126.5 378.0 127.5 box2
378.0 126.5 384.0 127.5 box2
384.0 126.5 390.0 127.5 box2
390.0 126.5 396.0 127.5 box2
396.0 126.5 402.0 127.5 box2
402.0 126.5 408.0 127.5 box2
408.0 126.5 414.0 127.5 box2
414.0 126.5 420.0 127.5 box2
420.0 126.5 426.0 127.5 box2
426.0 126.5 432.0 127.5 box2
432.0 126.5 438.0 127.5 box2
438.0 126.5 444.0 127.5 box2
444.0 126.5 450.0 127.5 box2
450.0 126.5 456.0 127.5 box2
456.0 114.9 462.0 127.5 box2
462.0 113.1 468.0 127.5 box2
468.0 122.1 474.0 127.5 box2
474.0 126.5 480.0 127.5 box2
480.0 122.1 486.0 127.5 box2
showpage
end
%%EOF
