%!PS-Adobe-3.0 EPSF-3.0
%%Creator: ViennaRNA-2.3.3
%%CreationDate: Wed Feb 16 18:41:22 2022
%%Title: RNA Secondary Structure Plot
%%BoundingBox: 0 0 700 700
%%DocumentFonts: Helvetica
%%Pages: 1
%%EndComments

%Options: 
% to switch off outline pairs of sequence comment or
% delete the appropriate line near the end of the file

%%BeginProlog
/RNAplot 100 dict def
RNAplot begin
/fsize  14 def
/outlinecolor {0.2 setgray} bind def
/paircolor    {0.2 setgray} bind def
/seqcolor     {0   setgray} bind def
/cshow  { dup stringwidth pop -2 div fsize -3 div rmoveto show} bind def
/min { 2 copy gt { exch } if pop } bind def
/max { 2 copy lt { exch } if pop } bind def
/arccoords { % i j arccoords
  % puts optimal x1 y1 x2 y2 coordinates used in bezier curves from i to j
  % onto the stack
  dup 3 -1 roll dup 4 -1 roll lt dup dup 5 2 roll {exch} if
  dup 3 -1 roll dup 3 -1 roll exch sub 1 sub dup
  4 -2 roll 5 -1 roll {exch} if 4 2 roll
  sequence length dup 2 div exch 3 1 roll lt 
  {exch 5 -1 roll pop 4 -2 roll exch 4 2 roll}
  { 4 2 roll 5 -1 roll dup 6 1 roll {exch} if
    4 -2 roll exch pop dup 3 -1 roll dup 4 1 roll
    exch add 4 -1 roll dup 5 1 roll sub 1 sub
    5 -1 roll not {4 -2 roll exch 4 2 roll} if
  }ifelse
   % compute the scalingfactor and prepare (1-sf) and sf*r
  2 mul exch cpr 3 1 roll div dup
  3 -1 roll mul exch 1 exch sub exch
   % compute the coordinates
  3 -1 roll 1 sub coor exch get aload pop % get coord for i
  4 -1 roll dup 5 1 roll mul 3 -1 roll dup 4 1 roll add exch % calculate y1
  4 -1 roll dup 5 1 roll mul 3 -1 roll dup 4 1 roll add exch % calculate x1
  5 -1 roll 1 sub coor exch get aload pop % get coord for j
  % duplicate j coord
  dup 3 -1 roll dup 4 1 roll exch 8 2 roll
  6 -1 roll dup 7 1 roll mul 5 -1 roll dup 6 1 roll add exch % calculate y2
  6 -1 roll mul 5 -1 roll add exch % calculate x2
  6 -2 roll % reorder
} bind def
/drawoutline {
  gsave outlinecolor newpath
  coor 0 get aload pop 0.8 0 360 arc % draw 5' circle of 1st sequence
  currentdict /cutpoint known        % check if cutpoint is defined
  {coor 0 cutpoint getinterval
   {aload pop lineto} forall         % draw outline of 1st sequence
   coor cutpoint 1 add get aload pop
   2 copy moveto 0.8 0 360 arc       % draw 5' circle of 2nd sequence
   coor cutpoint 1 add coor length cutpoint 1 add sub getinterval
   {aload pop lineto} forall}        % draw outline of 2nd sequence
  {coor {aload pop lineto} forall}   % draw outline as a whole
  ifelse
  stroke grestore
} bind def
/drawpairs {
  paircolor
  0.7 setlinewidth
  [9 3.01] 9 setdash
  newpath
  pairs {aload pop
      currentdict (cpr) known
      { exch dup
        coor  exch 1 sub get aload pop moveto
        exch arccoords curveto
      }
      { coor exch 1 sub get aload pop moveto
        coor exch 1 sub get aload pop lineto
      }ifelse
  } forall
  stroke
} bind def
% draw bases
/drawbases {
  [] 0 setdash
  seqcolor
  0
  coor {
    aload pop moveto
    dup sequence exch 1 getinterval cshow
    1 add
  } forall
  pop
} bind def

/init {
  /Helvetica findfont fsize scalefont setfont
  1 setlinejoin
  1 setlinecap
  0.8 setlinewidth
  % find the coordinate range
  /xmax -1000 def /xmin 10000 def
  /ymax -1000 def /ymin 10000 def
  coor {
      aload pop
      dup ymin lt {dup /ymin exch def} if
      dup ymax gt {/ymax exch def} {pop} ifelse
      dup xmin lt {dup /xmin exch def} if
      dup xmax gt {/xmax exch def} {pop} ifelse
  } forall
  /size {xmax xmin sub ymax ymin sub max} bind def
  /width {xmax xmin sub} bind def
  /height {ymax ymin sub} bind def
  10 10 translate
  680 size 10 add div dup scale
  size width sub width xmin sub xmax sub add 2 div 5 add
  size height sub height ymin sub ymax sub add 2 div 5 add
  translate
} bind def
end
RNAplot begin
% extra definitions for standard anotations
/min { 2 copy gt { exch } if pop } bind def
/BLACK { 0 0 0 } def
/RED   { 1 0 0 } def
/GREEN { 0 1 0 } def
/BLUE  { 0 0 1 } def
/WHITE { 1 1 1 } def
/LabelFont { % font size LabelFont
  exch findfont exch fsize mul scalefont setfont
} bind def
/Label { % i dx dy (text) Label
  % write text at base i plus offset dx, dy
  4 3 roll 1 sub coor exch get aload pop moveto
  3 1 roll fsize mul exch fsize mul exch rmoveto
  show
} bind def
/cmark { % i cmark   draw circle around base i
  newpath 1 sub coor exch get aload pop
  fsize 2 div 0 360 arc stroke
} bind def
/gmark { % i j c gmark
  % draw basepair i,j with c counter examples in gray
  gsave
  3 min [0 0.33 0.66 0.9] exch get setgray
  1 sub dup coor exch get aload pop moveto
  sequence exch 1 getinterval cshow
  1 sub dup coor exch get aload pop moveto
  sequence exch 1 getinterval cshow
  grestore
} bind def
/segmark { % f i j lw r g b segmark
  % mark segment [i,j] with outline width lw and color rgb
  % use omark and Fomark instead
  gsave
  setrgbcolor setlinewidth
  newpath
  1 sub exch 1 sub dup
  coor exch get aload pop moveto
  currentdict (cpr) known
  {
    3 -1 roll dup 4 1 roll dup
    {
      3 1 roll dup 3 -1 roll dup
      4 1 roll exch 5 2 roll exch
    }
    {
      3 1 roll exch
    } ifelse
    1 exch { coor exch get aload pop lineto } for
    {
      dup 3 1 roll 1 add exch 1 add arccoords pop pop
      4 2 roll 5 -1 roll coor exch get aload pop curveto
    } if
  }
  {
    exch 1 exch {
      coor exch get aload pop lineto
    } for
  } ifelse
  { closepath fill } if  stroke
  grestore
} bind def
/omark { % i j lw r g b omark
  % stroke segment [i..j] with linewidth lw, color rgb
  false 7 1 roll segmark
} bind def
/Fomark { % i j r g b Fomark
  % fill segment [i..j] with color rgb
  % should precede drawbases
  1 4 1 roll true 7 1 roll segmark
} bind def
/BFmark{ % i j k l r g b BFmark
  % fill block between pairs (i,j) and (k,l) with color rgb
  % should precede drawbases
  gsave
  setrgbcolor
  newpath
  currentdict (cpr) known
  {
    dup 1 sub coor exch get aload pop moveto % move to l
    dup 1 sub 4 -1 roll dup 5 1 roll 1 sub 1 exch
    { coor exch get aload pop lineto } for % lines from l to j
    3 -1 roll 4 -1 roll dup 5 1 roll arccoords curveto % curve from j to i
    exch dup 4 -1 roll 1 sub exch 1 sub 1 exch
    { coor exch get aload pop lineto } for % lines from i to k
    exch arccoords curveto% curve from k to l
  }
  {  exch 4 3 roll exch 1 sub exch 1 sub dup
     coor exch get aload pop moveto
     exch 1 exch { coor exch get aload pop lineto } for
     exch 1 sub exch 1 sub dup
     coor exch get aload pop lineto
     exch 1 exch { coor exch get aload pop lineto } for
  } ifelse
    closepath fill stroke
   grestore
} bind def
/hsb {
  dup 0.3 mul 1 exch sub sethsbcolor
} bind def
/colorpair { % i j hue sat colorpair
  % draw basepair i,j in color
  % 1 index 0.00 ne {
  gsave
  newpath
  hsb
  fsize setlinewidth
  currentdict (cpr) known
  {
    exch dup
    coor  exch 1 sub get aload pop moveto
    exch arccoords curveto
  }
  { 1 sub coor exch get aload pop moveto
    1 sub coor exch get aload pop lineto
  } ifelse
   stroke
   grestore
   % } if
} bind def
end

%%EndProlog
RNAplot begin
% data start here
/sequence (\
_AAAGAUAAGA____________________________________________________________________________________________________________________________________________________________________________________________________\
) def
/coor [
[92.50000000 92.50000000]
[77.50575256 92.04474640]
[62.53222656 91.13465118]
[47.59321976 89.77053833]
[32.70249557 87.95367432]
[17.87376976 85.68572235]
[3.12070251 82.96878815]
[-11.54311180 79.80536652]
[-26.10416603 76.19836426]
[-40.54904175 72.15112305]
[-54.86443710 67.66735077]
[-69.03716278 62.75118637]
[-83.05415344 57.40716553]
[-96.90250397 51.64020157]
[-110.56945801 45.45561600]
[-124.04241943 38.85909653]
[-137.30897522 31.85673141]
[-150.35691833 24.45496368]
[-163.17419434 16.66061592]
[-175.74903870 8.48086739]
[-188.06982422 -0.07674544]
[-200.12522888 -9.00433922]
[-211.90414429 -18.29368782]
[-223.39570618 -27.93623543]
[-234.58932495 -37.92309952]
[-245.47471619 -48.24507523]
[-256.04180908 -58.89265442]
[-266.28091431 -69.85603333]
[-276.18255615 -81.12509918]
[-285.73767090 -92.68949127]
[-294.93737793 -104.53852844]
[-303.77325439 -116.66131592]
[-312.23715210 -129.04667664]
[-320.32125854 -141.68321228]
[-328.01815796 -154.55926514]
[-335.32070923 -167.66297913]
[-342.22222900 -180.98226929]
[-348.71633911 -194.50489807]
[-354.79705811 -208.21836853]
[-360.45880127 -222.11007690]
[-365.69631958 -236.16720581]
[-370.50482178 -250.37681580]
[-374.87985229 -264.72583008]
[-378.81741333 -279.20098877]
[-382.31384277 -293.78897095]
[-385.36593628 -308.47637939]
[-387.97085571 -323.24963379]
[-390.12625122 -338.09512329]
[-391.83007812 -352.99920654]
[-393.08081055 -367.94815063]
[-393.87728882 -382.92813110]
[-394.21878052 -397.92541504]
[-394.10494995 -412.92614746]
[-393.53591919 -427.91650391]
[-392.51220703 -442.88269043]
[-391.03475952 -457.81091309]
[-389.10494995 -472.68740845]
[-386.72454834 -487.49850464]
[-383.89572144 -502.23052979]
[-380.62112427 -516.86993408]
[-376.90371704 -531.40319824]
[-372.74694824 -545.81689453]
[-368.15469360 -560.09790039]
[-363.13110352 -574.23291016]
[-357.68087769 -588.20892334]
[-351.80895996 -602.01312256]
[-345.52084351 -615.63275146]
[-338.82226562 -629.05523682]
[-331.71942139 -642.26831055]
[-324.21887207 -655.25964355]
[-316.32745361 -668.01745605]
[-308.05252075 -680.52984619]
[-299.40164185 -692.78533936]
[-290.38284302 -704.77264404]
[-281.00436401 -716.48071289]
[-271.27487183 -727.89874268]
[-261.20336914 -739.01629639]
[-250.79907227 -749.82299805]
[-240.07160950 -760.30902100]
[-229.03083801 -770.46459961]
[-217.68695068 -780.28045654]
[-206.05038452 -789.74749756]
[-194.13186646 -798.85705566]
[-181.94238281 -807.60064697]
[-169.49313354 -815.97033691]
[-156.79562378 -823.95831299]
[-143.86152649 -831.55725098]
[-130.70277405 -838.76019287]
[-117.33148956 -845.56042480]
[-103.75997925 -851.95172119]
[-90.00074768 -857.92822266]
[-76.06647491 -863.48437500]
[-61.97000122 -868.61505127]
[-47.72430420 -873.31555176]
[-33.34251785 -877.58160400]
[-18.83788681 -881.40917969]
[-4.22377348 -884.79479980]
[10.48635769 -887.73535156]
[25.27895546 -890.22808838]
[40.14039230 -892.27075195]
[55.05697250 -893.86145020]
[70.01496124 -894.99865723]
[85.00057220 -895.68145752]
[100.00000000 -895.90911865]
[114.99942780 -895.68145752]
[129.98504639 -894.99865723]
[144.94302368 -893.86145020]
[159.85960388 -892.27075195]
[174.72103882 -890.22808838]
[189.51364136 -887.73535156]
[204.22377014 -884.79479980]
[218.83789062 -881.40917969]
[233.34251404 -877.58160400]
[247.72430420 -873.31555176]
[261.97000122 -868.61505127]
[276.06646729 -863.48437500]
[290.00073242 -857.92822266]
[303.75997925 -851.95172119]
[317.33148193 -845.56042480]
[330.70278931 -838.76019287]
[343.86154175 -831.55725098]
[356.79562378 -823.95831299]
[369.49313354 -815.97033691]
[381.94238281 -807.60064697]
[394.13186646 -798.85705566]
[406.05038452 -789.74749756]
[417.68695068 -780.28045654]
[429.03085327 -770.46459961]
[440.07159424 -760.30902100]
[450.79907227 -749.82299805]
[461.20336914 -739.01629639]
[471.27487183 -727.89874268]
[481.00436401 -716.48071289]
[490.38284302 -704.77264404]
[499.40164185 -692.78533936]
[508.05252075 -680.52984619]
[516.32745361 -668.01745605]
[524.21887207 -655.25964355]
[531.71942139 -642.26831055]
[538.82226562 -629.05523682]
[545.52087402 -615.63275146]
[551.80895996 -602.01312256]
[557.68084717 -588.20892334]
[563.13110352 -574.23291016]
[568.15466309 -560.09790039]
[572.74694824 -545.81689453]
[576.90368652 -531.40319824]
[580.62109375 -516.86993408]
[583.89575195 -502.23052979]
[586.72454834 -487.49850464]
[589.10498047 -472.68740845]
[591.03479004 -457.81091309]
[592.51220703 -442.88269043]
[593.53594971 -427.91650391]
[594.10498047 -412.92614746]
[594.21875000 -397.92541504]
[593.87731934 -382.92813110]
[593.08081055 -367.94815063]
[591.83007812 -352.99920654]
[590.12622070 -338.09512329]
[587.97082520 -323.24963379]
[585.36590576 -308.47637939]
[582.31384277 -293.78897095]
[578.81738281 -279.20098877]
[574.87988281 -264.72583008]
[570.50482178 -250.37681580]
[565.69635010 -236.16720581]
[560.45880127 -222.11007690]
[554.79705811 -208.21836853]
[548.71636963 -194.50489807]
[542.22222900 -180.98226929]
[535.32073975 -167.66297913]
[528.01812744 -154.55926514]
[520.32128906 -141.68321228]
[512.23712158 -129.04667664]
[503.77325439 -116.66131592]
[494.93737793 -104.53852844]
[485.73767090 -92.68949127]
[476.18255615 -81.12509918]
[466.28091431 -69.85603333]
[456.04180908 -58.89265442]
[445.47470093 -48.24507523]
[434.58932495 -37.92309952]
[423.39569092 -27.93623543]
[411.90414429 -18.29368782]
[400.12524414 -9.00433922]
[388.06982422 -0.07674544]
[375.74902344 8.48086739]
[363.17419434 16.66061592]
[350.35690308 24.45496368]
[337.30899048 31.85673141]
[324.04241943 38.85909653]
[310.56945801 45.45561600]
[296.90249634 51.64020157]
[283.05416870 57.40716553]
[269.03717041 62.75118637]
[254.86444092 67.66735077]
[240.54904175 72.15112305]
[226.10417175 76.19836426]
[211.54310608 79.80536652]
[196.87930298 82.96878815]
[182.12623596 85.68572235]
[167.29750061 87.95367432]
[152.40678406 89.77053833]
[137.46777344 91.13465118]
[122.49424744 92.04474640]
[107.50000000 92.50000000]
] def
/pairs [
] def

init

% switch off outline pairs or bases by removing these lines
drawoutline
drawpairs
drawbases
% Start Annotations

% End Annotations
% show it
showpage
end
%%EOF
