%!PS-Adobe-3.0 EPSF-3.0
%%Creator: ViennaRNA-2.5.1
%%CreationDate: Fri Oct 14 12:33:07 2022
%%Title: ViennaRNA Package - Alignment
%%BoundingBox: 0 0 498 117
%%DocumentFonts: Helvetica
%%Pages: 1
%%EndComments

% Program options: 

/ALNdict 100 dict def

ALNdict begin

%%BeginProlog

% draws Vienna RNA like colored boxes
/box { % x1 y1 x2 y2 hue saturation
  gsave
  dup 0.3 mul 1 exch sub sethsbcolor
  exch 3 index sub exch 2 index sub rectfill
  grestore
} def
% draws a box in current color
/box2 { % x1 y1 x2 y2
  exch 3 index sub exch 2 index sub rectfill
} def
/string { % (Text) x y
 6 add
 moveto
  show
} def

%%EndProlog

0 117 translate
1 -1 scale
/Courier findfont
[10 0 0 -10 0 0] makefont setfont
186.0 11.5 192.0 20.0 0.32 0.2 box
186.0 20.0 192.0 28.5 0.32 0.2 box
186.0 28.5 192.0 37.0 0.32 0.2 box
186.0 54.0 192.0 62.5 0.32 0.2 box
186.0 62.5 192.0 71.0 0.32 0.2 box
186.0 71.0 192.0 79.5 0.32 0.2 box
360.0 11.5 366.0 20.0 0.32 0.2 box
360.0 20.0 366.0 28.5 0.32 0.2 box
360.0 28.5 366.0 37.0 0.32 0.2 box
360.0 54.0 366.0 62.5 0.32 0.2 box
360.0 62.5 366.0 71.0 0.32 0.2 box
360.0 71.0 366.0 79.5 0.32 0.2 box
192.0 11.5 198.0 20.0 0.32 1 box
192.0 20.0 198.0 28.5 0.32 1 box
192.0 28.5 198.0 37.0 0.32 1 box
192.0 37.0 198.0 45.5 0.32 1 box
192.0 45.5 198.0 54.0 0.32 1 box
192.0 54.0 198.0 62.5 0.32 1 box
192.0 62.5 198.0 71.0 0.32 1 box
192.0 71.0 198.0 79.5 0.32 1 box
354.0 11.5 360.0 20.0 0.32 1 box
354.0 20.0 360.0 28.5 0.32 1 box
354.0 28.5 360.0 37.0 0.32 1 box
354.0 37.0 360.0 45.5 0.32 1 box
354.0 45.5 360.0 54.0 0.32 1 box
354.0 54.0 360.0 62.5 0.32 1 box
354.0 62.5 360.0 71.0 0.32 1 box
354.0 71.0 360.0 79.5 0.32 1 box
198.0 11.5 204.0 20.0 0.48 1 box
198.0 20.0 204.0 28.5 0.48 1 box
198.0 28.5 204.0 37.0 0.48 1 box
198.0 37.0 204.0 45.5 0.48 1 box
198.0 45.5 204.0 54.0 0.48 1 box
198.0 54.0 204.0 62.5 0.48 1 box
198.0 62.5 204.0 71.0 0.48 1 box
198.0 71.0 204.0 79.5 0.48 1 box
348.0 11.5 354.0 20.0 0.48 1 box
348.0 20.0 354.0 28.5 0.48 1 box
348.0 28.5 354.0 37.0 0.48 1 box
348.0 37.0 354.0 45.5 0.48 1 box
348.0 45.5 354.0 54.0 0.48 1 box
348.0 54.0 354.0 62.5 0.48 1 box
348.0 62.5 354.0 71.0 0.48 1 box
348.0 71.0 354.0 79.5 0.48 1 box
204.0 11.5 210.0 20.0 0.48 1 box
204.0 20.0 210.0 28.5 0.48 1 box
204.0 28.5 210.0 37.0 0.48 1 box
204.0 37.0 210.0 45.5 0.48 1 box
204.0 45.5 210.0 54.0 0.48 1 box
204.0 54.0 210.0 62.5 0.48 1 box
204.0 62.5 210.0 71.0 0.48 1 box
204.0 71.0 210.0 79.5 0.48 1 box
342.0 11.5 348.0 20.0 0.48 1 box
342.0 20.0 348.0 28.5 0.48 1 box
342.0 28.5 348.0 37.0 0.48 1 box
342.0 37.0 348.0 45.5 0.48 1 box
342.0 45.5 348.0 54.0 0.48 1 box
342.0 54.0 348.0 62.5 0.48 1 box
342.0 62.5 348.0 71.0 0.48 1 box
342.0 71.0 348.0 79.5 0.48 1 box
210.0 11.5 216.0 20.0 0.16 1 box
210.0 20.0 216.0 28.5 0.16 1 box
210.0 28.5 216.0 37.0 0.16 1 box
210.0 37.0 216.0 45.5 0.16 1 box
210.0 45.5 216.0 54.0 0.16 1 box
210.0 54.0 216.0 62.5 0.16 1 box
210.0 62.5 216.0 71.0 0.16 1 box
210.0 71.0 216.0 79.5 0.16 1 box
336.0 11.5 342.0 20.0 0.16 1 box
336.0 20.0 342.0 28.5 0.16 1 box
336.0 28.5 342.0 37.0 0.16 1 box
336.0 37.0 342.0 45.5 0.16 1 box
336.0 45.5 342.0 54.0 0.16 1 box
336.0 54.0 342.0 62.5 0.16 1 box
336.0 62.5 342.0 71.0 0.16 1 box
336.0 71.0 342.0 79.5 0.16 1 box
216.0 11.5 222.0 20.0 0.48 1 box
216.0 20.0 222.0 28.5 0.48 1 box
216.0 28.5 222.0 37.0 0.48 1 box
216.0 37.0 222.0 45.5 0.48 1 box
216.0 45.5 222.0 54.0 0.48 1 box
216.0 54.0 222.0 62.5 0.48 1 box
216.0 62.5 222.0 71.0 0.48 1 box
216.0 71.0 222.0 79.5 0.48 1 box
330.0 11.5 336.0 20.0 0.48 1 box
330.0 20.0 336.0 28.5 0.48 1 box
330.0 28.5 336.0 37.0 0.48 1 box
330.0 37.0 336.0 45.5 0.48 1 box
330.0 45.5 336.0 54.0 0.48 1 box
330.0 54.0 336.0 62.5 0.48 1 box
330.0 62.5 336.0 71.0 0.48 1 box
330.0 71.0 336.0 79.5 0.48 1 box
222.0 11.5 228.0 20.0 0.16 1 box
222.0 20.0 228.0 28.5 0.16 1 box
222.0 28.5 228.0 37.0 0.16 1 box
222.0 37.0 228.0 45.5 0.16 1 box
222.0 45.5 228.0 54.0 0.16 1 box
222.0 54.0 228.0 62.5 0.16 1 box
222.0 62.5 228.0 71.0 0.16 1 box
222.0 71.0 228.0 79.5 0.16 1 box
324.0 11.5 330.0 20.0 0.16 1 box
324.0 20.0 330.0 28.5 0.16 1 box
324.0 28.5 330.0 37.0 0.16 1 box
324.0 37.0 330.0 45.5 0.16 1 box
324.0 45.5 330.0 54.0 0.16 1 box
324.0 54.0 330.0 62.5 0.16 1 box
324.0 62.5 330.0 71.0 0.16 1 box
324.0 71.0 330.0 79.5 0.16 1 box
228.0 11.5 234.0 20.0 0.32 1 box
228.0 20.0 234.0 28.5 0.32 1 box
228.0 28.5 234.0 37.0 0.32 1 box
228.0 37.0 234.0 45.5 0.32 1 box
228.0 45.5 234.0 54.0 0.32 1 box
228.0 54.0 234.0 62.5 0.32 1 box
228.0 62.5 234.0 71.0 0.32 1 box
228.0 71.0 234.0 79.5 0.32 1 box
318.0 11.5 324.0 20.0 0.32 1 box
318.0 20.0 324.0 28.5 0.32 1 box
318.0 28.5 324.0 37.0 0.32 1 box
318.0 37.0 324.0 45.5 0.32 1 box
318.0 45.5 324.0 54.0 0.32 1 box
318.0 54.0 324.0 62.5 0.32 1 box
318.0 62.5 324.0 71.0 0.32 1 box
318.0 71.0 324.0 79.5 0.32 1 box
0 setgray
(\(\(\(\(\(\(\(\(\(............\)\)\)\)\)\)\)\)\)...............) 186.0 2.0 string
(NC_009633.1:3807659-3807922) 6.0 12.5 string
(CCUCUUCUGUUUU-------UCAGAAGGGGUUUUCUUACGAU-U-) 186.0 12.5 string
(36) 462.0 12.5 string
(NC_009633.1:4004322-4004549) 6.0 21.0 string
(CCUUUUCUCUCUU-------UGAGAAGAGGUUUUUUUAUUUG-G-) 186.0 21.0 string
(36) 462.0 21.0 string
(NC_014378.1:2165504-2165710) 6.0 29.5 string
(CCUCUUCUC--AU-------UGAGAAGAGGUUUUUUGAUUCU-A-) 186.0 29.5 string
(34) 462.0 29.5 string
(NC_014378.1:1544680-1544836) 6.0 38.0 string
(-UCUCUCC---UU-------CGGGAGGGGAUUUUUUAUUUUA-A-) 186.0 38.0 string
(32) 462.0 38.0 string
(NC_014378.1:2116527-2116739) 6.0 46.5 string
(-UCUUCUGCAUUU-------GGCAGAAGAGUUUUUUAAUUUA-A-) 186.0 46.5 string
(35) 462.0 46.5 string
(NC_009633.1:3432145-3432425) 6.0 55.0 string
(GCCGCUUCUUAUUAAUUUAAGAGAAGUGGCUUUUCCUAUAAGCA-) 186.0 55.0 string
(44) 462.0 55.0 string
(NC_016894.1:3267693-3267992) 6.0 63.5 string
(ACCUCGUC-GAA----------GACGAGGUUUUUCUUGUUUGUUU) 186.0 63.5 string
(34) 462.0 63.5 string
(NC_010163.1:1054985-1055146) 6.0 72.0 string
(ACGCCAUCAUGU----------GAUGGCGUCUUUCUUUUUGGUAG) 186.0 72.0 string
(35) 462.0 72.0 string
(.........10........20........30........40....) 186.0 82.5 string
0.6 setgray
186.0 105.9 192.0 110.5 box2
192.0 98.9 198.0 110.5 box2
198.0 103.5 204.0 110.5 box2
204.0 103.5 210.0 110.5 box2
210.0 103.5 216.0 110.5 box2
216.0 101.2 222.0 110.5 box2
222.0 103.5 228.0 110.5 box2
228.0 103.5 234.0 110.5 box2
234.0 105.9 240.0 110.5 box2
240.0 103.5 246.0 110.5 box2
246.0 109.5 252.0 110.5 box2
252.0 98.9 258.0 110.5 box2
258.0 98.9 264.0 110.5 box2
264.0 109.5 270.0 110.5 box2
270.0 109.5 276.0 110.5 box2
276.0 109.5 282.0 110.5 box2
282.0 109.5 288.0 110.5 box2
288.0 109.5 294.0 110.5 box2
294.0 109.5 300.0 110.5 box2
300.0 109.5 306.0 110.5 box2
306.0 105.9 312.0 110.5 box2
312.0 103.5 318.0 110.5 box2
318.0 103.5 324.0 110.5 box2
324.0 103.5 330.0 110.5 box2
330.0 101.2 336.0 110.5 box2
336.0 103.5 342.0 110.5 box2
342.0 101.2 348.0 110.5 box2
348.0 101.2 354.0 110.5 box2
354.0 96.6 360.0 110.5 box2
360.0 103.5 366.0 110.5 box2
366.0 96.6 372.0 110.5 box2
372.0 94.2 378.0 110.5 box2
378.0 94.2 384.0 110.5 box2
384.0 94.2 390.0 110.5 box2
390.0 103.5 396.0 110.5 box2
396.0 96.6 402.0 110.5 box2
402.0 101.2 408.0 110.5 box2
408.0 101.2 414.0 110.5 box2
414.0 96.6 420.0 110.5 box2
420.0 98.9 426.0 110.5 box2
426.0 103.5 432.0 110.5 box2
432.0 103.5 438.0 110.5 box2
438.0 109.5 444.0 110.5 box2
444.0 101.2 450.0 110.5 box2
450.0 109.5 456.0 110.5 box2
showpage
end
%%EOF
