%!PS-Adobe-3.0 EPSF-3.0
%%Creator: ViennaRNA-2.5.1
%%CreationDate: Sat Oct 15 00:28:09 2022
%%Title: RNA Secondary Structure Plot
%%BoundingBox: 0 0 700 700
%%DocumentFonts: Helvetica
%%Pages: 1
%%EndComments

% Program options: 

% To switch off outline pairs of sequence comment or
% delete the appropriate line near the end of the file

/RNAplot 100 dict def

RNAplot begin

%%BeginProlog

/fsize  14 def
/outlinecolor {0.2 setgray} bind def
/paircolor    {0.2 setgray} bind def
/seqcolor     {0   setgray} bind def
/cshow  { dup stringwidth pop -2 div fsize -3 div rmoveto show} bind def
/min { 2 copy gt { exch } if pop } bind def
/max { 2 copy lt { exch } if pop } bind def
/arccoords { % i j arccoords
  % puts optimal x1 y1 x2 y2 coordinates used in bezier curves from i to j
  % onto the stack
  dup 3 -1 roll dup 4 -1 roll lt dup dup 5 2 roll {exch} if
  dup 3 -1 roll dup 3 -1 roll exch sub 1 sub dup
  4 -2 roll 5 -1 roll {exch} if 4 2 roll
  sequence length dup 2 div exch 3 1 roll lt 
  {exch 5 -1 roll pop 4 -2 roll exch 4 2 roll}
  { 4 2 roll 5 -1 roll dup 6 1 roll {exch} if
    4 -2 roll exch pop dup 3 -1 roll dup 4 1 roll
    exch add 4 -1 roll dup 5 1 roll sub 1 sub
    5 -1 roll not {4 -2 roll exch 4 2 roll} if
  }ifelse
   % compute the scalingfactor and prepare (1-sf) and sf*r
  2 mul exch cpr 3 1 roll div dup
  3 -1 roll mul exch 1 exch sub exch
   % compute the coordinates
  3 -1 roll 1 sub coor exch get aload pop % get coord for i
  4 -1 roll dup 5 1 roll mul 3 -1 roll dup 4 1 roll add exch % calculate y1
  4 -1 roll dup 5 1 roll mul 3 -1 roll dup 4 1 roll add exch % calculate x1
  5 -1 roll 1 sub coor exch get aload pop % get coord for j
  % duplicate j coord
  dup 3 -1 roll dup 4 1 roll exch 8 2 roll
  6 -1 roll dup 7 1 roll mul 5 -1 roll dup 6 1 roll add exch % calculate y2
  6 -1 roll mul 5 -1 roll add exch % calculate x2
  6 -2 roll % reorder
} bind def
/drawoutline {
  gsave outlinecolor newpath
  coor 0 get aload pop 0.8 0 360 arc % draw 5' circle of 1st sequence
  currentdict /cutpoint known        % check if cutpoint is defined
  {coor 0 cutpoint getinterval
   {aload pop lineto} forall         % draw outline of 1st sequence
   coor cutpoint 1 add get aload pop
   2 copy moveto 0.8 0 360 arc       % draw 5' circle of 2nd sequence
   coor cutpoint 1 add coor length cutpoint 1 add sub getinterval
   {aload pop lineto} forall        % draw outline of 2nd sequence
     } {
        /i 0 def
        coor {
            /p coor i get def
            /a arcs i get def
            /l a length def
            l 0 eq {
                %% standard point... draw simple line
                p 0 2 getinterval aload pop lineto
            } {
                %% point in loop... draw arc around loop center
                /clockwise a 5 get def
                clockwise 0.0000000 gt {
                    a 0 5 getinterval aload pop arcn
                } {
                    a 0 5 getinterval aload pop arc
                } ifelse
            } ifelse
            /i i 1 add def
        } forall
    }
  ifelse
  stroke grestore
} bind def
/drawpairs {
  paircolor
  0.7 setlinewidth
  [9 3.01] 9 setdash
  newpath
  pairs {aload pop
      currentdict (cpr) known
      { exch dup
        coor  exch 1 sub get aload pop moveto
        exch arccoords curveto
      }
      { coor exch 1 sub get aload pop moveto
        coor exch 1 sub get aload pop lineto
      }ifelse
  } forall
  stroke
} bind def
% draw bases
/drawbases {
  [] 0 setdash
  seqcolor
  0
  coor {
    aload pop moveto
    dup sequence exch 1 getinterval cshow
    1 add
  } forall
  pop
} bind def
/init {
  /Helvetica findfont fsize scalefont setfont
  1 setlinejoin
  1 setlinecap
  0.8 setlinewidth
  % find the coordinate range
  /xmax -1000 def /xmin 10000 def
  /ymax -1000 def /ymin 10000 def
  coor {
      aload pop
      dup ymin lt {dup /ymin exch def} if
      dup ymax gt {/ymax exch def} {pop} ifelse
      dup xmin lt {dup /xmin exch def} if
      dup xmax gt {/xmax exch def} {pop} ifelse
  } forall
  /size {xmax xmin sub ymax ymin sub max} bind def
  /width {xmax xmin sub} bind def
  /height {ymax ymin sub} bind def
  10 10 translate
  680 size 10 add div dup scale
  size width sub width xmin sub xmax sub add 2 div 5 add
  size height sub height ymin sub ymax sub add 2 div 5 add
  translate
} bind def
% extra definitions for standard anotations
/min { 2 copy gt { exch } if pop } bind def
/BLACK { 0 0 0 } def
/RED   { 1 0 0 } def
/GREEN { 0 1 0 } def
/BLUE  { 0 0 1 } def
/WHITE { 1 1 1 } def
/LabelFont { % font size LabelFont
  exch findfont exch fsize mul scalefont setfont
} bind def
/Label { % i dx dy (text) Label
  % write text at base i plus offset dx, dy
  4 3 roll 1 sub coor exch get aload pop moveto
  3 1 roll fsize mul exch fsize mul exch rmoveto
  show
} bind def
/cmark { % i cmark   draw circle around base i
  newpath 1 sub coor exch get aload pop
  fsize 2 div 0 360 arc stroke
} bind def
/gmark { % i j c gmark
  % draw basepair i,j with c counter examples in gray
  gsave
  3 min [0 0.33 0.66 0.9] exch get setgray
  1 sub dup coor exch get aload pop moveto
  sequence exch 1 getinterval cshow
  1 sub dup coor exch get aload pop moveto
  sequence exch 1 getinterval cshow
  grestore
} bind def
/segmark { % f i j lw r g b segmark
  % mark segment [i,j] with outline width lw and color rgb
  % use omark and Fomark instead
  gsave
  setrgbcolor setlinewidth
  newpath
  1 sub exch 1 sub dup
  coor exch get aload pop moveto
  currentdict (cpr) known
  {
    3 -1 roll dup 4 1 roll dup
    {
      3 1 roll dup 3 -1 roll dup
      4 1 roll exch 5 2 roll exch
    }
    {
      3 1 roll exch
    } ifelse
    1 exch { coor exch get aload pop lineto } for
    {
      dup 3 1 roll 1 add exch 1 add arccoords pop pop
      4 2 roll 5 -1 roll coor exch get aload pop curveto
    } if
  }
  {
    exch 1 exch {
      coor exch get aload pop lineto
    } for
  } ifelse
  { closepath fill } if  stroke
  grestore
} bind def
/omark { % i j lw r g b omark
  % stroke segment [i..j] with linewidth lw, color rgb
  false 7 1 roll segmark
} bind def
/Fomark { % i j r g b Fomark
  % fill segment [i..j] with color rgb
  % should precede drawbases
  1 4 1 roll true 7 1 roll segmark
} bind def
/BFmark{ % i j k l r g b BFmark
  % fill block between pairs (i,j) and (k,l) with color rgb
  % should precede drawbases
  gsave
  setrgbcolor
  newpath
  currentdict (cpr) known
  {
    dup 1 sub coor exch get aload pop moveto % move to l
    dup 1 sub 4 -1 roll dup 5 1 roll 1 sub 1 exch
    { coor exch get aload pop lineto } for % lines from l to j
    3 -1 roll 4 -1 roll dup 5 1 roll arccoords curveto % curve from j to i
    exch dup 4 -1 roll 1 sub exch 1 sub 1 exch
    { coor exch get aload pop lineto } for % lines from i to k
    exch arccoords curveto% curve from k to l
  }
  {  exch 4 3 roll exch 1 sub exch 1 sub dup
     coor exch get aload pop moveto
     exch 1 exch { coor exch get aload pop lineto } for
     exch 1 sub exch 1 sub dup
     coor exch get aload pop lineto
     exch 1 exch { coor exch get aload pop lineto } for
  } ifelse
    closepath fill stroke
   grestore
} bind def
/hsb {
  dup 0.3 mul 1 exch sub sethsbcolor
} bind def
/colorpair { % i j hue sat colorpair
  % draw basepair i,j in color
  % 1 index 0.00 ne {
  gsave
  newpath
  hsb
  fsize setlinewidth
  currentdict (cpr) known
  {
    exch dup
    coor  exch 1 sub get aload pop moveto
    exch arccoords curveto
  }
  { 1 sub coor exch get aload pop moveto
    1 sub coor exch get aload pop lineto
  } ifelse
   stroke
   grestore
   % } if
} bind def

%%EndProlog

% data start here
/sequence { (\
NNVDNBDMKWNBBuSYUHHWYUBBM-u-ugy--u---uuc-c-Ymma----------aWBgchKWANHWUAAABHNRV\
) } def
/len { sequence length } bind def

/coor [
[92.50000000 92.50000000]
[77.54043579 91.29266357]
[62.72652435 88.88548279]
[48.15435410 85.29408264]
[33.91843033 80.54174805]
[20.11107254 74.65929413]
[6.82183409 67.68488312]
[-5.86310005 59.66373444]
[-17.86146164 50.64788055]
[-29.09543610 40.69578552]
[-39.49216461 29.87199974]
[-48.98421860 18.24671745]
[-57.51004410 5.89533472]
[-65.01433563 -7.10204506]
[-71.44844055 -20.66112709]
[-76.77061462 -34.69397354]
[-80.94634247 -49.10957336]
[-83.94855499 -63.81444168]
[-85.75777435 -78.71320343]
[-86.36225891 -93.70922852]
[-85.75810242 -108.70527649]
[-83.94921112 -123.60407257]
[-80.94732666 -138.30900574]
[-76.77191162 -152.72470093]
[-71.45005035 -166.75765991]
[-65.01625061 -180.31687927]
[-57.51223755 -193.31443787]
[-48.98668671 -205.66600037]
[-39.49488831 -217.29148865]
[-29.09839821 -228.11550903]
[-17.86464310 -238.06785583]
[-5.86648035 -247.08396912]
[6.81827688 -255.10539246]
[20.10736275 -262.08010864]
[33.91458893 -267.96286011]
[48.15040970 -272.71551514]
[62.72249985 -276.30722046]
[77.53635406 -278.71472168]
[92.49589539 -279.92239380]
[107.50410461 -279.92239380]
[122.46364594 -278.71472168]
[137.27749634 -276.30722046]
[151.84959412 -272.71551514]
[166.08541870 -267.96286011]
[179.89263916 -262.08010864]
[193.18171692 -255.10539246]
[205.86648560 -247.08396912]
[217.86463928 -238.06785583]
[229.09840393 -228.11550903]
[239.49488831 -217.29148865]
[248.98669434 -205.66600037]
[257.51223755 -193.31443787]
[265.01623535 -180.31687927]
[271.45004272 -166.75765991]
[276.77191162 -152.72470093]
[280.94732666 -138.30900574]
[283.94921875 -123.60407257]
[285.75808716 -108.70527649]
[286.36227417 -93.70922852]
[285.75778198 -78.71320343]
[283.94854736 -63.81444168]
[280.94635010 -49.10957336]
[276.77059937 -34.69397354]
[271.44842529 -20.66112709]
[265.01434326 -7.10204506]
[257.51004028 5.89533472]
[248.98422241 18.24671745]
[239.49215698 29.87199974]
[229.09542847 40.69578552]
[217.86146545 50.64788055]
[205.86309814 59.66373444]
[193.17816162 67.68488312]
[179.88893127 74.65929413]
[166.08157349 80.54174805]
[151.84564209 85.29408264]
[137.27346802 88.88548279]
[122.45956421 91.29266357]
[107.50000000 92.50000000]
] def
/arcs [
[]
[]
[]
[]
[]
[]
[]
[]
[]
[]
[]
[]
[]
[]
[]
[]
[]
[]
[]
[]
[]
[]
[]
[]
[]
[]
[]
[]
[]
[]
[]
[]
[]
[]
[]
[]
[]
[]
[]
[]
[]
[]
[]
[]
[]
[]
[]
[]
[]
[]
[]
[]
[]
[]
[]
[]
[]
[]
[]
[]
[]
[]
[]
[]
[]
[]
[]
[]
[]
[]
[]
[]
[]
[]
[]
[]
[]
[]
] def
/pairs [
] def

init

% Start Annotations

% End Annotations
% switch off outline pairs or bases by removing these lines
drawoutline
drawpairs
drawbases
% Start Annotations

% End Annotations
showpage
end
%%EOF
