%!PS-Adobe-3.0 EPSF-3.0
%%Creator: ViennaRNA-2.5.0
%%CreationDate: Mon Feb 21 20:48:19 2022
%%Title: RNA Secondary Structure Plot
%%BoundingBox: 0 0 700 700
%%DocumentFonts: Helvetica
%%Pages: 1
%%EndComments

% Program options: 

% To switch off outline pairs of sequence comment or
% delete the appropriate line near the end of the file

/RNAplot 100 dict def

RNAplot begin

%%BeginProlog

/fsize  14 def
/outlinecolor {0.2 setgray} bind def
/paircolor    {0.2 setgray} bind def
/seqcolor     {0   setgray} bind def
/cshow  { dup stringwidth pop -2 div fsize -3 div rmoveto show} bind def
/min { 2 copy gt { exch } if pop } bind def
/max { 2 copy lt { exch } if pop } bind def
/arccoords { % i j arccoords
  % puts optimal x1 y1 x2 y2 coordinates used in bezier curves from i to j
  % onto the stack
  dup 3 -1 roll dup 4 -1 roll lt dup dup 5 2 roll {exch} if
  dup 3 -1 roll dup 3 -1 roll exch sub 1 sub dup
  4 -2 roll 5 -1 roll {exch} if 4 2 roll
  sequence length dup 2 div exch 3 1 roll lt 
  {exch 5 -1 roll pop 4 -2 roll exch 4 2 roll}
  { 4 2 roll 5 -1 roll dup 6 1 roll {exch} if
    4 -2 roll exch pop dup 3 -1 roll dup 4 1 roll
    exch add 4 -1 roll dup 5 1 roll sub 1 sub
    5 -1 roll not {4 -2 roll exch 4 2 roll} if
  }ifelse
   % compute the scalingfactor and prepare (1-sf) and sf*r
  2 mul exch cpr 3 1 roll div dup
  3 -1 roll mul exch 1 exch sub exch
   % compute the coordinates
  3 -1 roll 1 sub coor exch get aload pop % get coord for i
  4 -1 roll dup 5 1 roll mul 3 -1 roll dup 4 1 roll add exch % calculate y1
  4 -1 roll dup 5 1 roll mul 3 -1 roll dup 4 1 roll add exch % calculate x1
  5 -1 roll 1 sub coor exch get aload pop % get coord for j
  % duplicate j coord
  dup 3 -1 roll dup 4 1 roll exch 8 2 roll
  6 -1 roll dup 7 1 roll mul 5 -1 roll dup 6 1 roll add exch % calculate y2
  6 -1 roll mul 5 -1 roll add exch % calculate x2
  6 -2 roll % reorder
} bind def
/drawoutline {
  gsave outlinecolor newpath
  coor 0 get aload pop 0.8 0 360 arc % draw 5' circle of 1st sequence
  currentdict /cutpoint known        % check if cutpoint is defined
  {coor 0 cutpoint getinterval
   {aload pop lineto} forall         % draw outline of 1st sequence
   coor cutpoint 1 add get aload pop
   2 copy moveto 0.8 0 360 arc       % draw 5' circle of 2nd sequence
   coor cutpoint 1 add coor length cutpoint 1 add sub getinterval
   {aload pop lineto} forall        % draw outline of 2nd sequence
     } {
        /i 0 def
        coor {
            /p coor i get def
            /a arcs i get def
            /l a length def
            l 0 eq {
                %% standard point... draw simple line
                p 0 2 getinterval aload pop lineto
            } {
                %% point in loop... draw arc around loop center
                /clockwise a 5 get def
                clockwise 0.0000000 gt {
                    a 0 5 getinterval aload pop arcn
                } {
                    a 0 5 getinterval aload pop arc
                } ifelse
            } ifelse
            /i i 1 add def
        } forall
    }
  ifelse
  stroke grestore
} bind def
/drawpairs {
  paircolor
  0.7 setlinewidth
  [9 3.01] 9 setdash
  newpath
  pairs {aload pop
      currentdict (cpr) known
      { exch dup
        coor  exch 1 sub get aload pop moveto
        exch arccoords curveto
      }
      { coor exch 1 sub get aload pop moveto
        coor exch 1 sub get aload pop lineto
      }ifelse
  } forall
  stroke
} bind def
% draw bases
/drawbases {
  [] 0 setdash
  seqcolor
  0
  coor {
    aload pop moveto
    dup sequence exch 1 getinterval cshow
    1 add
  } forall
  pop
} bind def
/init {
  /Helvetica findfont fsize scalefont setfont
  1 setlinejoin
  1 setlinecap
  0.8 setlinewidth
  % find the coordinate range
  /xmax -1000 def /xmin 10000 def
  /ymax -1000 def /ymin 10000 def
  coor {
      aload pop
      dup ymin lt {dup /ymin exch def} if
      dup ymax gt {/ymax exch def} {pop} ifelse
      dup xmin lt {dup /xmin exch def} if
      dup xmax gt {/xmax exch def} {pop} ifelse
  } forall
  /size {xmax xmin sub ymax ymin sub max} bind def
  /width {xmax xmin sub} bind def
  /height {ymax ymin sub} bind def
  10 10 translate
  680 size 10 add div dup scale
  size width sub width xmin sub xmax sub add 2 div 5 add
  size height sub height ymin sub ymax sub add 2 div 5 add
  translate
} bind def
% extra definitions for standard anotations
/min { 2 copy gt { exch } if pop } bind def
/BLACK { 0 0 0 } def
/RED   { 1 0 0 } def
/GREEN { 0 1 0 } def
/BLUE  { 0 0 1 } def
/WHITE { 1 1 1 } def
/LabelFont { % font size LabelFont
  exch findfont exch fsize mul scalefont setfont
} bind def
/Label { % i dx dy (text) Label
  % write text at base i plus offset dx, dy
  4 3 roll 1 sub coor exch get aload pop moveto
  3 1 roll fsize mul exch fsize mul exch rmoveto
  show
} bind def
/cmark { % i cmark   draw circle around base i
  newpath 1 sub coor exch get aload pop
  fsize 2 div 0 360 arc stroke
} bind def
/gmark { % i j c gmark
  % draw basepair i,j with c counter examples in gray
  gsave
  3 min [0 0.33 0.66 0.9] exch get setgray
  1 sub dup coor exch get aload pop moveto
  sequence exch 1 getinterval cshow
  1 sub dup coor exch get aload pop moveto
  sequence exch 1 getinterval cshow
  grestore
} bind def
/segmark { % f i j lw r g b segmark
  % mark segment [i,j] with outline width lw and color rgb
  % use omark and Fomark instead
  gsave
  setrgbcolor setlinewidth
  newpath
  1 sub exch 1 sub dup
  coor exch get aload pop moveto
  currentdict (cpr) known
  {
    3 -1 roll dup 4 1 roll dup
    {
      3 1 roll dup 3 -1 roll dup
      4 1 roll exch 5 2 roll exch
    }
    {
      3 1 roll exch
    } ifelse
    1 exch { coor exch get aload pop lineto } for
    {
      dup 3 1 roll 1 add exch 1 add arccoords pop pop
      4 2 roll 5 -1 roll coor exch get aload pop curveto
    } if
  }
  {
    exch 1 exch {
      coor exch get aload pop lineto
    } for
  } ifelse
  { closepath fill } if  stroke
  grestore
} bind def
/omark { % i j lw r g b omark
  % stroke segment [i..j] with linewidth lw, color rgb
  false 7 1 roll segmark
} bind def
/Fomark { % i j r g b Fomark
  % fill segment [i..j] with color rgb
  % should precede drawbases
  1 4 1 roll true 7 1 roll segmark
} bind def
/BFmark{ % i j k l r g b BFmark
  % fill block between pairs (i,j) and (k,l) with color rgb
  % should precede drawbases
  gsave
  setrgbcolor
  newpath
  currentdict (cpr) known
  {
    dup 1 sub coor exch get aload pop moveto % move to l
    dup 1 sub 4 -1 roll dup 5 1 roll 1 sub 1 exch
    { coor exch get aload pop lineto } for % lines from l to j
    3 -1 roll 4 -1 roll dup 5 1 roll arccoords curveto % curve from j to i
    exch dup 4 -1 roll 1 sub exch 1 sub 1 exch
    { coor exch get aload pop lineto } for % lines from i to k
    exch arccoords curveto% curve from k to l
  }
  {  exch 4 3 roll exch 1 sub exch 1 sub dup
     coor exch get aload pop moveto
     exch 1 exch { coor exch get aload pop lineto } for
     exch 1 sub exch 1 sub dup
     coor exch get aload pop lineto
     exch 1 exch { coor exch get aload pop lineto } for
  } ifelse
    closepath fill stroke
   grestore
} bind def
/hsb {
  dup 0.3 mul 1 exch sub sethsbcolor
} bind def
/colorpair { % i j hue sat colorpair
  % draw basepair i,j in color
  % 1 index 0.00 ne {
  gsave
  newpath
  hsb
  fsize setlinewidth
  currentdict (cpr) known
  {
    exch dup
    coor  exch 1 sub get aload pop moveto
    exch arccoords curveto
  }
  { 1 sub coor exch get aload pop moveto
    1 sub coor exch get aload pop lineto
  } ifelse
   stroke
   grestore
   % } if
} bind def

%%EndProlog

% data start here
/sequence { (\
G-RVMG-AURAGRGRRRaRRRKMWKy---u-u-------ukmc--gc---uWW----HguauMYWyYraawaccYYYYYYYMYYYYYYUCUaUyggR\
) } def
/len { sequence length } bind def

/coor [
[92.50000000 92.50000000]
[77.52616119 91.52887726]
[62.64658737 89.59053040]
[47.92368698 86.69309998]
[33.41921616 82.84873199]
[19.19400787 78.07354736]
[5.30773067 72.38757324]
[-8.18137074 65.81467438]
[-21.21671867 58.38240433]
[-33.74363708 50.12194443]
[-45.70958328 41.06793976]
[-57.06437302 31.25836563]
[-67.76036835 20.73436928]
[-77.75271606 9.54008961]
[-86.99950409 -2.27751732]
[-95.46194458 -14.66888618]
[-103.10454559 -27.58204269]
[-109.89524841 -40.96282196]
[-115.80556488 -54.75510406]
[-120.81072235 -68.90103149]
[-124.88970947 -83.34128571]
[-128.02542114 -98.01528168]
[-130.20471191 -112.86148071]
[-131.41844177 -127.81760406]
[-131.66149902 -142.82093811]
[-130.93289185 -157.80853271]
[-129.23567200 -172.71752930]
[-126.57694244 -187.48539734]
[-122.96786499 -202.05020142]
[-118.42357635 -216.35084534]
[-112.96313477 -230.32734680]
[-106.60944366 -243.92108154]
[-99.38916016 -257.07504272]
[-91.33255768 -269.73400879]
[-82.47344208 -281.84497070]
[-72.84895325 -293.35705566]
[-62.49947739 -304.22201538]
[-51.46841812 -314.39425659]
[-39.80204010 -323.83111572]
[-27.54928017 -332.49304199]
[-14.76152992 -340.34365845]
[-1.49242640 -347.35006714]
[12.20237446 -353.48287964]
[26.26543236 -358.71636963]
[40.63776016 -363.02856445]
[55.25907516 -366.40139771]
[70.06805420 -368.82073975]
[85.00257111 -370.27639771]
[100.00000000 -370.76229858]
[114.99742889 -370.27639771]
[129.93194580 -368.82073975]
[144.74092102 -366.40139771]
[159.36224365 -363.02856445]
[173.73457336 -358.71636963]
[187.79762268 -353.48287964]
[201.49243164 -347.35006714]
[214.76153564 -340.34365845]
[227.54928589 -332.49304199]
[239.80203247 -323.83111572]
[251.46841431 -314.39425659]
[262.49948120 -304.22201538]
[272.84896851 -293.35705566]
[282.47344971 -281.84497070]
[291.33255005 -269.73400879]
[299.38916016 -257.07504272]
[306.60943604 -243.92108154]
[312.96313477 -230.32734680]
[318.42358398 -216.35084534]
[322.96786499 -202.05020142]
[326.57693481 -187.48539734]
[329.23565674 -172.71752930]
[330.93289185 -157.80853271]
[331.66149902 -142.82093811]
[331.41842651 -127.81760406]
[330.20471191 -112.86148071]
[328.02542114 -98.01528168]
[324.88970947 -83.34128571]
[320.81072998 -68.90103149]
[315.80557251 -54.75510406]
[309.89523315 -40.96282196]
[303.10455322 -27.58204269]
[295.46194458 -14.66888618]
[286.99951172 -2.27751732]
[277.75271606 9.54008961]
[267.76037598 20.73436928]
[257.06436157 31.25836563]
[245.70957947 41.06793976]
[233.74363708 50.12194443]
[221.21672058 58.38240433]
[208.18136597 65.81467438]
[194.69227600 72.38757324]
[180.80599976 78.07354736]
[166.58078003 82.84873199]
[152.07630920 86.69309998]
[137.35340881 89.59053040]
[122.47383881 91.52887726]
[107.50000000 92.50000000]
] def
/arcs [
[]
[]
[]
[]
[]
[]
[]
[]
[]
[]
[]
[]
[]
[]
[]
[]
[]
[]
[]
[]
[]
[]
[]
[]
[]
[]
[]
[]
[]
[]
[]
[]
[]
[]
[]
[]
[]
[]
[]
[]
[]
[]
[]
[]
[]
[]
[]
[]
[]
[]
[]
[]
[]
[]
[]
[]
[]
[]
[]
[]
[]
[]
[]
[]
[]
[]
[]
[]
[]
[]
[]
[]
[]
[]
[]
[]
[]
[]
[]
[]
[]
[]
[]
[]
[]
[]
[]
[]
[]
[]
[]
[]
[]
[]
[]
[]
[]
] def
/pairs [
] def

init

% Start Annotations

% End Annotations
% switch off outline pairs or bases by removing these lines
drawoutline
drawpairs
drawbases
% Start Annotations

% End Annotations
showpage
end
%%EOF
