%!PS-Adobe-3.0 EPSF-3.0
%%Creator: ViennaRNA-2.5.0
%%CreationDate: Mon Feb 21 00:57:05 2022
%%Title: RNA Secondary Structure Plot
%%BoundingBox: 0 0 700 700
%%DocumentFonts: Helvetica
%%Pages: 1
%%EndComments

% Program options: 

% To switch off outline pairs of sequence comment or
% delete the appropriate line near the end of the file

/RNAplot 100 dict def

RNAplot begin

%%BeginProlog

/fsize  14 def
/outlinecolor {0.2 setgray} bind def
/paircolor    {0.2 setgray} bind def
/seqcolor     {0   setgray} bind def
/cshow  { dup stringwidth pop -2 div fsize -3 div rmoveto show} bind def
/min { 2 copy gt { exch } if pop } bind def
/max { 2 copy lt { exch } if pop } bind def
/arccoords { % i j arccoords
  % puts optimal x1 y1 x2 y2 coordinates used in bezier curves from i to j
  % onto the stack
  dup 3 -1 roll dup 4 -1 roll lt dup dup 5 2 roll {exch} if
  dup 3 -1 roll dup 3 -1 roll exch sub 1 sub dup
  4 -2 roll 5 -1 roll {exch} if 4 2 roll
  sequence length dup 2 div exch 3 1 roll lt 
  {exch 5 -1 roll pop 4 -2 roll exch 4 2 roll}
  { 4 2 roll 5 -1 roll dup 6 1 roll {exch} if
    4 -2 roll exch pop dup 3 -1 roll dup 4 1 roll
    exch add 4 -1 roll dup 5 1 roll sub 1 sub
    5 -1 roll not {4 -2 roll exch 4 2 roll} if
  }ifelse
   % compute the scalingfactor and prepare (1-sf) and sf*r
  2 mul exch cpr 3 1 roll div dup
  3 -1 roll mul exch 1 exch sub exch
   % compute the coordinates
  3 -1 roll 1 sub coor exch get aload pop % get coord for i
  4 -1 roll dup 5 1 roll mul 3 -1 roll dup 4 1 roll add exch % calculate y1
  4 -1 roll dup 5 1 roll mul 3 -1 roll dup 4 1 roll add exch % calculate x1
  5 -1 roll 1 sub coor exch get aload pop % get coord for j
  % duplicate j coord
  dup 3 -1 roll dup 4 1 roll exch 8 2 roll
  6 -1 roll dup 7 1 roll mul 5 -1 roll dup 6 1 roll add exch % calculate y2
  6 -1 roll mul 5 -1 roll add exch % calculate x2
  6 -2 roll % reorder
} bind def
/drawoutline {
  gsave outlinecolor newpath
  coor 0 get aload pop 0.8 0 360 arc % draw 5' circle of 1st sequence
  currentdict /cutpoint known        % check if cutpoint is defined
  {coor 0 cutpoint getinterval
   {aload pop lineto} forall         % draw outline of 1st sequence
   coor cutpoint 1 add get aload pop
   2 copy moveto 0.8 0 360 arc       % draw 5' circle of 2nd sequence
   coor cutpoint 1 add coor length cutpoint 1 add sub getinterval
   {aload pop lineto} forall        % draw outline of 2nd sequence
     } {
        /i 0 def
        coor {
            /p coor i get def
            /a arcs i get def
            /l a length def
            l 0 eq {
                %% standard point... draw simple line
                p 0 2 getinterval aload pop lineto
            } {
                %% point in loop... draw arc around loop center
                /clockwise a 5 get def
                clockwise 0.0000000 gt {
                    a 0 5 getinterval aload pop arcn
                } {
                    a 0 5 getinterval aload pop arc
                } ifelse
            } ifelse
            /i i 1 add def
        } forall
    }
  ifelse
  stroke grestore
} bind def
/drawpairs {
  paircolor
  0.7 setlinewidth
  [9 3.01] 9 setdash
  newpath
  pairs {aload pop
      currentdict (cpr) known
      { exch dup
        coor  exch 1 sub get aload pop moveto
        exch arccoords curveto
      }
      { coor exch 1 sub get aload pop moveto
        coor exch 1 sub get aload pop lineto
      }ifelse
  } forall
  stroke
} bind def
% draw bases
/drawbases {
  [] 0 setdash
  seqcolor
  0
  coor {
    aload pop moveto
    dup sequence exch 1 getinterval cshow
    1 add
  } forall
  pop
} bind def
/init {
  /Helvetica findfont fsize scalefont setfont
  1 setlinejoin
  1 setlinecap
  0.8 setlinewidth
  % find the coordinate range
  /xmax -1000 def /xmin 10000 def
  /ymax -1000 def /ymin 10000 def
  coor {
      aload pop
      dup ymin lt {dup /ymin exch def} if
      dup ymax gt {/ymax exch def} {pop} ifelse
      dup xmin lt {dup /xmin exch def} if
      dup xmax gt {/xmax exch def} {pop} ifelse
  } forall
  /size {xmax xmin sub ymax ymin sub max} bind def
  /width {xmax xmin sub} bind def
  /height {ymax ymin sub} bind def
  10 10 translate
  680 size 10 add div dup scale
  size width sub width xmin sub xmax sub add 2 div 5 add
  size height sub height ymin sub ymax sub add 2 div 5 add
  translate
} bind def
% extra definitions for standard anotations
/min { 2 copy gt { exch } if pop } bind def
/BLACK { 0 0 0 } def
/RED   { 1 0 0 } def
/GREEN { 0 1 0 } def
/BLUE  { 0 0 1 } def
/WHITE { 1 1 1 } def
/LabelFont { % font size LabelFont
  exch findfont exch fsize mul scalefont setfont
} bind def
/Label { % i dx dy (text) Label
  % write text at base i plus offset dx, dy
  4 3 roll 1 sub coor exch get aload pop moveto
  3 1 roll fsize mul exch fsize mul exch rmoveto
  show
} bind def
/cmark { % i cmark   draw circle around base i
  newpath 1 sub coor exch get aload pop
  fsize 2 div 0 360 arc stroke
} bind def
/gmark { % i j c gmark
  % draw basepair i,j with c counter examples in gray
  gsave
  3 min [0 0.33 0.66 0.9] exch get setgray
  1 sub dup coor exch get aload pop moveto
  sequence exch 1 getinterval cshow
  1 sub dup coor exch get aload pop moveto
  sequence exch 1 getinterval cshow
  grestore
} bind def
/segmark { % f i j lw r g b segmark
  % mark segment [i,j] with outline width lw and color rgb
  % use omark and Fomark instead
  gsave
  setrgbcolor setlinewidth
  newpath
  1 sub exch 1 sub dup
  coor exch get aload pop moveto
  currentdict (cpr) known
  {
    3 -1 roll dup 4 1 roll dup
    {
      3 1 roll dup 3 -1 roll dup
      4 1 roll exch 5 2 roll exch
    }
    {
      3 1 roll exch
    } ifelse
    1 exch { coor exch get aload pop lineto } for
    {
      dup 3 1 roll 1 add exch 1 add arccoords pop pop
      4 2 roll 5 -1 roll coor exch get aload pop curveto
    } if
  }
  {
    exch 1 exch {
      coor exch get aload pop lineto
    } for
  } ifelse
  { closepath fill } if  stroke
  grestore
} bind def
/omark { % i j lw r g b omark
  % stroke segment [i..j] with linewidth lw, color rgb
  false 7 1 roll segmark
} bind def
/Fomark { % i j r g b Fomark
  % fill segment [i..j] with color rgb
  % should precede drawbases
  1 4 1 roll true 7 1 roll segmark
} bind def
/BFmark{ % i j k l r g b BFmark
  % fill block between pairs (i,j) and (k,l) with color rgb
  % should precede drawbases
  gsave
  setrgbcolor
  newpath
  currentdict (cpr) known
  {
    dup 1 sub coor exch get aload pop moveto % move to l
    dup 1 sub 4 -1 roll dup 5 1 roll 1 sub 1 exch
    { coor exch get aload pop lineto } for % lines from l to j
    3 -1 roll 4 -1 roll dup 5 1 roll arccoords curveto % curve from j to i
    exch dup 4 -1 roll 1 sub exch 1 sub 1 exch
    { coor exch get aload pop lineto } for % lines from i to k
    exch arccoords curveto% curve from k to l
  }
  {  exch 4 3 roll exch 1 sub exch 1 sub dup
     coor exch get aload pop moveto
     exch 1 exch { coor exch get aload pop lineto } for
     exch 1 sub exch 1 sub dup
     coor exch get aload pop lineto
     exch 1 exch { coor exch get aload pop lineto } for
  } ifelse
    closepath fill stroke
   grestore
} bind def
/hsb {
  dup 0.3 mul 1 exch sub sethsbcolor
} bind def
/colorpair { % i j hue sat colorpair
  % draw basepair i,j in color
  % 1 index 0.00 ne {
  gsave
  newpath
  hsb
  fsize setlinewidth
  currentdict (cpr) known
  {
    exch dup
    coor  exch 1 sub get aload pop moveto
    exch arccoords curveto
  }
  { 1 sub coor exch get aload pop moveto
    1 sub coor exch get aload pop lineto
  } ifelse
   stroke
   grestore
   % } if
} bind def

%%EndProlog

% data start here
/sequence { (\
----------------------c-ccu------------uc--mSCYYYBYB-YY-------H--a-Nagc----NMBuyg---g-g-u----rv-aa-RRRVRRRRRRVrgDBYUUUUHDDWDNNNNN\
) } def
/len { sequence length } bind def

/coor [
[24.68065453 459.07528687]
[10.92745399 465.08978271]
[-3.32202911 469.80960083]
[-17.94622231 473.19451904]
[-32.82035065 475.21563721]
[-47.81751633 475.85568237]
[-62.80976486 475.10925293]
[-77.66918182 472.98266602]
[-92.26898956 469.49407959]
[-106.48462677 464.67324829]
[-120.19480896 458.56134033]
[-133.28256226 451.21044922]
[-145.63621521 442.68334961]
[-157.15039062 433.05273438]
[-167.72683716 422.40081787]
[-177.27531433 410.81845093]
[-185.71435547 398.40444946]
[-192.97196960 385.26477051]
[-198.98623657 371.51144409]
[-203.70584106 357.26190186]
[-207.09051514 342.63763428]
[-209.11137390 327.76348877]
[-209.75117493 312.76629639]
[-209.00448608 297.77407837]
[-206.87765503 282.91470337]
[-203.38882446 268.31494141]
[-198.56776428 254.09938049]
[-192.45561218 240.38929749]
[-185.10452271 227.30166626]
[-176.57719421 214.94815063]
[-166.94641113 203.43414307]
[-156.29429626 192.85787964]
[-144.71177673 183.30960083]
[-132.29765320 174.87075806]
[-119.15782928 167.61335754]
[-105.40442657 161.59931946]
[-91.15478516 156.87995911]
[-76.53048706 153.49552917]
[-61.65628433 151.47491455]
[-46.65909958 150.83535767]
[-31.66687775 151.58230591]
[-16.80753136 153.70938110]
[-2.20783830 157.19845581]
[12.00763893 162.01974487]
[25.71761703 168.13212585]
[38.80512619 175.48344421]
[47.32609558 163.13868713]
[55.84706497 150.79393005]
[64.36803436 138.44917297]
[72.88900757 126.10440826]
[81.40998077 113.75965118]
[89.93095398 101.41489410]
[91.58060455 93.43460846]
[98.80995941 88.87818146]
[87.88569641 78.56854248]
[78.36952972 66.94654083]
[70.41772461 54.20302582]
[64.16086578 40.54726028]
[59.70167923 26.20347977]
[57.11339951 11.40722466]
[56.43852997 -3.59853697]
[57.68814850 -18.56739807]
[60.84173965 -33.25355530]
[65.84751129 -47.41584778]
[72.62326813 -60.82172012]
[81.05775452 -73.25103760]
[91.01245117 -84.49969482]
[102.32390594 -94.38297272]
[114.80637360 -102.73859406]
[128.25486755 -109.42934418]
[142.44857788 -114.34535980]
[157.15440369 -117.40590668]
[172.13087463 -118.56072998]
[187.13206482 -117.79087067]
[201.91163635 -115.10897064]
[216.22689819 -110.55906677]
[229.84277344 -104.21587372]
[242.53569031 -96.18354797]
[254.09721375 -86.59399414]
[264.33749390 -75.60467529]
[273.08834839 -63.39604950]
[280.20614624 -50.16859436]
[285.57394409 -36.13951874]
[289.10360718 -21.53918648]
[290.73721313 -6.60735130]
[290.44790649 8.41079140]
[288.24044800 23.26863289]
[284.15106201 37.72219086]
[278.24694824 51.53412628]
[270.62500000 64.47763824]
[261.41043091 76.34017181]
[250.75450134 86.92694092]
[238.83222961 96.06410980]
[225.83937073 103.60162354]
[211.98930359 109.41571045]
[197.50942993 113.41090393]
[182.63752747 115.52159882]
[167.61781311 115.71313477]
[152.69692993 113.98236847]
[138.11988831 110.35771942]
[124.12605286 104.89870453]
[110.94522095 97.69496155]
[102.27571106 109.93585968]
[93.75473785 122.28062439]
[85.23376465 134.62538147]
[76.71279907 146.97013855]
[68.19182587 159.31489563]
[59.67085266 171.65965271]
[51.14988327 184.00440979]
[62.66437149 193.63462830]
[73.24117279 204.28620911]
[82.79003143 215.86825562]
[91.22949219 228.28196716]
[98.48754883 241.42141724]
[104.50227356 255.17451477]
[109.22234344 269.42391968]
[112.60750580 284.04806519]
[114.62886047 298.92214966]
[115.26917267 313.91931152]
[114.52297211 328.91156006]
[112.39662933 343.77102661]
[108.90828705 358.37088013]
[104.08770752 372.58660889]
[97.97602081 386.29687500]
[90.62535858 399.38476562]
[82.09844971 411.73855591]
[72.46804047 423.25289917]
[61.81628799 433.82952881]
[50.23407745 443.37817383]
] def
/arcs [
[]
[]
[]
[]
[]
[]
[]
[]
[]
[]
[]
[]
[]
[]
[]
[]
[]
[]
[]
[]
[]
[]
[]
[]
[]
[]
[]
[]
[]
[]
[]
[]
[]
[]
[]
[]
[]
[]
[]
[]
[]
[]
[]
[]
[]
[]
[]
[]
[]
[]
[]
[]
[]
[]
[]
[]
[]
[]
[]
[]
[]
[]
[]
[]
[]
[]
[]
[]
[]
[]
[]
[]
[]
[]
[]
[]
[]
[]
[]
[]
[]
[]
[]
[]
[]
[]
[]
[]
[]
[]
[]
[]
[]
[]
[]
[]
[]
[]
[]
[]
[]
[]
[]
[]
[]
[]
[]
[]
[]
[]
[]
[]
[]
[]
[]
[]
[]
[]
[]
[]
[]
[]
[]
[]
[]
[]
[]
[]
[]
] def
/pairs [
[46 109]
[47 108]
[48 107]
[49 106]
[50 105]
[51 104]
[52 103]
[54 102]
] def

init

% Start Annotations

% End Annotations
% switch off outline pairs or bases by removing these lines
drawoutline
drawpairs
drawbases
% Start Annotations
46 109 413 gmark
46 cmark
109 cmark
47 108 352 gmark
47 cmark
108 cmark
48 107 215 gmark
48 cmark
107 cmark
49 106 153 gmark
49 cmark
106 cmark
50 105 248 gmark
50 cmark
105 cmark
51 104 250 gmark
51 cmark
104 cmark
52 103 295 gmark
52 cmark
103 cmark
54 102 346 gmark
54 cmark
102 cmark

% End Annotations
showpage
end
%%EOF
