%!PS-Adobe-3.0 EPSF-3.0
%%Creator: ViennaRNA-2.3.3
%%CreationDate: Tue Feb 15 16:07:32 2022
%%Title: RNA Secondary Structure Plot
%%BoundingBox: 0 0 700 700
%%DocumentFonts: Helvetica
%%Pages: 1
%%EndComments

%Options: 
% to switch off outline pairs of sequence comment or
% delete the appropriate line near the end of the file

%%BeginProlog
/RNAplot 100 dict def
RNAplot begin
/fsize  14 def
/outlinecolor {0.2 setgray} bind def
/paircolor    {0.2 setgray} bind def
/seqcolor     {0   setgray} bind def
/cshow  { dup stringwidth pop -2 div fsize -3 div rmoveto show} bind def
/min { 2 copy gt { exch } if pop } bind def
/max { 2 copy lt { exch } if pop } bind def
/arccoords { % i j arccoords
  % puts optimal x1 y1 x2 y2 coordinates used in bezier curves from i to j
  % onto the stack
  dup 3 -1 roll dup 4 -1 roll lt dup dup 5 2 roll {exch} if
  dup 3 -1 roll dup 3 -1 roll exch sub 1 sub dup
  4 -2 roll 5 -1 roll {exch} if 4 2 roll
  sequence length dup 2 div exch 3 1 roll lt 
  {exch 5 -1 roll pop 4 -2 roll exch 4 2 roll}
  { 4 2 roll 5 -1 roll dup 6 1 roll {exch} if
    4 -2 roll exch pop dup 3 -1 roll dup 4 1 roll
    exch add 4 -1 roll dup 5 1 roll sub 1 sub
    5 -1 roll not {4 -2 roll exch 4 2 roll} if
  }ifelse
   % compute the scalingfactor and prepare (1-sf) and sf*r
  2 mul exch cpr 3 1 roll div dup
  3 -1 roll mul exch 1 exch sub exch
   % compute the coordinates
  3 -1 roll 1 sub coor exch get aload pop % get coord for i
  4 -1 roll dup 5 1 roll mul 3 -1 roll dup 4 1 roll add exch % calculate y1
  4 -1 roll dup 5 1 roll mul 3 -1 roll dup 4 1 roll add exch % calculate x1
  5 -1 roll 1 sub coor exch get aload pop % get coord for j
  % duplicate j coord
  dup 3 -1 roll dup 4 1 roll exch 8 2 roll
  6 -1 roll dup 7 1 roll mul 5 -1 roll dup 6 1 roll add exch % calculate y2
  6 -1 roll mul 5 -1 roll add exch % calculate x2
  6 -2 roll % reorder
} bind def
/drawoutline {
  gsave outlinecolor newpath
  coor 0 get aload pop 0.8 0 360 arc % draw 5' circle of 1st sequence
  currentdict /cutpoint known        % check if cutpoint is defined
  {coor 0 cutpoint getinterval
   {aload pop lineto} forall         % draw outline of 1st sequence
   coor cutpoint 1 add get aload pop
   2 copy moveto 0.8 0 360 arc       % draw 5' circle of 2nd sequence
   coor cutpoint 1 add coor length cutpoint 1 add sub getinterval
   {aload pop lineto} forall}        % draw outline of 2nd sequence
  {coor {aload pop lineto} forall}   % draw outline as a whole
  ifelse
  stroke grestore
} bind def
/drawpairs {
  paircolor
  0.7 setlinewidth
  [9 3.01] 9 setdash
  newpath
  pairs {aload pop
      currentdict (cpr) known
      { exch dup
        coor  exch 1 sub get aload pop moveto
        exch arccoords curveto
      }
      { coor exch 1 sub get aload pop moveto
        coor exch 1 sub get aload pop lineto
      }ifelse
  } forall
  stroke
} bind def
% draw bases
/drawbases {
  [] 0 setdash
  seqcolor
  0
  coor {
    aload pop moveto
    dup sequence exch 1 getinterval cshow
    1 add
  } forall
  pop
} bind def

/init {
  /Helvetica findfont fsize scalefont setfont
  1 setlinejoin
  1 setlinecap
  0.8 setlinewidth
  % find the coordinate range
  /xmax -1000 def /xmin 10000 def
  /ymax -1000 def /ymin 10000 def
  coor {
      aload pop
      dup ymin lt {dup /ymin exch def} if
      dup ymax gt {/ymax exch def} {pop} ifelse
      dup xmin lt {dup /xmin exch def} if
      dup xmax gt {/xmax exch def} {pop} ifelse
  } forall
  /size {xmax xmin sub ymax ymin sub max} bind def
  /width {xmax xmin sub} bind def
  /height {ymax ymin sub} bind def
  10 10 translate
  680 size 10 add div dup scale
  size width sub width xmin sub xmax sub add 2 div 5 add
  size height sub height ymin sub ymax sub add 2 div 5 add
  translate
} bind def
end
RNAplot begin
% extra definitions for standard anotations
/min { 2 copy gt { exch } if pop } bind def
/BLACK { 0 0 0 } def
/RED   { 1 0 0 } def
/GREEN { 0 1 0 } def
/BLUE  { 0 0 1 } def
/WHITE { 1 1 1 } def
/LabelFont { % font size LabelFont
  exch findfont exch fsize mul scalefont setfont
} bind def
/Label { % i dx dy (text) Label
  % write text at base i plus offset dx, dy
  4 3 roll 1 sub coor exch get aload pop moveto
  3 1 roll fsize mul exch fsize mul exch rmoveto
  show
} bind def
/cmark { % i cmark   draw circle around base i
  newpath 1 sub coor exch get aload pop
  fsize 2 div 0 360 arc stroke
} bind def
/gmark { % i j c gmark
  % draw basepair i,j with c counter examples in gray
  gsave
  3 min [0 0.33 0.66 0.9] exch get setgray
  1 sub dup coor exch get aload pop moveto
  sequence exch 1 getinterval cshow
  1 sub dup coor exch get aload pop moveto
  sequence exch 1 getinterval cshow
  grestore
} bind def
/segmark { % f i j lw r g b segmark
  % mark segment [i,j] with outline width lw and color rgb
  % use omark and Fomark instead
  gsave
  setrgbcolor setlinewidth
  newpath
  1 sub exch 1 sub dup
  coor exch get aload pop moveto
  currentdict (cpr) known
  {
    3 -1 roll dup 4 1 roll dup
    {
      3 1 roll dup 3 -1 roll dup
      4 1 roll exch 5 2 roll exch
    }
    {
      3 1 roll exch
    } ifelse
    1 exch { coor exch get aload pop lineto } for
    {
      dup 3 1 roll 1 add exch 1 add arccoords pop pop
      4 2 roll 5 -1 roll coor exch get aload pop curveto
    } if
  }
  {
    exch 1 exch {
      coor exch get aload pop lineto
    } for
  } ifelse
  { closepath fill } if  stroke
  grestore
} bind def
/omark { % i j lw r g b omark
  % stroke segment [i..j] with linewidth lw, color rgb
  false 7 1 roll segmark
} bind def
/Fomark { % i j r g b Fomark
  % fill segment [i..j] with color rgb
  % should precede drawbases
  1 4 1 roll true 7 1 roll segmark
} bind def
/BFmark{ % i j k l r g b BFmark
  % fill block between pairs (i,j) and (k,l) with color rgb
  % should precede drawbases
  gsave
  setrgbcolor
  newpath
  currentdict (cpr) known
  {
    dup 1 sub coor exch get aload pop moveto % move to l
    dup 1 sub 4 -1 roll dup 5 1 roll 1 sub 1 exch
    { coor exch get aload pop lineto } for % lines from l to j
    3 -1 roll 4 -1 roll dup 5 1 roll arccoords curveto % curve from j to i
    exch dup 4 -1 roll 1 sub exch 1 sub 1 exch
    { coor exch get aload pop lineto } for % lines from i to k
    exch arccoords curveto% curve from k to l
  }
  {  exch 4 3 roll exch 1 sub exch 1 sub dup
     coor exch get aload pop moveto
     exch 1 exch { coor exch get aload pop lineto } for
     exch 1 sub exch 1 sub dup
     coor exch get aload pop lineto
     exch 1 exch { coor exch get aload pop lineto } for
  } ifelse
    closepath fill stroke
   grestore
} bind def
/hsb {
  dup 0.3 mul 1 exch sub sethsbcolor
} bind def
/colorpair { % i j hue sat colorpair
  % draw basepair i,j in color
  % 1 index 0.00 ne {
  gsave
  newpath
  hsb
  fsize setlinewidth
  currentdict (cpr) known
  {
    exch dup
    coor  exch 1 sub get aload pop moveto
    exch arccoords curveto
  }
  { 1 sub coor exch get aload pop moveto
    1 sub coor exch get aload pop lineto
  } ifelse
   stroke
   grestore
   % } if
} bind def
end

%%EndProlog
RNAplot begin
% data start here
/sequence (\
UUCUUAUCAAGAG_AGGUGGAGGGA_CU_GGCCCUAUGAAACCU_CGGCAACCG_______________________________________________________________ACGGUGCU_AA_UUCCAGCAAGC__A_________CUUGAAAG_AUAAGA________________________________________________________AAAG______CUCC__UUCUUCU____U____\
____AGGAA_____AGGGUUUU_____UUU_UUUU___U_\
) def
/coor [
[216.98017883 155.44805908]
[219.40473938 134.30158997]
[204.77577209 130.98596191]
[190.14682007 127.67031860]
[175.51785278 124.35468292]
[160.88888550 121.03903961]
[146.25991821 117.72340393]
[131.61357117 114.48544312]
[122.83523560 129.29524231]
[107.19344330 138.85301208]
[87.78440857 140.06187439]
[69.03596497 131.61492920]
[55.69756699 114.52243042]
[53.87899399 130.23876953]
[40.15071869 136.01663208]
[31.35971832 148.17057800]
[22.56871796 160.32452393]
[13.77771854 172.47846985]
[17.96850014 192.17192078]
[6.44148207 208.30389404]
[-12.93723965 210.64593506]
[-21.33686256 223.07357788]
[-29.73648453 235.50122070]
[-38.13610458 247.92886353]
[-33.66630554 262.91403198]
[-39.92192459 277.24584961]
[-53.94925308 284.15728760]
[-69.12501526 280.38497925]
[-78.28367615 267.71008301]
[-77.10079956 252.11730957]
[-66.13490295 240.96908569]
[-50.56375122 239.52925110]
[-42.16412735 227.10160828]
[-33.76450729 214.67395020]
[-25.36488533 202.24630737]
[-29.92638397 193.14004517]
[-30.32368469 182.88238525]
[-26.41947174 173.30148315]
[-18.84899521 166.13233948]
[-8.91766644 162.70269775]
[1.62377572 163.68746948]
[10.41477489 151.53352356]
[19.20577431 139.37957764]
[27.99677467 127.22563171]
[29.18655586 112.37862396]
[43.54362488 105.73143005]
[38.47154236 91.61499023]
[23.95554924 87.83531952]
[9.43955517 84.05564880]
[-5.07643890 80.27597809]
[-14.12170982 81.14236450]
[-19.72602081 76.37839508]
[-34.20108414 72.44487000]
[-48.67614365 68.51135254]
[-53.97135162 82.55789948]
[-60.57780457 96.03749847]
[-68.43567657 108.82806396]
[-77.47380066 120.81376648]
[-87.61032867 131.88606262]
[-98.75344849 141.94465637]
[-110.80226135 150.89848328]
[-123.64763641 158.66644287]
[-137.17324829 165.17817688]
[-151.25659180 170.37471008]
[-165.77014160 174.20899963]
[-180.58244324 176.64631653]
[-195.55934143 177.66458130]
[-210.56523132 177.25456238]
[-225.46420288 175.41998291]
[-240.12130737 172.17745972]
[-254.40382385 167.55636597]
[-268.18240356 161.59854126]
[-281.33224487 154.35792542]
[-293.73425293 145.90013123]
[-305.27615356 136.30172729]
[-315.85339355 125.64964294]
[-325.37017822 114.04035187]
[-333.74032593 101.57899475]
[-340.88803101 88.37841797]
[-346.74853516 74.55818176]
[-351.26882935 60.24343491]
[-354.40789795 45.56382751]
[-356.13739014 30.65229988]
[-356.44155884 15.64389420]
[-355.31771851 0.67453468]
[-352.77603149 -14.12021255]
[-348.83950806 -28.60635948]
[-343.54379272 -42.65271378]
[-336.93682861 -56.13207245]
[-329.07849121 -68.92234802]
[-320.03994751 -80.90772247]
[-309.90301514 -91.97964478]
[-298.75952148 -102.03784180]
[-286.71038818 -110.99122620]
[-273.86471558 -118.75871277]
[-260.33889771 -125.26995850]
[-246.25534058 -130.46598816]
[-231.74165344 -134.29974365]
[-216.92927551 -136.73651123]
[-201.95231628 -137.75422668]
[-186.94644165 -137.34367371]
[-172.04754639 -135.50854492]
[-157.39056396 -132.26548767]
[-143.10821533 -127.64387512]
[-129.32986450 -121.68553925]
[-116.18028259 -114.44445801]
[-103.77856445 -105.98620605]
[-92.23701477 -96.38737488]
[-81.66017151 -85.73490906]
[-72.14381409 -74.12527466]
[-63.77412415 -61.66360855]
[-56.62690353 -48.46277237]
[-50.76688385 -34.64232254]
[-46.24713135 -20.32741356]
[-43.10857773 -5.64769125]
[-41.37965012 9.26390076]
[-41.07600403 24.27231598]
[-42.20038986 39.24163437]
[-44.74262238 54.03628922]
[-30.26756287 57.96981049]
[-15.79250050 61.90333176]
[-1.29676807 65.75997925]
[13.21922588 69.53964996]
[27.73521996 73.31932068]
[42.25121307 77.09899139]
[48.08648300 72.38734436]
[37.15956879 62.11103058]
[26.23265839 51.83472061]
[13.62805176 43.70306015]
[12.83109665 28.72424507]
[24.50168419 19.30100822]
[38.97635651 23.23596191]
[44.26984406 37.27070999]
[52.01343155 50.11737823]
[59.75701904 62.96404266]
[65.59228516 58.25239182]
[64.95566559 43.26590729]
[64.31905365 28.27942467]
[63.68243408 13.29294014]
[63.04581451 -1.69354439]
[49.17669678 -8.16704178]
[39.91381836 -20.35136223]
[37.38571930 -35.44663620]
[42.17333603 -49.98408127]
[53.17651367 -60.62309647]
[67.86679840 -64.91892242]
[82.86847687 -61.88439560]
[94.73426056 -52.21684265]
[100.73749542 -38.13778687]
[99.49867249 -22.88249588]
[91.30245972 -9.95652294]
[78.03230286 -2.33016253]
[78.66891479 12.65632248]
[79.30553436 27.64280701]
[79.94215393 42.62929153]
[80.57877350 57.61577606]
[103.01754761 56.44438553]
[121.89365387 65.69253540]
[133.04483032 81.77758026]
[134.77375793 99.82212067]
[143.77410889 98.57261658]
[149.57556152 103.09444427]
[164.20452881 106.41007996]
[178.83348083 109.72571564]
[193.46244812 113.04135132]
[208.09141541 116.35699463]
[222.72038269 119.67263031]
[225.68417358 110.02591705]
[229.22337341 100.57531738]
[233.32510376 91.35513306]
[237.97445679 82.39879608]
[243.15455627 73.73880005]
[248.84657288 65.40655518]
[255.02983093 57.43228912]
[261.68191528 49.84492111]
[268.77862549 42.67197037]
[276.29418945 35.93944550]
[284.20138550 29.67176247]
[292.47146606 23.89164734]
[301.07440186 18.62005615]
[309.97897339 13.87609768]
[319.15286255 9.67696953]
[328.56280518 6.03788710]
[338.17459106 2.97203588]
[347.95333862 0.49052024]
[357.86361694 -1.39767623]
[367.86941528 -2.68572307]
[377.93444824 -3.36896753]
[388.02218628 -3.44495201]
[398.09600830 -2.91342211]
[408.11935425 -1.77632785]
[418.05590820 -0.03781633]
[427.86956787 2.29578280]
[437.52474976 5.21598148]
[446.98641968 8.71216297]
[456.22024536 12.77161980]
[465.19277954 17.37960434]
[473.87139893 22.51937675]
[482.22463989 28.17226601]
[490.22225952 34.31774521]
[497.83520508 40.93349838]
[505.03585815 47.99550247]
[511.79812622 55.47811508]
[518.09747314 63.35417557]
[523.91113281 71.59508514]
[529.21789551 80.17093658]
[533.99859619 89.05059052]
[538.23590088 98.20182800]
[541.91448975 107.59142303]
[545.02099609 117.18530273]
[547.54412842 126.94864655]
[549.47485352 136.84602356]
[550.80609131 146.84152222]
[551.53302002 156.89884949]
[551.65313721 166.98153687]
[551.16595459 177.05297852]
[550.07324219 187.07664490]
[548.37902832 197.01614380]
[546.08947754 206.83543396]
[543.21289062 216.49890137]
[539.75976562 225.97145081]
[535.74261475 235.21873474]
[531.17608643 244.20721436]
[526.07666016 252.90428162]
[538.41448975 261.43533325]
[550.75225830 269.96636963]
[563.09008789 278.49743652]
[561.16223145 263.62182617]
[570.23944092 251.68014526]
[585.08843994 249.55712891]
[597.14831543 258.47677612]
[599.46606445 273.29660034]
[590.70556641 285.47253418]
[575.91790771 287.98483276]
[587.68780518 297.28372192]
[599.45770264 306.58264160]
[611.22760010 315.88156128]
[631.08111572 312.53036499]
[646.70935059 324.73165894]
[648.22680664 344.19232178]
[660.28680420 353.11181641]
[672.34674072 362.03131104]
[684.40673828 370.95080566]
[696.46667480 379.87030029]
[709.27490234 371.72695923]
[724.16064453 368.76422119]
[739.11083984 371.38278198]
[752.10351562 379.22848511]
[761.38153076 391.24026489]
[765.69012451 405.79364014]
[764.44659424 420.92034912]
[757.81909180 434.57470703]
[746.70391846 444.90997314]
[732.60437012 450.52847290]
[717.42730713 450.67031860]
[703.22521973 445.31631470]
[691.91888428 435.19055176]
[685.03735352 421.66244507]
[683.51129150 406.56161499]
[687.54718018 391.93026733]
[675.48718262 383.01077271]
[663.42724609 374.09124756]
[651.36730957 365.17175293]
[639.30731201 356.25225830]
[630.01568604 360.42318726]
[619.75042725 360.38476562]
[610.34381104 356.07745361]
[603.50244141 348.20953369]
[600.49737549 338.14160156]
[601.92864990 327.65142822]
[590.15875244 318.35253906]
[578.38885498 309.05361938]
[566.61901855 299.75473022]
[554.55902100 290.83523560]
[542.22125244 282.30416870]
[529.88342285 273.77313232]
[517.54565430 265.24209595]
[503.63644409 281.32690430]
[487.79928589 295.51895142]
[470.28961182 307.58892822]
[451.38992310 317.34182739]
[431.40521240 324.61993408]
[410.65798950 329.30554199]
[389.48306274 331.32278442]
[368.22225952 330.63882446]
[347.21878052 327.26443481]
[326.81170654 321.25384521]
[307.33053589 312.70379639]
[289.08981323 301.75213623]
[272.38415527 288.57540894]
[257.48339844 273.38607788]
[244.62820435 256.42916870]
[234.02633667 237.97827148]
[225.84913635 218.33108521]
[220.22885132 197.80465698]
] def
/pairs [
[2 167]
[3 166]
[4 165]
[5 164]
[6 163]
[7 162]
[8 160]
[13 46]
[15 44]
[16 43]
[17 42]
[18 41]
[21 35]
[22 34]
[23 33]
[24 32]
[47 125]
[48 124]
[49 123]
[50 122]
[52 121]
[53 120]
[54 119]
[136 156]
[137 155]
[138 154]
[139 153]
[140 152]
[224 277]
[225 276]
[226 275]
[227 274]
[234 273]
[235 272]
[236 271]
[237 270]
[240 264]
[241 263]
[242 262]
[243 261]
[244 260]
] def

init

% switch off outline pairs or bases by removing these lines
drawoutline
drawpairs
drawbases
% Start Annotations
2 167 17 gmark
2 cmark
167 cmark
3 166 3 gmark
3 cmark
166 cmark
4 165 2 gmark
4 cmark
165 cmark
5 164 3 gmark
5 cmark
164 cmark
6 163 4 gmark
7 162 6 gmark
8 160 18 gmark
8 cmark
160 cmark
13 46 12 gmark
15 44 21 gmark
15 cmark
44 cmark
16 cmark
43 cmark
17 cmark
42 cmark
18 41 1 gmark
18 cmark
41 cmark
21 35 15 gmark
34 cmark
24 32 1 gmark
47 cmark
125 cmark
48 124 1 gmark
49 123 1 gmark
53 120 3 gmark
53 cmark
120 cmark
54 119 25 gmark
54 cmark
119 cmark
136 156 9 gmark
136 cmark
156 cmark
137 155 9 gmark
137 cmark
155 cmark
138 154 10 gmark
138 cmark
154 cmark
139 153 8 gmark
139 cmark
153 cmark
140 152 23 gmark
140 cmark
152 cmark
224 277 13 gmark
224 cmark
277 cmark
225 276 1 gmark
225 cmark
276 cmark
226 275 1 gmark
226 cmark
275 cmark
227 274 2 gmark
227 cmark
274 cmark
234 273 2 gmark
234 cmark
273 cmark
235 272 1 gmark
235 cmark
272 cmark
236 271 2 gmark
236 cmark
271 cmark
237 270 1 gmark
237 cmark
270 cmark
240 cmark
264 cmark
241 263 1 gmark
241 cmark
263 cmark
242 262 1 gmark
242 cmark
262 cmark
243 261 4 gmark
243 cmark
261 cmark
244 260 9 gmark
244 cmark
260 cmark

% End Annotations
% show it
showpage
end
%%EOF
