%!PS-Adobe-3.0 EPSF-3.0
%%Creator: ViennaRNA-2.5.0
%%CreationDate: Mon Feb 21 22:11:20 2022
%%Title: RNA Secondary Structure Plot
%%BoundingBox: 0 0 700 700
%%DocumentFonts: Helvetica
%%Pages: 1
%%EndComments

% Program options: 

% To switch off outline pairs of sequence comment or
% delete the appropriate line near the end of the file

/RNAplot 100 dict def

RNAplot begin

%%BeginProlog

/fsize  14 def
/outlinecolor {0.2 setgray} bind def
/paircolor    {0.2 setgray} bind def
/seqcolor     {0   setgray} bind def
/cshow  { dup stringwidth pop -2 div fsize -3 div rmoveto show} bind def
/min { 2 copy gt { exch } if pop } bind def
/max { 2 copy lt { exch } if pop } bind def
/arccoords { % i j arccoords
  % puts optimal x1 y1 x2 y2 coordinates used in bezier curves from i to j
  % onto the stack
  dup 3 -1 roll dup 4 -1 roll lt dup dup 5 2 roll {exch} if
  dup 3 -1 roll dup 3 -1 roll exch sub 1 sub dup
  4 -2 roll 5 -1 roll {exch} if 4 2 roll
  sequence length dup 2 div exch 3 1 roll lt 
  {exch 5 -1 roll pop 4 -2 roll exch 4 2 roll}
  { 4 2 roll 5 -1 roll dup 6 1 roll {exch} if
    4 -2 roll exch pop dup 3 -1 roll dup 4 1 roll
    exch add 4 -1 roll dup 5 1 roll sub 1 sub
    5 -1 roll not {4 -2 roll exch 4 2 roll} if
  }ifelse
   % compute the scalingfactor and prepare (1-sf) and sf*r
  2 mul exch cpr 3 1 roll div dup
  3 -1 roll mul exch 1 exch sub exch
   % compute the coordinates
  3 -1 roll 1 sub coor exch get aload pop % get coord for i
  4 -1 roll dup 5 1 roll mul 3 -1 roll dup 4 1 roll add exch % calculate y1
  4 -1 roll dup 5 1 roll mul 3 -1 roll dup 4 1 roll add exch % calculate x1
  5 -1 roll 1 sub coor exch get aload pop % get coord for j
  % duplicate j coord
  dup 3 -1 roll dup 4 1 roll exch 8 2 roll
  6 -1 roll dup 7 1 roll mul 5 -1 roll dup 6 1 roll add exch % calculate y2
  6 -1 roll mul 5 -1 roll add exch % calculate x2
  6 -2 roll % reorder
} bind def
/drawoutline {
  gsave outlinecolor newpath
  coor 0 get aload pop 0.8 0 360 arc % draw 5' circle of 1st sequence
  currentdict /cutpoint known        % check if cutpoint is defined
  {coor 0 cutpoint getinterval
   {aload pop lineto} forall         % draw outline of 1st sequence
   coor cutpoint 1 add get aload pop
   2 copy moveto 0.8 0 360 arc       % draw 5' circle of 2nd sequence
   coor cutpoint 1 add coor length cutpoint 1 add sub getinterval
   {aload pop lineto} forall        % draw outline of 2nd sequence
     } {
        /i 0 def
        coor {
            /p coor i get def
            /a arcs i get def
            /l a length def
            l 0 eq {
                %% standard point... draw simple line
                p 0 2 getinterval aload pop lineto
            } {
                %% point in loop... draw arc around loop center
                /clockwise a 5 get def
                clockwise 0.0000000 gt {
                    a 0 5 getinterval aload pop arcn
                } {
                    a 0 5 getinterval aload pop arc
                } ifelse
            } ifelse
            /i i 1 add def
        } forall
    }
  ifelse
  stroke grestore
} bind def
/drawpairs {
  paircolor
  0.7 setlinewidth
  [9 3.01] 9 setdash
  newpath
  pairs {aload pop
      currentdict (cpr) known
      { exch dup
        coor  exch 1 sub get aload pop moveto
        exch arccoords curveto
      }
      { coor exch 1 sub get aload pop moveto
        coor exch 1 sub get aload pop lineto
      }ifelse
  } forall
  stroke
} bind def
% draw bases
/drawbases {
  [] 0 setdash
  seqcolor
  0
  coor {
    aload pop moveto
    dup sequence exch 1 getinterval cshow
    1 add
  } forall
  pop
} bind def
/init {
  /Helvetica findfont fsize scalefont setfont
  1 setlinejoin
  1 setlinecap
  0.8 setlinewidth
  % find the coordinate range
  /xmax -1000 def /xmin 10000 def
  /ymax -1000 def /ymin 10000 def
  coor {
      aload pop
      dup ymin lt {dup /ymin exch def} if
      dup ymax gt {/ymax exch def} {pop} ifelse
      dup xmin lt {dup /xmin exch def} if
      dup xmax gt {/xmax exch def} {pop} ifelse
  } forall
  /size {xmax xmin sub ymax ymin sub max} bind def
  /width {xmax xmin sub} bind def
  /height {ymax ymin sub} bind def
  10 10 translate
  680 size 10 add div dup scale
  size width sub width xmin sub xmax sub add 2 div 5 add
  size height sub height ymin sub ymax sub add 2 div 5 add
  translate
} bind def
% extra definitions for standard anotations
/min { 2 copy gt { exch } if pop } bind def
/BLACK { 0 0 0 } def
/RED   { 1 0 0 } def
/GREEN { 0 1 0 } def
/BLUE  { 0 0 1 } def
/WHITE { 1 1 1 } def
/LabelFont { % font size LabelFont
  exch findfont exch fsize mul scalefont setfont
} bind def
/Label { % i dx dy (text) Label
  % write text at base i plus offset dx, dy
  4 3 roll 1 sub coor exch get aload pop moveto
  3 1 roll fsize mul exch fsize mul exch rmoveto
  show
} bind def
/cmark { % i cmark   draw circle around base i
  newpath 1 sub coor exch get aload pop
  fsize 2 div 0 360 arc stroke
} bind def
/gmark { % i j c gmark
  % draw basepair i,j with c counter examples in gray
  gsave
  3 min [0 0.33 0.66 0.9] exch get setgray
  1 sub dup coor exch get aload pop moveto
  sequence exch 1 getinterval cshow
  1 sub dup coor exch get aload pop moveto
  sequence exch 1 getinterval cshow
  grestore
} bind def
/segmark { % f i j lw r g b segmark
  % mark segment [i,j] with outline width lw and color rgb
  % use omark and Fomark instead
  gsave
  setrgbcolor setlinewidth
  newpath
  1 sub exch 1 sub dup
  coor exch get aload pop moveto
  currentdict (cpr) known
  {
    3 -1 roll dup 4 1 roll dup
    {
      3 1 roll dup 3 -1 roll dup
      4 1 roll exch 5 2 roll exch
    }
    {
      3 1 roll exch
    } ifelse
    1 exch { coor exch get aload pop lineto } for
    {
      dup 3 1 roll 1 add exch 1 add arccoords pop pop
      4 2 roll 5 -1 roll coor exch get aload pop curveto
    } if
  }
  {
    exch 1 exch {
      coor exch get aload pop lineto
    } for
  } ifelse
  { closepath fill } if  stroke
  grestore
} bind def
/omark { % i j lw r g b omark
  % stroke segment [i..j] with linewidth lw, color rgb
  false 7 1 roll segmark
} bind def
/Fomark { % i j r g b Fomark
  % fill segment [i..j] with color rgb
  % should precede drawbases
  1 4 1 roll true 7 1 roll segmark
} bind def
/BFmark{ % i j k l r g b BFmark
  % fill block between pairs (i,j) and (k,l) with color rgb
  % should precede drawbases
  gsave
  setrgbcolor
  newpath
  currentdict (cpr) known
  {
    dup 1 sub coor exch get aload pop moveto % move to l
    dup 1 sub 4 -1 roll dup 5 1 roll 1 sub 1 exch
    { coor exch get aload pop lineto } for % lines from l to j
    3 -1 roll 4 -1 roll dup 5 1 roll arccoords curveto % curve from j to i
    exch dup 4 -1 roll 1 sub exch 1 sub 1 exch
    { coor exch get aload pop lineto } for % lines from i to k
    exch arccoords curveto% curve from k to l
  }
  {  exch 4 3 roll exch 1 sub exch 1 sub dup
     coor exch get aload pop moveto
     exch 1 exch { coor exch get aload pop lineto } for
     exch 1 sub exch 1 sub dup
     coor exch get aload pop lineto
     exch 1 exch { coor exch get aload pop lineto } for
  } ifelse
    closepath fill stroke
   grestore
} bind def
/hsb {
  dup 0.3 mul 1 exch sub sethsbcolor
} bind def
/colorpair { % i j hue sat colorpair
  % draw basepair i,j in color
  % 1 index 0.00 ne {
  gsave
  newpath
  hsb
  fsize setlinewidth
  currentdict (cpr) known
  {
    exch dup
    coor  exch 1 sub get aload pop moveto
    exch arccoords curveto
  }
  { 1 sub coor exch get aload pop moveto
    1 sub coor exch get aload pop lineto
  } ifelse
   stroke
   grestore
   % } if
} bind def

%%EndProlog

% data start here
/sequence { (\
-----------------------------ccucc-----cCYYYBYYYNYNBYHBY-N-------DVNN-------N-N-------------------Va-a---ggrRR-RRRVRRRRNBBYBBUUUWWHDDNNNNNN\
) } def
/len { sequence length } bind def

/coor [
[92.50000000 92.50000000]
[77.51274872 91.82212830]
[62.57144165 90.46772003]
[47.70659637 88.43952942]
[32.94858551 85.74170685]
[18.32755470 82.37976837]
[3.87337708 78.36057281]
[-10.38441849 73.69233704]
[-24.41670418 68.38459015]
[-38.19481277 62.44819260]
[-51.69059753 55.89525604]
[-64.87648773 48.73917389]
[-77.72554016 40.99456406]
[-90.21150970 32.67724991]
[-102.30889130 23.80422401]
[-113.99295807 14.39361000]
[-125.23985291 4.46463680]
[-136.02659607 -5.96241236]
[-146.33114624 -16.86623573]
[-156.13246155 -28.22455788]
[-165.41050720 -40.01417542]
[-174.14633179 -52.21099854]
[-182.32208252 -64.79011536]
[-189.92108154 -77.72582245]
[-196.92778015 -90.99169159]
[-203.32786560 -104.56063080]
[-209.10826111 -118.40490723]
[-214.25717163 -132.49624634]
[-218.76408386 -146.80586243]
[-222.61976624 -161.30451965]
[-225.81634521 -175.96258545]
[-228.34732056 -190.75012207]
[-230.20747375 -205.63693237]
[-231.39305115 -220.59257507]
[-231.90159607 -235.58653259]
[-231.73208618 -250.58815002]
[-230.88487244 -265.56677246]
[-229.36167908 -280.49182129]
[-227.16560364 -295.33279419]
[-224.30116272 -310.05938721]
[-220.77418518 -324.64147949]
[-216.59187317 -339.04928589]
[-211.76278687 -353.25341797]
[-206.29678345 -367.22482300]
[-200.20503235 -380.93496704]
[-193.49998474 -394.35580444]
[-186.19532776 -407.45999146]
[-178.30598450 -420.22067261]
[-169.84808350 -432.61184692]
[-160.83889771 -444.60815430]
[-151.29682922 -456.18511963]
[-141.24136353 -467.31909180]
[-130.69306946 -477.98727417]
[-119.67347717 -488.16793823]
[-108.20510101 -497.84024048]
[-96.31137085 -506.98443604]
[-84.01659393 -515.58184814]
[-71.34587860 -523.61492920]
[-58.32510757 -531.06719971]
[-44.98089218 -537.92352295]
[-31.34048462 -544.16986084]
[-17.43175697 -549.79339600]
[-3.28312135 -554.78271484]
[11.07651520 -559.12762451]
[25.61781883 -562.81915283]
[40.31108093 -565.84991455]
[55.12628174 -568.21356201]
[70.03316498 -569.90533447]
[85.00125885 -570.92181396]
[100.00000000 -571.26086426]
[114.99874115 -570.92181396]
[129.96684265 -569.90533447]
[144.87371826 -568.21356201]
[159.68891907 -565.84991455]
[174.38218689 -562.81915283]
[188.92347717 -559.12762451]
[203.28312683 -554.78271484]
[217.43176270 -549.79339600]
[231.34048462 -544.16986084]
[244.98089600 -537.92352295]
[258.32510376 -531.06719971]
[271.34588623 -523.61492920]
[284.01660156 -515.58184814]
[296.31137085 -506.98443604]
[308.20510864 -497.84024048]
[319.67346191 -488.16793823]
[330.69308472 -477.98727417]
[341.24136353 -467.31909180]
[351.29681396 -456.18511963]
[360.83889771 -444.60815430]
[369.84808350 -432.61184692]
[378.30599976 -420.22067261]
[386.19534302 -407.45999146]
[393.50000000 -394.35580444]
[400.20504761 -380.93496704]
[406.29678345 -367.22482300]
[411.76278687 -353.25341797]
[416.59185791 -339.04928589]
[420.77416992 -324.64147949]
[424.30114746 -310.05938721]
[427.16561890 -295.33279419]
[429.36166382 -280.49182129]
[430.88488770 -265.56677246]
[431.73208618 -250.58815002]
[431.90161133 -235.58653259]
[431.39303589 -220.59257507]
[430.20748901 -205.63693237]
[428.34732056 -190.75012207]
[425.81634521 -175.96258545]
[422.61975098 -161.30451965]
[418.76406860 -146.80586243]
[414.25717163 -132.49624634]
[409.10827637 -118.40490723]
[403.32785034 -104.56063080]
[396.92776489 -90.99169159]
[389.92108154 -77.72582245]
[382.32208252 -64.79011536]
[374.14633179 -52.21099854]
[365.41049194 -40.01417542]
[356.13244629 -28.22455788]
[346.33114624 -16.86623573]
[336.02661133 -5.96241236]
[325.23986816 4.46463680]
[313.99295044 14.39361000]
[302.30889893 23.80422401]
[290.21151733 32.67724991]
[277.72552490 40.99456406]
[264.87649536 48.73917389]
[251.69059753 55.89525604]
[238.19480896 62.44819260]
[224.41670227 68.38459015]
[210.38441467 73.69233704]
[196.12661743 78.36057281]
[181.67243958 82.37976837]
[167.05142212 85.74170685]
[152.29341125 88.43952942]
[137.42855835 90.46772003]
[122.48725128 91.82212830]
[107.50000000 92.50000000]
] def
/arcs [
[]
[]
[]
[]
[]
[]
[]
[]
[]
[]
[]
[]
[]
[]
[]
[]
[]
[]
[]
[]
[]
[]
[]
[]
[]
[]
[]
[]
[]
[]
[]
[]
[]
[]
[]
[]
[]
[]
[]
[]
[]
[]
[]
[]
[]
[]
[]
[]
[]
[]
[]
[]
[]
[]
[]
[]
[]
[]
[]
[]
[]
[]
[]
[]
[]
[]
[]
[]
[]
[]
[]
[]
[]
[]
[]
[]
[]
[]
[]
[]
[]
[]
[]
[]
[]
[]
[]
[]
[]
[]
[]
[]
[]
[]
[]
[]
[]
[]
[]
[]
[]
[]
[]
[]
[]
[]
[]
[]
[]
[]
[]
[]
[]
[]
[]
[]
[]
[]
[]
[]
[]
[]
[]
[]
[]
[]
[]
[]
[]
[]
[]
[]
[]
[]
[]
[]
[]
[]
[]
] def
/pairs [
] def

init

% Start Annotations

% End Annotations
% switch off outline pairs or bases by removing these lines
drawoutline
drawpairs
drawbases
% Start Annotations

% End Annotations
showpage
end
%%EOF
